﻿File Path: C:\MTS TestSuite\Data Files\ACM5 Training\Group2_10-10-18\Test Run 6 10-10-2018 17 26 54\DAQ- Crosshead, … - (Timed).txt   
Test: Tensile test with AVX with 4 strain for ACM5 2
Test Run: Test Run 6
Date: 10/10/2018 15:39:03


Crosshead 	Load 	Time 	Strain 1 	Strain 2 	Strain 3 	Strain 4 	PoissonRatio 	real stress 	real area 
mm	kN	sec	mm/mm	mm/mm	mm/mm	mm/mm	%	kN/mm²	mm²
4.65828335904916E-05	0.013410210609436	0.140000000596046	NaN	NaN	NaN	NaN	NaN	NaN	NaN
0.00135090215280798	0.0159638137817383	0.239999994635582	NaN	NaN	NaN	NaN	NaN	NaN	NaN
0.00354029521076882	0.017510139465332	0.340000003576279	7.09051982994424E-06	NaN	-1.06386996776564E-05	-4.46002013632096E-06	NaN	NaN	NaN
0.00619551701674936	0.023015567779541	0.439999997615814	7.09051982994424E-06	1.8861800299419E-06	-7.27988981452654E-06	-4.46002013632096E-06	26.6014337539673	0.00046031221875	49.9999041494448
0.00908365200302796	0.0293243198394775	0.540000021457672	3.28816008732247E-06	-9.74000954556686E-07	2.7536400466488E-06	5.3760600167152E-06	-29.6214610338211	0.0005864858125	50.0000496685971
0.0125307824418996	0.0358600006103516	0.639999985694885	1.54578992805909E-05	-2.4219400529546E-06	1.19902997539612E-05	7.31901991457562E-06	-15.6679749488831	0.00071719825	50.0001224281732
0.0159779119712766	0.0403772163391113	0.740000009536743	4.16869988839608E-06	-1.14856002255692E-05	3.3020401133399E-06	8.51419008540688E-06	-275.519943237305	0.0008075350625	50.0005735375453
0.0197511199075961	0.0483676948547363	0.839999973773956	4.34291996498359E-06	-1.51444000948686E-05	6.97461018717149E-06	1.71234005392762E-05	-348.714685440063	0.00096733925	50.0007554364856
0.0236174964811653	0.0528186302185059	0.939999997615814	2.25375006266404E-05	-2.43041995418025E-06	1.95970005734125E-05	2.96691996481968E-05	-10.7838936150074	0.00105637	50.0001224281732
0.0274372887361096	0.0615883026123047	1.03999996185303	4.44235993199982E-05	4.84212023366126E-07	-2.74364992947085E-05	3.85739003831986E-05	1.08998818323016	0.001231766625	49.9999769090209
0.0317694903060328	0.0670880279541016	1.13999998569489	4.65058983536437E-05	7.79939000494778E-07	-2.13408002309734E-05	2.26165993808536E-05	1.67707540094852	0.001341761625	49.9999623571057
0.0356358650606126	0.0715790634155273	1.24000000953674	4.93863008159678E-05	-1.80082006409066E-05	8.09336961538065E-06	7.67535038903588E-06	-36.4639580249786	0.0014315555	50.0009009556379
0.0388966655009426	0.0760173873901367	1.3400000333786	6.72691021463834E-05	-1.25730002764612E-05	4.95985004818067E-05	8.67001017468283E-06	-18.6906024813652	0.001520328625	50.0006281072274
0.0422040429839399	0.0789251861572266	1.44000005722046	0.000122576006106101	-1.70444000104908E-05	4.8900801630225E-05	3.95397983083967E-05	-13.905169069767	0.001578476875	50.0008536619134
0.0457443420600612	0.0877343139648438	1.53999996185303	0.000132610002765432	-1.04034998003044E-05	7.69456964917481E-05	5.10710015078075E-05	-7.84518495202065	0.001754668	50.0005189678632
0.0495175481773913	0.0953050689697266	1.63999998569489	0.000158480004756711	-1.29924001157633E-05	8.91954987309873E-05	7.30056999600492E-05	-8.198132365942	0.001906076625	50.0006499351002
0.0528249329363462	0.0981462936401367	1.74000000953674	0.000163388001965359	-2.30526002269471E-05	9.15940981940366E-05	8.62070010043681E-05	-14.1091138124466	0.001962880625	50.0011519761756
0.0565981426916551	0.106882720947266	1.8400000333786	0.000173759995959699	-1.6463900465169E-05	9.39000965445302E-05	8.55605030665174E-05	-9.47508066892624	0.00213761925	50.000824558083
0.0603713488089852	0.111971054077148	1.94000005722046	0.000179712995304726	-1.3513699741452E-05	0.000112966998131014	0.00010327399650123	-7.51960054039955	0.00223939075	50.0006754009519
0.064517225837335	0.117953926086426	2.03999996185303	0.000179472001036629	-1.34848996822257E-05	0.000125823993585072	0.000105416002043057	-7.51365125179291	0.00235904675	50.0006754009519
0.0684767655911855	0.126030212402344	2.14000010490417	0.000181013005203567	-1.23125000754953E-05	5.93881013628561E-05	9.64642022154294E-05	-6.80199787020683	0.00252057325	50.000617193291
0.071644397394266	0.132292465209961	2.24000000953674	0.000181013005203567	-1.23125000754953E-05	8.92414027475752E-05	9.64642022154294E-05	-6.80199787020683	0.00264581675	50.000617193291
0.0749983664718457	0.138221343994141	2.33999991416931	0.000249086995609105	-1.2962599612365E-05	0.000109804001112934	0.000125493999803439	-5.20404502749443	0.002764391	50.0006499351002
0.0781659909989685	0.140317489624023	2.44000005722046	0.000268103991402313	-5.40359997103224E-06	0.000141523996717297	0.000131331995362416	-2.01548654586077	0.00280633475	50.0002715853043
0.0816597021184862	0.146142166137695	2.53999996185303	0.000299178005661815	-2.85329997495865E-06	0.000164073993801139	0.000160444993525743	-0.953713152557611	0.002922835	50.000144256046
0.0848739218781702	0.151358993530273	2.64000010490417	0.000329929986037314	-6.11128007221851E-06	0.000170945000718348	0.000171583000337705	-1.8522959202528	0.00302716125	50.0003043271136
0.0883676329976879	0.15537580871582	2.74000000953674	0.000339182995958254	-2.36681007663719E-05	0.000175797002157196	0.000180746996193193	-6.97797387838364	0.00310744275	50.0011847179849
0.091675014118664	0.161312789916992	2.83999991416931	0.00035267201019451	6.0052698245272E-06	0.000184617005288601	0.000213802995858714	1.70279182493687	0.00322627525	49.9997004226316
0.0956345538725145	0.168705657958984	2.94000005722046	0.00035267201019451	6.0052698245272E-06	0.000175972993019968	0.000213802995858714	1.70279182493687	0.0033741335	49.9997004226316
0.0994543515844271	0.17636328125	3.03999996185303	0.000346324988640845	-4.10770007874817E-05	0.000184825999895111	0.000173000997165218	-11.8608243763447	0.00352712075	50.0020541949198
0.102808313386049	0.178209335327148	3.14000010490417	0.000353086012182757	-2.24750001507346E-05	0.000215363994357176	0.00019024100038223	-6.36530444025993	0.0035641065	50.0011228723452
0.106302024505567	0.184088104248047	3.24000000953674	0.000369827990652993	-9.12066025193781E-06	0.000158164999447763	0.000183570999070071	-2.46618967503309	0.0036817285	50.0004571222235
0.109655993583146	0.190587738037109	3.33999991416931	0.000384209008188918	-2.71343997155782E-05	0.000180358998477459	0.000203828007215634	-7.06240609288216	0.00381165125	50.0013557029888
0.113149704702664	0.197097518920898	3.44000005722046	0.000411301996791735	-1.72834006662015E-05	0.000214736995985731	0.000215767999179661	-4.20211926102638	0.00394188225	50.0008645758498
0.116084418550599	0.203097076416016	3.53999996185303	0.000458900991361588	-7.7985296229599E-06	0.000226040006964467	0.000246079987846315	-1.69939268380404	0.00406190975	50.0003916386049
0.119438380352221	0.205103591918945	3.64000010490417	0.000488448014948517	-8.68759980221512E-06	0.000255663995631039	0.000260383007116616	-1.77861303091049	0.00410203625	50.0004352943506
0.122745768749155	0.212558181762695	3.74000000953674	0.000545106013305485	-1.32843997562304E-05	0.000277084007393569	0.000283361005131155	-2.43703052401543	0.004251107	50.0006644870155
0.12656555918511	0.216538040161133	3.83999991416931	0.000544208975043148	-1.80811002792325E-05	0.0002808429999277	0.000297405000310391	-3.32245528697968	0.0043306825	50.0009045936167
0.130012689623982	0.224809432983398	3.94000005722046	0.00054964201990515	-1.66344998433487E-05	0.000269746000412852	0.0002994230017066	-3.02642453461885	0.004496114	50.0008318340406
0.133506400743499	0.230678237915039	4.03999996185303	0.00052911601960659	-1.48600001921295E-05	0.000267575989710167	0.000293466990115121	-2.80845779925585	0.004613496	50.0007445225492
0.136767193907872	0.23439680480957	4.1399998664856	0.00052373600192368	-4.20561991631985E-06	0.000273309007752687	0.00029142398852855	-0.803003832697868	0.0046879165	50.0002097396646
0.140307485708036	0.241689590454102	4.23999977111816	0.000516893982421607	-6.76482977723936E-06	0.000282899010926485	0.000262396002653986	-1.3087460771203	0.004833759	50.0003370689228
0.143987534102052	0.245220581054688	4.34000015258789	0.000521562993526459	-4.39803989138454E-06	0.000253178994171321	0.000269437005044892	-0.84324236959219	0.00490439	50.000220653601
0.147294922498986	0.251221542358398	4.44000005722046	0.000578331004362553	-1.05280996649526E-05	0.000281491986243054	0.000302419997751713	-1.82042811065912	0.005024378	50.0005262438208
0.150602296344005	0.255319564819336	4.53999996185303	0.000617986021097749	-1.79300004674587E-05	0.000316972000291571	0.00031825399491936	-2.90136020630598	0.0051062995	50.0008973176591
0.153676766785793	0.263824371337891	4.6399998664856	0.000653332972433418	-1.89556994882878E-05	0.000351905997376889	0.000341203995049	-2.90138404816389	0.0052763875	50.0009482493624
0.157170477905311	0.26615234375	4.73999977111816	0.000732428976334631	-2.26692991418531E-05	0.000371069996617734	0.000387211999623105	-3.09508498758078	0.005322926	50.0011337862816
0.160664189024828	0.272159790039062	4.84000015258789	0.000748030026443303	-2.61251007032115E-05	0.000374741008272395	0.000393188995076343	-3.49252037703991	0.0054430535	50.0013047712855
0.1641113194637	0.277597076416016	4.94000005722046	0.000765290984418243	-2.52663994615432E-05	0.000376862997654825	0.000398906995542347	-3.30154150724411	0.0055518015	50.0012647535186
0.166906276717782	0.284122619628906	5.03999996185303	0.000760880997404456	-1.40346000989666E-05	0.000375697010895237	0.000404049002099782	-1.84451974928379	0.0056823725	50.0007008668035
0.170260245795362	0.288985992431641	5.1399998664856	0.00073393399361521	-1.29247000586474E-05	0.000368498003808782	0.000398156989831477	-1.76101662218571	0.005779645	50.0006462971214
0.173660795553587	0.291679931640625	5.23999977111816	0.000721219985280186	-1.03267002486973E-05	0.000369263987522572	0.000390359986340627	-1.43183767795563	0.0058335385	50.0005153298844
0.177340843947604	0.298820892333984	5.34000015258789	0.000725284975487739	-1.09124002847238E-05	0.000380676006898284	0.000384568993467838	-1.5045671723783	0.0059763525	50.0005444337148
0.180648217792623	0.304777252197266	5.44000005722046	0.000726613972801715	-1.83806005225051E-05	0.0003891889937222	0.000389438006095588	-2.52962373197079	0.006095433	50.000919145532
0.184281685505994	0.310028289794922	5.53999996185303	0.000726613972801715	-1.83806005225051E-05	0.000426423997851089	0.000389438006095588	-2.52962373197079	0.006200452	50.000919145532
0.187635640031658	0.315201385498047	5.6399998664856	0.000783552008215338	-9.25169024412753E-06	0.00042939800187014	0.000411310000345111	-1.18073718622327	0.0063039695	50.0004643981811
0.191222527064383	0.322781127929687	5.73999977111816	0.000822174013592303	-7.11686016074964E-06	0.000448525999672711	0.000432125991210341	-0.865614786744118	0.0064555765	50.0003552588169
0.194436739548109	0.328009155273437	5.84000015258789	0.000923299987334758	-8.37850984680699E-06	0.000480401999084279	0.000498396984767169	-0.907452590763569	0.006560128	50.0004207424354
0.197557790670544	0.332905364990234	5.94000005722046	0.000931576010771096	-1.12518000605633E-05	0.000483820011140779	0.000495532993227243	-1.20782414451241	0.0066580325	50.0005626236089
0.20053909975104	0.338000915527344	6.03999996185303	0.000974902010057122	-1.83790998562472E-05	0.000497328990604728	0.00051258597522974	-1.88522543758154	0.006759894	50.000919145532
0.203753312234767	0.344199523925781	6.1399998664856	0.000986504019238055	-9.26529992284486E-06	0.000498751003760844	0.000528839998878539	-0.939205475151539	0.0068839265	50.0004643981811
0.207014119951054	0.345550567626953	6.23999977111816	0.000986504019238055	-9.26529992284486E-06	0.000488915015012026	0.000528839998878539	-0.939205475151539	0.0069109475	50.0004643981811
0.210461250389926	0.348949249267578	6.34000015258789	0.000921064987778664	-2.30714995268499E-05	0.000480096990941092	0.00049525301437825	-2.50487215816975	0.006978824	50.0011519761756
0.213908380828798	0.355716613769531	6.44000005722046	0.000914871983695775	-1.46869997479371E-05	0.000484085991047323	0.000487860001157969	-1.60536114126444	0.007114228	50.0007336086128
0.217355496715754	0.363493286132813	6.53999996185303	0.000931354996282607	-1.13992000478902E-05	0.000516763015184551	0.000486517994431779	-1.22393714264035	0.007269783	50.0005698995665
0.221175287151709	0.367008697509766	6.6399998664856	0.000966506020631641	-1.11740000647842E-05	0.000555277976673096	0.00051329901907593	-1.1561231687665	0.007340092	50.0005589856301
0.224668998271227	0.375153625488281	6.73999977111816	0.000984337995760143	-1.81593004526803E-05	0.000527849013451487	0.00051793601596728	-1.84482354670763	0.0075029365	50.0009082315955
0.227976386668161	0.381872375488281	6.84000015258789	0.00105538999196142	-1.0849000318558E-05	0.000559896987397224	0.00056738598505035	-1.02796126157045	0.0076373645	50.000540795736
0.230678182560951	0.382954376220703	6.94000005722046	0.00109558994881809	-2.40256995311938E-05	0.000577315979171544	0.00058604299556464	-2.19294633716345	0.0076589035	50.0012029078789
0.233799233683385	0.388110168457031	7.03999996185303	0.00116045994218439	-3.68045994036947E-06	0.000581249012611806	0.000621568004135042	-0.317155267111957	0.007762175	50.0001842738129
0.237013460719027	0.390905517578125	7.1399998664856	0.00116147997323424	-9.33709998207632E-06	0.000587114016525447	0.000626243010628968	-0.80389678478241	0.0078180375	50.0004680361599
0.240460576605983	0.394424865722656	7.23999977111816	0.00115103996358812	-2.0701700123027E-05	0.000577785016503185	0.000602526997681707	-1.7985213547945	0.007888334	50.0010355608538
0.243488466367126	0.399852508544922	7.34000015258789	0.00115320994518697	-1.22617002489278E-05	0.000576919002924114	0.000590197974815965	-1.06326686218381	0.007996952	50.0006135553122
0.246982177486643	0.405190673828125	7.44000005722046	0.00115320994518697	-1.22617002489278E-05	0.000582068983931094	0.000590197974815965	-1.06326686218381	0.008103714	50.0006135553122
0.2504292933736	0.414030944824219	7.53999996185303	0.00110422004945576	-1.77697002072819E-05	0.000595348014030606	0.00058048201026395	-1.60925351083279	0.008280472	50.0008900417015
0.254342245170847	0.417762481689453	7.6399998664856	0.00111128995195031	-1.82707008207217E-05	0.000619532016571611	0.000585954985581338	-1.64409838616848	0.008355097	50.0009118695743
0.25806890334934	0.425295959472656	7.73999977111816	0.00116828002501279	-1.8875800378737E-05	0.000634915020782501	0.000604555010795593	-1.61569137126207	0.008505759	50.0009446113836
0.261329667409882	0.43087890625	7.84000015258789	0.0011917999945581	-1.71142000908731E-05	0.000644207990262657	0.000639737001620233	-1.43599594011903	0.008617431	50.0008572998922
0.264264410361648	0.434136108398438	7.94000005722046	0.00125533994287252	-1.20238000818063E-05	0.000656688993331045	0.000678596028592438	-0.957812182605267	0.008682618	50.0006026413757
0.267385446932167	0.441092468261719	8.03999996185303	0.00131947000045329	-5.65747996006394E-06	0.000675730989314616	0.000719860021490604	-0.428769132122397	0.008821799	50.0002824992407
0.270506512606516	0.442061767578125	8.14000034332275	0.00131947000045329	-5.65747996006394E-06	0.000677769014146179	0.000719860021490604	-0.428769132122397	0.008841185	50.0002824992407
0.273767305770889	0.449774017333984	8.23999977111816	0.00135083997156471	-1.23522995636449E-05	0.000682886980939657	0.000717430026270449	-0.914416182786226	0.008995369	50.000617193291
0.276934937573969	0.451087829589844	8.34000015258789	0.00135637994389981	-2.0357700122986E-05	0.000684835016727448	0.000702523975633085	-1.50088472291827	0.009021573	50.0010173709597
0.280195730738342	0.457639862060547	8.4399995803833	0.00134626997169107	-4.62330990558257E-06	0.000682703976053745	0.00070351897738874	-0.343416258692741	0.009152755	50.0002315675374
0.283642846625298	0.464297149658203	8.53999996185303	0.00133656000252813	-5.35098979526083E-06	0.000685482984408736	0.000707056024111807	-0.400355411693454	0.009285893	50.0002679473255
0.287416070932522	0.469140747070313	8.64000034332275	0.00131469999905676	-1.26298000395764E-05	0.000691551016643643	0.000679087010212243	-0.960660260170698	0.009382696	50.0006317452062
0.291142700007185	0.476075958251953	8.73999977111816	0.00130588002502918	-1.95286993402988E-05	0.00072306499350816	0.000678492011502385	-1.4954436570406	0.009521333	50.0009773531929
0.294217170448974	0.480923889160156	8.84000015258789	0.00130588002502918	-1.95286993402988E-05	0.000756576017010957	0.000678492011502385	-1.4954436570406	0.00961829	50.0009773531929
0.297710881568491	0.485213134765625	8.9399995803833	0.00137180997990072	-1.82366002263734E-05	0.000779412977863103	0.000713931978680193	-1.32938232272863	0.009704086	50.0009118695743
0.300925108604133	0.489793243408203	9.03999996185303	0.00140625005587935	-1.45782996696653E-05	0.000751679996028543	0.000739294977393001	-1.03667909279466	0.009795722	50.000729970634
0.304279063129798	0.495628265380859	9.14000034332275	0.00148793996777385	-9.98183986666845E-06	0.000771606981288642	0.000794737017713487	-0.670849625021219	0.009912466	50.0005007779691
0.307120615616441	0.501229644775391	9.23999977111816	0.00150381994899362	-2.16904991248157E-05	0.000772463972680271	0.000785526994150132	-1.44236013293266	0.010024375	50.0010828545783
0.310428004013374	0.506030242919922	9.34000015258789	0.00153482996392995	-2.39994005823974E-05	0.000778886023908854	0.000800259003881365	-1.5636520460248	0.010120362	50.0011992699001
0.313642201945186	0.510078979492188	9.4399995803833	0.00153838994447142	-2.5531300707371E-05	0.000785224023275077	0.000801654008682817	-1.65961161255836	0.010201319	50.001275667455
0.317368831019849	0.517499084472656	9.53999996185303	0.00154748000204563	-2.63221008935943E-05	0.000783642986789346	0.000798029999714345	-1.70096550136805	0.010349709	50.0013156852219
0.320722785545513	0.519221801757813	9.64000034332275	0.00151964998804033	-1.79611997737084E-05	0.000782586983405054	0.000805463991127908	-1.18193002417684	0.01038425	50.0008973176591
0.3241699305363	0.526373413085938	9.73999977111816	0.00150816002860665	-1.25976002891548E-05	0.000875771977007389	0.000797000015154481	-0.835295952856541	0.010527336	50.0006281072274
0.32729099621065	0.530774597167969	9.84000015258789	0.00155825994443148	-1.92548995983088E-05	0.000883152009919286	0.000797568005509675	-1.23566668480635	0.010615288	50.0009628012776
0.330784707330167	0.535354064941406	9.9399995803833	0.00156512996181846	-1.77000001713168E-05	0.000909661990590394	0.000796101987361908	-1.13089643418789	0.010706892	50.0008864037227
0.334278418449685	0.540836547851563	10.039999961853	0.00160425994545221	-1.75579007191118E-05	0.000928479013964534	0.000835879996884614	-1.09445480629802	0.010816541	50.0008791277651
0.33767893910408	0.547504638671875	10.1400003433228	0.00164705002680421	-1.52717002492864E-05	0.000948318978771567	0.000852834025863558	-0.927215348929167	0.010949926	50.0007627124432
0.340893166139722	0.550474731445313	10.2399997711182	0.00166214001365006	-1.82814001163933E-05	0.000888302980456501	0.000875966972671449	-1.09987128525972	0.011009293	50.0009155075531
0.344060797942802	0.556994506835938	10.3400001525879	0.00175556994508952	-2.32354996114736E-05	0.000898035010322928	0.000919914979021996	-1.32353026419878	0.011139631	50.001162890112
0.347321591107175	0.5594892578125	10.4399995803833	0.00177146005444229	-2.00735994440038E-05	0.000947221997193992	0.000928620982449502	-1.1331669986248	0.011189561	50.0010028190445
0.350815331330523	0.565688171386719	10.539999961853	0.00177663995418698	-3.12301017402206E-05	0.000944944971706718	0.00093236897373572	-1.75781808793545	0.01131341	50.0015630677808
0.354262447217479	0.56836279296875	10.6400003433228	0.00177884998265654	-2.28705994231859E-05	0.00095560698537156	0.000923094979953021	-1.28569584339857	0.011366996	50.001144700218
0.357150594936684	0.573572326660156	10.7399997711182	0.00177139998413622	-2.82730998151237E-05	0.00096713297534734	0.000896103971172124	-1.59608777612448	0.011471122	50.0014139106497
0.360318226739764	0.576432434082031	10.8400001525879	0.0017653499962762	-3.12002011924051E-05	0.000975225993897766	0.000889586983248591	-1.76736619323492	0.011528289	50.001559429802
0.363672181265429	0.5817509765625	10.9399995803833	0.00175675994250923	-4.63430988020264E-05	0.000995415961369872	0.000876025995239615	-2.63798702508211	0.01163448	50.0023161293939
0.367259053746238	0.587613891601563	11.039999961853	0.0017724500503391	-3.98765987483785E-05	0.00101468001957983	0.000882639025803655	-2.24980115890503	0.011751809	50.00199234928
0.370613008271903	0.319646301269531	11.1400003433228	0.00178566004615277	-3.76759999198839E-05	0.00102470000274479	0.000896996003575623	-2.10992023348808	0.006392685	50.0018832099158
0.374293071217835	0.289784362792969	11.2399997711182	0.00182353996206075	-3.18199017783627E-05	0.00103070004843175	0.000931931019295007	-1.74495205283165	0.005795503	50.0015921716113
0.377553864382207	0.276021423339844	11.3400001525879	0.000924361986108124	-4.1001499084814E-06	0.000496988010127097	0.000502921990118921	-0.443565379828215	0.005520406	50.0002061016858
0.381140736863017	0.269641204833984	11.4399995803833	0.000700632983352989	9.52666960074566E-06	0.000401417986722663	0.000386636995244771	1.35972332209349	0.0053928755	49.99952216167
0.384308368666098	0.266420959472656	11.539999961853	0.000700702017638832	3.40987003255577E-06	0.000402109988499433	0.000397330004489049	0.486636254936457	0.0053284375	49.9998277518898
0.387522566597909	0.264098205566406	11.6400003433228	0.000735734007321298	-1.47088996982347E-07	0.000395204988308251	0.000404463993618265	-0.0199921443709172	0.0052819635	50.0000060128514
0.390410714317113	0.260049774169922	11.7399997711182	0.000738588976673782	-5.93463983022957E-06	0.000369387998944148	0.000405185011914	-0.803510472178459	0.0052009645	50.0002970511559
0.393718102714047	0.257337707519531	11.8400001525879	0.000690512009896338	-7.46252999306307E-06	0.000358830002369359	0.000391467998269945	-1.08072413131595	0.0051467155	50.0003734487109
0.396839139284566	0.257102844238281	11.9399995803833	0.000609133974649012	-1.09954999061301E-05	0.000353470997652039	0.000340441009029746	-1.80510357022285	0.0051420005	50.0005480716936
0.400426040869206	0.25577360534668	12.039999961853	0.000623210973571986	6.63774017084506E-06	0.000334209005814046	0.000351811002474278	1.0650871321559	0.005115506	49.9996676808223
0.403779995394871	0.254403869628906	12.1400003433228	0.000687872990965843	6.94472009854508E-06	0.000383061007596552	0.000388396991183981	1.00959334522486	0.0050881125	49.9996531289071
0.40736686787568	0.257023742675781	12.2399997711182	0.000716061971616	1.16684996100958E-05	0.000382547004846856	0.00040483201155439	1.62953771650791	0.005140535	49.9994166602846
0.411000335589051	0.255892654418945	12.3400001525879	0.000710753025487065	1.04154996733996E-05	0.000376451993361115	0.000406292005209252	1.46541763097048	0.0051179065	49.9994785059243
0.414726964663714	0.256446533203125	12.4399995803833	0.000639592006336898	8.66209029481979E-06	0.000355844007572159	0.000376987009076402	1.35431494563818	0.005128975	49.9995658174157
0.418174080550671	0.255239898681641	12.539999961853	0.000614795018918812	9.53948983806185E-06	0.000362838996807113	0.00035599700640887	1.55165381729603	0.0051048465	49.99952216167
0.420875905547291	0.255085220336914	12.6400003433228	0.000633809017017484	3.13917007588316E-05	0.000379714008886367	0.000367795000784099	4.9528643488884	0.0051018645	49.9984307680279
0.423857185523957	0.255224166870117	12.7399997711182	0.000665478990413249	2.08609999390319E-05	0.000372306996723637	0.000385296996682882	3.13473455607891	0.00510459	49.9989582749549
0.427071412559599	0.251973754882812	12.8400001525879	0.000729514984413981	1.6784100807854E-05	0.000384557002689689	0.000415635004173964	2.30072028934956	0.0050395595	49.9991620017681
0.430518528446555	0.254661422729492	12.9399995803833	0.000733386026695371	1.67692996910773E-05	0.000385569990612566	0.00041887498809956	2.28655859827995	0.005093314	49.9991620017681
0.433592998888344	0.257165161132813	13.039999961853	0.000718067982234061	2.0583400328178E-05	0.000386745989089832	0.000412330002291128	2.86649726331234	0.005143409	49.9989691888914
0.436946953414008	0.252944976806641	13.1400003433228	0.000622869993094355	1.16470000648405E-05	0.000365851999958977	0.000354757998138666	1.8698925152421	0.0050589585	49.9994166602846
0.440347532276064	0.254503341674805	13.2399997711182	0.000613845011685044	1.9181499737897E-05	0.000365851999958977	0.000349017005646601	3.12481168657541	0.0050901645	49.9990419484675
0.44421388884075	0.256927825927734	13.3400001525879	0.000626229972112924	1.57070007844595E-05	0.000393516995245591	0.000354860007064417	2.50818394124508	0.005138637	49.9992129334714
0.447893951786682	0.255373413085938	13.4399995803833	0.00064802699489519	2.9272000574565E-06	0.000361170998075977	0.000364836014341563	0.451709562912583	0.005107483	49.9998532177415
0.451387633802369	0.256348236083984	13.539999961853	0.000709652027580887	-1.76075991475955E-05	0.000370018999092281	0.000390214001527056	-2.48115975409746	0.0051268745	50.0008791277651
0.454275781521574	0.258790069580078	13.6400003433228	0.000700927979778498	6.04303977524978E-06	0.00038905898691155	0.000399746000766754	0.862148497253656	0.0051758325	49.9996967846528
0.457490008557215	0.253396850585938	13.7399997711182	0.000674694019835442	3.49123984051403E-05	0.00038467301055789	0.000400621996959671	5.1745530217886	0.005068114	49.9982561450452
0.460517883766443	0.255949340820313	13.8400001525879	0.000619049009401351	3.5592500353232E-05	0.000352092989487574	0.000373374990886077	5.74954487383366	0.005119169	49.9982197652571
0.463918404420838	0.256277435302734	13.9399995803833	0.000611415016464889	-1.19783999252832E-05	0.000352092989487574	0.000341072009177879	-1.95912756025791	0.0051254875	50.0005990033969
0.467039470095187	0.256651580810547	14.039999961853	0.000644488027319312	-1.55446996359387E-05	0.000332285009790212	0.000363925006240606	-2.41194553673267	0.005132952	50.0007772643585
0.470393453724682	0.258705047607422	14.1400003433228	0.000672799011226743	-1.46139000207768E-05	0.000366183987352997	0.000376423005945981	-2.17210482805967	0.0051740255	50.000729970634
0.473700813017786	0.256652740478516	14.2399997711182	0.000727324979379773	-2.55598006333457E-05	0.000360275007551536	0.000402270990889519	-3.51421982049942	0.0051329235	50.0012793054339
0.477613764815032	0.259060546875	14.3400001525879	0.000703427998814732	-2.5652399926912E-05	0.000349587993696332	0.000397346011595801	-3.64676974713802	0.005181078	50.0012829434127
0.481340393889695	0.260672943115234	14.4399995803833	0.000675252988003194	-2.64654991042335E-05	0.000345072010532022	0.00038610098999925	-3.91934588551521	0.005213321	50.0013229611795
0.484508025692776	0.258867370605469	14.539999961853	0.000609610986430198	-2.32499005505815E-05	0.000375047995476052	0.000334161013597623	-3.81389111280441	0.005177227	50.001162890112
0.487955170683563	0.257953125	14.6400003433228	0.000609932991210371	-1.78987993422197E-05	0.000375047995476052	0.000333281990606338	-2.93455179780722	0.00515897	50.0008936796803
0.491262529976666	0.256764617919922	14.7399997711182	0.0006599550251849	-9.65649996942375E-06	0.00034947000676766	0.000375853007426485	-1.46320583298802	0.005135243	50.0004825880751
0.494663079734892	0.256434875488281	14.8400001525879	0.000691274006385356	-4.77548019262031E-06	0.000379689008696005	0.000383389997296035	-0.690823048353195	0.005128673	50.000238843495
0.497458095196635	0.25529426574707	14.9399995803833	0.000710308027919382	-1.77882993739331E-05	0.000372120004612952	0.000405144004616886	-2.50430796295404	0.0051057945	50.0008900417015
0.500672264024615	0.25526042175293	15.039999961853	0.000666284002363682	-1.31834003695985E-05	0.000354201009031385	0.000384398008463904	-1.97864565998316	0.005105141	50.0006608490366
0.503886549267918	0.252895645141602	15.1400003433228	0.000632488983683288	-1.83653992280597E-05	0.000360529986210167	0.000368929002434015	-2.90367100387812	0.00505782	50.000919145532
0.507519987877458	0.251854949951172	15.2399997711182	0.000589194998610765	-1.41263999466901E-05	0.000375915988115594	0.000321869010804221	-2.39757634699345	0.005037028	50.0007045047823
0.510873913299292	0.253606735229492	15.3400001525879	0.000605078006628901	-1.15544999061967E-05	0.000329867994878441	0.000328096008161083	-1.90958846360445	0.005072076	50.0005771755241
0.514321029186249	0.254620315551758	15.4399995803833	0.000681079982314259	-1.42063004204829E-06	0.000373287999536842	0.000387770007364452	-0.208584894426167	0.005092399	50.0000714964699
0.517348933499306	0.25575830078125	15.539999961853	0.000697080977261066	-8.15437033452326E-06	0.000369101006072015	0.000397578987758607	-1.16978799924254	0.0051151245	50.0004061905202
0.520842673722655	0.253884857177734	15.6400003433228	0.000667511019855738	-1.45062003866769E-05	0.000366502994438633	0.000379106000764295	-2.17317771166563	0.0050776235	50.0007263326552
0.524243165273219	0.252732559204102	15.7399997711182	0.000605380977503955	-1.27696002891753E-05	0.000346777000231668	0.000362866994692013	-2.10934933274984	0.0050545865	50.0006390211638
0.527736905496567	0.253324340820313	15.8400001525879	0.000577347003854811	-2.4444800146739E-05	0.000352919014403597	0.000325633998727426	-4.2339876294136	0.005066363	50.0012210977729
0.530811375938356	0.252061737060547	15.9399995803833	0.000590267998632044	-1.51720996655058E-05	0.000315709999995306	0.000322406995110214	-2.57037486881018	0.0050411585	50.0007590744644
0.534072169102728	0.252120681762695	16.0400009155273	0.000602539977990091	-9.87713974609505E-06	0.000333380012307316	0.000343299005180597	-1.63925047963858	0.005042364	50.0004935020115
0.537146639544517	0.249955230712891	16.1399993896484	0.000683669000864029	-2.50037992373109E-05	0.000356489006662741	0.000375511008314788	-3.65729629993439	0.0049989795	50.0012502016034
0.540686945896596	0.249488739013672	16.2399997711182	0.000687503023073077	-2.00518006749917E-05	0.00036351999733597	0.000376006006263196	-2.91661266237497	0.0049896745	50.0010028190445
0.544134061783552	0.249347381591797	16.3400001525879	0.000653111026622355	-3.3543799418112E-06	0.00036000000545755	0.000382161990273744	-0.513600278645754	0.004986931	50.0001660839189
0.547208532225341	0.249169570922852	16.4400005340576	0.000615890021435916	-1.62536998686846E-05	0.000355844997102395	0.000360659993020818	-2.63905897736549	0.0049833105	50.0008136441465
0.550189870409667	0.248518585205078	16.5400009155273	0.000553180987481028	4.76769992019399E-06	0.000355844997102395	0.000314284989144653	0.861869845539331	0.0049703955	49.9997622682713
0.553636986296624	0.243004470825195	16.6399993896484	0.000590212002862245	8.6791797002661E-06	0.000377896009013057	0.000352765986463055	1.47051904350519	0.0048601315	49.9995658174157
0.557223858777434	0.247635406494141	16.7399997711182	0.000663500977680087	9.6512403615634E-06	0.000388140993891284	0.000381010002456605	1.45459314808249	0.004952756	49.9995185236912
0.560624350327998	0.249663696289063	16.8400001525879	0.000695117982104421	-1.88966005225666E-05	0.00037292399792932	0.000384638988180086	-2.71847378462553	0.0049931795	50.0009446113836
0.5642578471452	0.248297256469727	16.9400005340576	0.000644164974801242	-2.87102993752342E-05	0.000353059003828093	0.000362686987500638	-4.45697903633118	0.0049658025	50.0014357385226
0.567611830774695	0.244217636108398	17.0400009155273	0.000574255012907088	-2.30534005822847E-05	0.000346668995916843	0.000320755993016064	-4.01448830962181	0.00488424	50.0011519761756
0.571198703255504	0.244732849121094	17.1399993896484	0.000565944996196777	-2.13710991374683E-05	0.000376200012397021	0.000294563011266291	-3.77617962658405	0.0048945525	50.001068302663
0.574412872083485	0.241876861572266	17.2399997711182	0.000563494977541268	-1.03058000604506E-05	0.000376200012397021	0.000312961987219751	-1.82890705764294	0.0048374875	50.0005153298844
0.577766913920641	0.24031803894043	17.3400001525879	0.000647603999823332	-2.12362992897397E-05	0.000352586997905746	0.000358894991222769	-3.27921062707901	0.0048062585	50.0010610267054
0.580608437303454	0.242347183227539	17.4400005340576	0.000649651978164911	-2.19354005821515E-05	0.000353754992829636	0.000374160008504987	-3.37648466229439	0.0048468375	50.0010974064935
0.583822664339095	0.239186645507813	17.5400009155273	0.000626128981821239	-2.82534001598833E-05	0.000334167008986697	0.000349136011209339	-4.5123927295208	0.004783598	50.0014139106497
0.586897134780884	0.239587127685547	17.6399993896484	0.000560880987904966	-2.37759995798115E-05	0.000341759994626045	0.000339123012963682	-4.23904545605183	0.0047916285	50.0011883559637
0.590390816796571	0.239431030273438	17.7399997711182	0.000551706994883716	-7.79076981416438E-06	0.000347043009242043	0.000302783999359235	-1.41212092712522	0.0047885835	50.0003880006261
0.593651609960943	0.237882247924805	17.8400001525879	0.000555542996153235	-1.41447999340016E-05	0.00031251399195753	0.000320411985740066	-2.54612155258656	0.0047575775	50.0007081427611
0.597238482441753	0.235112457275391	17.9400005340576	0.000581022992264479	-1.03756001408328E-05	0.000319492013659328	0.000331260991515592	-1.78574677556753	0.0047022005	50.0005189678632
0.600685656536371	0.237104415893555	18.0400009155273	0.000648751971311867	-1.5453599189641E-05	0.000358485005563125	0.000366179010597989	-2.38205045461655	0.004742015	50.0007736263797
0.604552042204887	0.237749084472656	18.1399993896484	0.000643638020846993	-2.94811002277129E-06	0.000352083996403962	0.000360528996679932	-0.458038505166769	0.0047549675	50.0001478940248
0.607999158091843	0.23552522277832	18.2399997711182	0.000581974978558719	-1.53192995639984E-05	0.000332799012539908	0.00034174500615336	-2.63229515403509	0.0047104325	50.0007663504221
0.610933813732117	0.233426177978516	18.3400001525879	0.000519310007803142	-1.32099003167241E-05	0.000349353009369224	0.00029860800714232	-2.54374071955681	0.004668462	50.0006608490366
0.61372882919386	0.230911163330078	18.4400005340576	0.000537138024810702	-2.35067000176059E-05	0.000349353009369224	0.000289652991341427	-4.37628701329231	0.0046181145	50.0011738040484
0.617036246694624	0.234143478393555	18.5400009155273	0.000561515975277871	-2.8636900424317E-06	0.000342323997756466	0.000316632009344175	-0.509992614388466	0.004682856	50.000144256046
0.620343547780067	0.231098556518555	18.6399993896484	0.000598000013269484	-5.6253197726619E-06	0.000348555011441931	0.000332616007653996	-0.940688978880644	0.004621945	50.0002824992407
0.623650965280831	0.233443466186523	18.7399997711182	0.000626242021098733	-1.49302004501806E-05	0.000339496997185051	0.000346899993019179	-2.3840943351388	0.0046687995	50.000748160528
0.626818626187742	0.231315673828125	18.8400001525879	0.000602873973548412	-2.7844900614582E-05	0.000324527005432174	0.000340627011610195	-4.61869314312935	0.0046261845	50.0013920827769
0.630312308203429	0.23122981262207	18.9400005340576	0.00054160098079592	-3.33839016093407E-05	0.000321064988384023	0.000326706009218469	-6.16392865777016	0.004624442	50.0016685691662
0.634085561614484	0.231055892944336	19.0400009155273	0.000532646023202688	-4.74264015792869E-05	0.000332450988935307	0.000312374992063269	-8.90392512083054	0.0046208985	50.002370699076
0.637905322946608	0.231934722900391	19.1399993896484	0.000521818001288921	-3.64408006134909E-05	0.000332450988935307	0.000279602012597024	-6.98343068361282	0.0046385255	50.0018213642761
0.641538819763809	0.231967407226563	19.2399997711182	0.000574396981392056	-3.24354004987981E-05	0.000348728994140401	0.000324366992572322	-5.64686097204685	0.0046391975	50.0016212754417
0.644426909275353	0.230275497436523	19.3400001525879	0.000620269973296672	-2.43255999521352E-05	0.000360075995558873	0.000341714010573924	-3.9217758923769	0.004605398	50.0012174597941
0.647594511974603	0.227103271484375	19.4400005340576	0.000604532018769532	8.42398003442213E-06	0.000374558992916718	0.000344111991580576	1.3934712857008	0.0045421035	49.9995803693309
0.650622416287661	0.230741149902344	19.5400009155273	0.000584134017117321	7.68213976698462E-06	0.000356572010787204	0.00033193698618561	1.31513318046927	0.0046148585	49.999616749119
0.653976399917156	0.227942916870117	19.6399993896484	0.000511486025061458	1.21839002531487E-05	0.000368712993804365	0.000273599987849593	2.38205939531326	0.004558914	49.999391194433
0.657004304230213	0.226337127685547	19.7399997711182	0.00050659297266975	1.12747002276592E-05	0.0003042760072276	0.000279225991107523	2.22559329122305	0.0045267935	49.9994348501787
0.660404795780778	0.22706884765625	19.8400001525879	0.000529196986462921	-1.35082996166602E-06	0.0003042760072276	0.000315367011353374	-0.255260337144136	0.004541371	50.0000678584911
0.663525890558958	0.225345840454102	19.9400005340576	0.000592358002904803	9.37500044528861E-06	0.000344252010108903	0.000333580013830215	1.58265773206949	0.004506959	49.9995294376276
0.667345651891083	0.225426422119141	20.0400009155273	0.000597682024817914	5.65303980692988E-06	0.000348384986864403	0.000350824004271999	0.94582736492157	0.004508554	49.9997186125256
0.670979148708284	0.227489105224609	20.1399993896484	0.000552994024474174	1.32247996589285E-05	0.000331491988617927	0.000334398995619267	2.39149071276188	0.0045498425	49.9993402627297
0.674333074130118	0.224534194946289	20.2399997711182	0.000539416971150786	1.03247002698481E-05	0.000346896005794406	0.000330167997162789	1.91404800862074	0.0044907305	49.9994821439032
0.677500735037029	0.223131683349609	20.3400001525879	0.00048808500287123	3.03990000247722E-05	0.000350560003425926	0.000287514994852245	6.22821860015392	0.0044627695	49.9984816997312
0.680901284795254	0.224197647094727	20.4400005340576	0.000482445990201086	1.83341999218101E-05	0.000313791999360546	0.000298595987260342	3.80025953054428	0.004484035	49.9990819662344
0.684208644088358	0.223463424682617	20.5400009155273	0.000542703026439995	8.74014040164184E-06	0.000327980989823118	0.000315707991831005	1.61048304289579	0.0044693075	49.9995621794369
0.687236548401415	0.222208221435547	20.6399993896484	0.00058289902517572	1.30040998556069E-05	0.000355099007720128	0.000325617991620675	2.23093535751104	0.004444222	49.9993511766661
0.690171262249351	0.221672393798828	20.7399997711182	0.000552227022126317	9.36748983804137E-06	0.000361178012099117	0.00033743999665603	1.69631149619818	0.0044334895	49.9995330756065
0.693525187671185	0.221218353271484	20.8400001525879	0.000547388975974172	9.48968954617158E-06	0.000351671013049781	0.000320627994369715	1.7336281016469	0.004424409	49.9995257996488
0.697065552230924	0.223502304077148	20.9400005340576	0.000485809985548258	1.03821002994664E-05	0.000354907009750605	0.000274958001682535	2.13706996291876	0.0044700925	49.9994821439032
0.700605800375342	0.22103434753418	21.0400009155273	0.000503333983942866	1.29788995764102E-05	0.000367280008504167	0.000294369994662702	2.57858596742153	0.0044207445	49.9993511766661
0.704192672856152	0.221268951416016	21.1399993896484	0.000509608013089746	1.94266995094949E-05	0.000339443009579554	0.000301510997815058	3.81208695471287	0.004425465	49.9990273965523
0.707360333763063	0.221968032836914	21.2399997711182	0.000582484004553407	1.03952997960732E-05	0.000352144008502364	0.000320571998599917	1.78464986383915	0.004439407	49.9994785059243
0.710854073986411	0.219479995727539	21.3400001525879	0.000549679971300066	-8.44335954752751E-06	0.000351266004145145	0.000305226014461368	-1.53605006635189	0.004389563	50.0004207424354
0.714254565536976	0.220473159790039	21.4400005340576	0.000557082996238023	-7.94178959040437E-06	0.000344766012858599	0.00032258901046589	-1.42560265958309	0.004409428	50.0003952765837
0.717888062354177	0.219461807250977	21.5400009155273	0.000502171984408051	-1.14507997750479E-07	0.000351335009327158	0.000299920997349545	-0.0228025455726311	0.0043892355	50.0000060128514
0.720962532795966	0.219233093261719	21.6399993896484	0.000474658008897677	1.40777001433889E-06	0.000283030007267371	0.000264325004536659	0.296586169861257	0.004384668	49.9999296152964
0.72436302434653	0.218098419189453	21.7399997711182	0.000494430016260594	-1.04963999092433E-06	0.000283030007267371	0.000284048990579322	-0.212292931973934	0.004361964	50.0000533065759
0.727390928659588	0.212927124023438	21.8400001525879	0.000555042002815753	6.05394006925053E-06	0.000338873011060059	0.000324783002724871	1.09071750193834	0.0042585685	49.9996967846528
0.730977859348059	0.216852905273438	21.9400005340576	0.000569692987482995	-2.74404010269791E-06	0.000345561013091356	0.000324183987686411	-0.481669930741191	0.004337046	50.0001369800884
0.734424975235015	0.212979827880859	22.0400009155273	0.000525060982909054	5.93116010350059E-06	0.000323092011967674	0.000311500014504418	1.12961353734136	0.004259622	49.9997040606104
0.737685768399388	0.210601943969727	22.1399993896484	0.000483604992041364	1.49351999425562E-05	0.000335569988237694	0.000295764009933919	3.08830551803112	0.004212102	49.9992529512383
0.740573857910931	0.208742263793945	22.2399997711182	0.000459236995084211	2.41070993070025E-05	0.000371398986317217	0.000257312989560887	5.24938106536865	0.004174946	49.9987945659086
0.743974465876818	0.211261428833008	22.3400001525879	0.000476512010209262	2.61295008385787E-05	0.000327951012877747	0.000279638014035299	5.48349246382713	0.004225339	49.998692702502
0.747374957427382	0.207621063232422	22.4400005340576	0.00052281899843365	1.24687003335566E-05	0.000327951012877747	0.000292796001303941	2.38489806652069	0.004152473	49.9993766425177
0.750868697650731	0.204799758911133	22.5400009155273	0.000559895997866988	2.01226994249737E-05	0.000361816986696795	0.000316204008413479	3.59400659799576	0.0040960775	49.998994654743
0.754362379666418	0.210104934692383	22.6399993896484	0.000520385976415128	6.89573016643408E-06	0.000352409988408908	0.000300596002489328	1.32511826232076	0.0042021275	49.9996567668859
0.757716363295913	0.207440124511719	22.7399997711182	0.000462375988718122	1.3908400433138E-05	0.000340709986630827	0.000285273999907076	3.00802811980248	0.00414886025	49.9993038829416
0.761116913054138	0.206323638916016	22.8400001525879	0.000439310999354348	1.30068001453765E-05	0.000350738002452999	0.000245352013735101	2.96072717756033	0.0041265265	49.9993511766661
0.764424272347242	0.204312484741211	22.9400005340576	0.000458755996078253	5.10317022417439E-06	0.000310002011246979	0.000264992995653301	1.11239310353994	0.0040862705	49.9997440783773
0.767731689848006	0.204941024780273	23.0400009155273	0.000505995994899422	1.7462300547777E-06	0.000336266006343067	0.000285621004877612	0.34510747063905	0.00409882775	49.9999114254024
0.77061983756721	0.204025512695312	23.1399993896484	0.00055111397523433	1.20135996439785E-06	0.000336266006343067	0.000320096005452797	0.217987573705614	0.00408051525	49.9999405292328
0.773740815930068	0.202371734619141	23.2399997711182	0.000506073993165046	1.95560005522566E-06	0.000307596987113357	0.000300531013635919	0.386425689794123	0.0040474425	49.999900511466
0.776908476836979	0.197473190307617	23.3400001525879	0.000481336988741532	-1.57030008267611E-05	0.000302714004646987	0.000285671005258337	-3.26237119734287	0.00394940175	50.0007845403161
0.780355650931597	0.199104537963867	23.4400005340576	0.000406803999794647	-3.03615997836459E-05	0.000286672002403066	0.000223240000195801	-7.46344700455666	0.00398196975	50.0015194120351
0.783756142482162	0.201604385375977	23.5400009155273	0.000415452988818288	-2.42698006331921E-05	0.000210308993700892	0.000221602997044101	-5.84176778793335	0.00403198975	50.0012138218153
0.787389639299363	0.20013623046875	23.6399993896484	0.000443983997683972	-3.33745992975309E-05	0.000262165995081887	0.000252844998613	-7.51707255840302	0.004002591	50.0016685691662
0.790790130849928	0.200284774780273	23.7399997711182	0.000454194989288226	-1.07176001620246E-05	0.000274388992693275	0.000276461010798812	-2.35969126224518	0.0040056525	50.0005371577572
0.794796273112297	0.200366973876953	23.8400001525879	0.000438769988249987	3.27056000060111E-06	0.000285544985672459	0.000284843990812078	0.745392823591828	0.0040073525	49.9998350278474
0.798336579464376	0.200521072387695	23.9400005340576	0.000458514987258241	1.72438994923141E-05	0.000326031004078686	0.000283683009911329	3.76081466674805	0.0040104905	49.9991365359165
0.801364483777434	0.198756698608398	24.0400009155273	0.000418228999478742	2.38208995142486E-05	0.000313266005832702	0.000248585012741387	5.69565966725349	0.00397522875	49.9988091178238
0.804066308774054	0.195812515258789	24.1399993896484	0.000415215006796643	2.74148005701136E-05	0.000289908988634124	0.000231397993047722	6.60255551338196	0.00391635775	49.9986308568623
0.807327101938426	0.1981875	24.2399997711182	0.000467895006295294	4.90799993713154E-06	0.000296462996629998	0.000267294002696872	1.04895327240229	0.0039637695	49.9997549923137
0.81063446123153	0.198713317871094	24.3400001525879	0.000494186009746045	5.58640022063628E-06	0.00031496598967351	0.000282093998976052	1.13042453303933	0.0039742885	49.9997222505044
0.814035010989755	0.198879089355469	24.4400005340576	0.000492728024255484	9.93335015664343E-06	0.000330134993419051	0.000286752008832991	2.01599057763815	0.00397762125	49.999503971776
0.817016290966421	0.197261154174805	24.5400009155273	0.000480612012324855	2.78499992418801E-05	0.00033059500856325	0.000281696004094556	5.79469501972198	0.003945333	49.9986090289894
0.82051003118977	0.199513732910156	24.6399993896484	0.000436380010796711	2.51599994953722E-05	0.000327496003592387	0.000286355993011966	5.76561726629734	0.003990375	49.9987436342053
0.824096903670579	0.196817520141602	24.7399997711182	0.000411123008234426	2.35413008340402E-05	0.000318750011501834	0.000275166996289045	8.61717760562897	0.00393648975	49.9982270412147
0.827963289339095	0.19882194519043	24.8400001525879	0.000408038991736248	2.45912997343112E-05	0.000263997993897647	0.000247477000812069	6.02670349180698	0.00397653675	49.998769100057
0.831643294077367	0.199628753662109	24.9400005340576	0.000416250986745581	2.29932993534021E-05	0.000306870002532378	0.000250557990511879	5.5239025503397	0.003992667	49.9988491355907
0.83448487566784	0.197674514770508	25.0400009155273	0.00046895700506866	3.06162996821513E-06	0.000324855005601421	0.000273459008894861	0.652859453111887	0.0039535025	49.9998459417839
0.837605912238359	0.196930511474609	25.1399993896484	0.000484246993437409	1.60940999194281E-05	0.000325311004417017	0.000290447002043948	3.32353115081787	0.0039386735	49.9991947435774
0.840726948808879	0.196749313354492	25.2399997711182	0.000458717986475676	2.11411006603157E-05	0.000331182993249968	0.000292999000521377	4.60873581469059	0.0039350695	49.9989437230397
0.844034366309643	0.197942489624023	25.3400001525879	0.000416004011640325	4.10268003179226E-05	0.000315632001729682	0.000288504990749061	9.8621167242527	0.00395901225	49.9979469168466
0.847015646286309	0.197758377075195	25.4400005340576	0.000403899990487844	4.66111014247872E-05	0.000334140990162268	0.0002577560080681	11.5402571856976	0.003955352	49.9976704304572
0.850369629915804	0.194850708007813	25.5400009155273	0.000422663986682892	4.13734014728107E-05	0.000281248998362571	0.000281338987406343	9.7887210547924	0.0038971755	49.9979323649313
0.853537232615054	0.196931640625	25.6399993896484	0.000453493004897609	5.37462001375388E-05	0.000313257012749091	0.000290902011329308	11.851605027914	0.0039388445	49.9973139085341
0.857310486026108	0.197124069213867	25.7399997711182	0.00049083202611655	3.01294003293151E-05	0.000338235986419022	0.000315854995278642	6.1384342610836	0.00394260025	49.9984926136676
0.86099054897204	0.195052215576172	25.8400001525879	0.000494859006721526	1.51145995914703E-05	0.000331883988110349	0.000297368998872116	3.05432453751564	0.00390110325	49.9992456752807
0.864530797116458	0.196224456787109	25.9400005340576	0.000424358993768692	3.33300013153348E-05	0.000325933011481538	0.000273851997917518	7.8541986644268	0.00392462	49.9983325426001
0.867651833686978	0.191649932861328	26.0400009155273	0.000408238003728911	5.93178992858157E-05	0.000346821994753554	0.000266896997345611	14.5302250981331	0.003833226	49.997033784166
0.871192140039057	0.193616775512695	26.1399993896484	0.000433625013101846	5.59114014322404E-05	0.000283631001366302	0.000280161009868607	15.4383853077888	0.00387259475	49.9966517963912
0.874452933203429	0.189207702636719	26.2399997711182	0.000453243002993986	4.13991983805317E-05	0.000328864000039175	0.000291303993435577	9.13399681448936	0.00378431075	49.9979287269525
0.87766710203141	0.191632034301758	26.3400001525879	0.000454850000096485	3.69451990991365E-05	0.000336675992002711	0.000278288003755733	8.12250226736069	0.00383278225	49.9981542816386
0.880555249750614	0.191744155883789	26.4400005340576	0.000466122990474105	5.29723984072916E-05	0.000332027993863449	0.000299108010949567	11.3644681870937	0.00383508625	49.9973502883222
0.883909233380109	0.189744430541992	26.5400009155273	0.000450266990810633	7.77398963691667E-05	0.000323996006045491	0.000312515010591596	17.2652885317802	0.00379518375	49.9961133755278
0.887356407474726	0.190923782348633	26.6399993896484	0.000396059011109173	0.00010095600009663	0.000328330992488191	0.000304313987726346	25.490140914917	0.00381886125	49.9949528602883
0.890943221747875	0.194151916503906	26.7399997711182	0.000382641010219231	9.63697020779364E-05	0.00030078599229455	0.000282522989436984	25.1854091882706	0.0038834125	49.9951820529532
0.894343771506101	0.190468490600586	26.8400001525879	0.000402325997129083	9.48107990552671E-05	0.000304588989820331	0.000292915996396914	23.5656663775444	0.003809731	49.9952584505081
0.897511432413012	0.193171310424805	26.9400005340576	0.000470881001092494	9.69423999777064E-05	0.000350065005477518	0.000318770005833358	20.5874517560005	0.00386380075	49.9951529491227
0.900818849913776	0.19252995300293	27.0400009155273	0.000472551997518167	9.57228985498659E-05	0.000365331012289971	0.000319331011269242	20.2565848827362	0.00385096775	49.9952147947624
0.90417277533561	0.194005447387695	27.1399993896484	0.000481738010421395	8.68431015987881E-05	0.000362782011507079	0.000316296005621552	18.027038872242	0.003880446	49.9956586281769
0.90775964781642	0.193269134521484	27.2399997711182	0.000474050000775605	6.87546998960897E-05	0.000329600006807595	0.000309102993924171	14.5036816596985	0.0038656485	49.9965608469211
0.910880684386939	0.192568695068359	27.3400001525879	0.000428203988121822	5.97996004216839E-05	0.000324263004586101	0.000293660996248946	13.9652132987976	0.00385160425	49.9970083183143
0.914188101887703	0.195401443481445	27.4400005340576	0.000407174986321479	5.27742013218813E-05	0.000318807986332104	0.000286297989077866	12.9610612988472	0.003908235	49.9973612022586
