Time,Extension,Load
(s),(mm),(N)
"0.00000","0.00000","-0.00845"
"0.10000","0.00575","0.06314"
"0.20000","0.01669","0.39636"
"0.30000","0.02656","0.84594"
"0.40000","0.03531","1.26044"
"0.50000","0.04456","1.65784"
"0.60000","0.05344","2.06296"
"0.70000","0.06250","2.45742"
"0.80000","0.07100","2.85125"
"0.90000","0.08013","3.29365"
"1.00000","0.08900","3.70375"
"1.10000","0.09800","4.12186"
"1.20000","0.10656","4.55053"
"1.30000","0.11575","4.98298"
"1.40000","0.12456","5.42002"
"1.50000","0.13356","5.83587"
"1.60000","0.14206","6.26716"
"1.70000","0.15119","6.71885"
"1.80000","0.16013","7.16653"
"1.90000","0.16913","7.60056"
"2.00000","0.17769","8.04991"
"2.10000","0.18669","8.49450"
"2.20000","0.19569","8.94594"
"2.30000","0.20456","9.37565"
"2.40000","0.21313","9.83441"
"2.50000","0.22225","10.28464"
"2.60000","0.23125","10.72173"
"2.70000","0.24013","11.16836"
"2.80000","0.24869","11.62036"
"2.90000","0.25781","12.08092"
"3.00000","0.26681","12.52198"
"3.10000","0.27556","12.95734"
"3.20000","0.28419","13.42489"
"3.30000","0.29344","13.88332"
"3.40000","0.30244","14.33156"
"3.50000","0.31113","14.76899"
"3.60000","0.31975","15.23498"
"3.70000","0.32888","15.69117"
"3.80000","0.33794","16.15198"
"3.90000","0.34663","16.59781"
"4.00000","0.35537","17.05947"
"4.10000","0.36431","17.52578"
"4.20000","0.37344","17.97959"
"4.30000","0.38219","18.42640"
"4.40000","0.39087","18.89069"
"4.50000","0.39988","19.34464"
"4.60000","0.40900","19.81553"
"4.70000","0.41763","20.26917"
"4.80000","0.42644","20.74132"
"4.90000","0.43544","21.19986"
"5.00000","0.44456","21.64742"
"5.10000","0.45306","22.10893"
"5.20000","0.46200","22.57603"
"5.30000","0.47094","23.03704"
"5.40000","0.48013","23.49220"
"5.50000","0.48869","23.94933"
"5.60000","0.49756","24.42604"
"5.70000","0.50644","24.89261"
"5.80000","0.51563","25.34784"
"5.90000","0.52412","25.80049"
"6.00000","0.53313","26.27111"
"6.10000","0.54200","26.74300"
"6.20000","0.55113","27.19406"
"6.30000","0.55969","27.64654"
"6.40000","0.56869","28.12364"
"6.50000","0.57756","28.59086"
"6.60000","0.58663","29.04684"
"6.70000","0.59519","29.50206"
"6.80000","0.60425","29.98771"
"6.90000","0.61319","30.45872"
"7.00000","0.62219","30.91752"
"7.10000","0.63069","31.38328"
"7.20000","0.63969","31.84482"
"7.30000","0.64862","32.31916"
"7.40000","0.65775","32.78795"
"7.50000","0.66631","33.26276"
"7.60000","0.67531","33.74022"
"7.70000","0.68419","34.21640"
"7.80000","0.69325","34.67208"
"7.90000","0.70169","35.13501"
"8.00000","0.71088","35.62000"
"8.10000","0.71975","36.08727"
"8.20000","0.72875","36.54314"
"8.30000","0.73731","37.02407"
"8.40000","0.74644","37.50612"
"8.50000","0.75531","37.98125"
"8.60000","0.76419","38.42389"
"8.70000","0.77275","38.90477"
"8.80000","0.78200","39.38607"
"8.90000","0.79094","39.86132"
"9.00000","0.79981","40.31110"
"9.10000","0.80831","40.79126"
"9.20000","0.81744","41.27856"
"9.30000","0.82644","41.74309"
"9.40000","0.83525","42.20634"
"9.50000","0.84394","42.68061"
"9.60000","0.85300","43.16034"
"9.70000","0.86206","43.63740"
"9.80000","0.87081","44.09695"
"9.90000","0.87950","44.57059"
"10.00000","0.88850","45.04935"
"10.10000","0.89750","45.51886"
"10.20000","0.90631","45.98668"
"10.30000","0.91500","46.46798"
"10.40000","0.92406","46.94340"
"10.50000","0.93313","47.41296"
"10.60000","0.94175","47.87029"
"10.70000","0.95050","48.36509"
"10.80000","0.95956","48.83813"
"10.90000","0.96869","49.31003"
"11.00000","0.97731","49.78867"
"11.10000","0.98606","50.26708"
"11.20000","0.99506","50.75689"
"11.30000","1.00425","51.22104"
"11.40000","1.01281","51.68591"
"11.50000","1.02163","52.16775"
"11.60000","1.03063","52.65291"
"11.70000","1.03975","53.12521"
"11.80000","1.04837","53.59089"
"11.90000","1.05725","54.07943"
"12.00000","1.06619","54.54777"
"12.10000","1.07525","55.03386"
"12.20000","1.08375","55.49537"
"12.30000","1.09281","55.97517"
"12.40000","1.10175","56.45810"
"12.50000","1.11088","56.93589"
"12.60000","1.11938","57.40453"
"12.70000","1.12831","57.89361"
"12.80000","1.13719","58.38503"
"12.90000","1.14638","58.84616"
"13.00000","1.15494","59.32670"
"13.10000","1.16381","59.81059"
"13.20000","1.17269","60.30018"
"13.30000","1.18194","60.77437"
"13.40000","1.19044","61.24907"
"13.50000","1.19944","61.72666"
"13.60000","1.20825","62.21574"
"13.70000","1.21738","62.67324"
"13.80000","1.22594","63.15384"
"13.90000","1.23500","63.64246"
"14.00000","1.24388","64.12688"
"14.10000","1.25288","64.59101"
"14.20000","1.26138","65.06459"
"14.30000","1.27050","65.55360"
"14.40000","1.27944","66.02757"
"14.50000","1.28844","66.48711"
"14.60000","1.29694","66.98680"
"14.70000","1.30606","67.47513"
"14.80000","1.31500","67.95468"
"14.90000","1.32394","68.41897"
"15.00000","1.33244","68.90248"
"15.10000","1.34156","69.39450"
"15.20000","1.35050","69.86996"
"15.30000","1.35944","70.34962"
"15.40000","1.36806","70.82773"
"15.50000","1.37713","71.32291"
"15.60000","1.38606","71.80153"
"15.70000","1.39488","72.28060"
"15.80000","1.40356","72.75574"
"15.90000","1.41263","73.24392"
"16.00000","1.42163","73.73742"
"16.10000","1.43050","74.21410"
"16.20000","1.43900","74.68826"
"16.30000","1.44819","75.18549"
"16.40000","1.45719","75.66657"
"16.50000","1.46594","76.13171"
"16.60000","1.47462","76.62725"
"16.70000","1.48375","77.12592"
"16.80000","1.49275","77.59653"
"16.90000","1.50150","78.07291"
"17.00000","1.51019","78.55122"
"17.10000","1.51919","79.03854"
"17.20000","1.52831","79.51545"
"17.30000","1.53700","79.98465"
"17.40000","1.54575","80.47401"
"17.50000","1.55481","80.96187"
"17.60000","1.56387","81.43816"
"17.70000","1.57244","81.91524"
"17.80000","1.58131","82.40672"
"17.90000","1.59025","82.88972"
"18.00000","1.59937","83.36020"
"18.10000","1.60794","83.83726"
"18.20000","1.61688","84.33517"
"18.30000","1.62575","84.82999"
"18.40000","1.63494","85.31210"
"18.50000","1.64356","85.78143"
"18.60000","1.65238","86.26383"
"18.70000","1.66125","86.75435"
"18.80000","1.67044","87.23537"
"18.90000","1.67906","87.71379"
"19.00000","1.68800","88.21137"
"19.10000","1.69688","88.70010"
"19.20000","1.70600","89.16484"
"19.30000","1.71444","89.64283"
"19.40000","1.72350","90.13259"
"19.50000","1.73244","90.62402"
"19.60000","1.74156","91.09033"
"19.70000","1.75000","91.57095"
"19.80000","1.75906","92.05735"
"19.90000","1.76794","92.55199"
"20.00000","1.77706","93.01936"
"20.10000","1.78550","93.50159"
"20.20000","1.79456","93.98828"
"20.30000","1.80350","94.47816"
"20.40000","1.81256","94.93885"
"20.50000","1.82106","95.43478"
"20.60000","1.83013","95.92142"
"20.70000","1.83900","96.40471"
"20.80000","1.84800","96.87508"
"20.90000","1.85669","97.35979"
"21.00000","1.86569","97.85080"
"21.10000","1.87456","98.33414"
"21.20000","1.88356","98.80552"
"21.30000","1.89213","99.28969"
"21.40000","1.90119","99.77531"
"21.50000","1.91013","100.25907"
"21.60000","1.91913","100.72867"
"21.70000","1.92769","101.21956"
"21.80000","1.93675","101.71389"
"21.90000","1.94569","102.20246"
"22.00000","1.95456","102.66770"
"22.10000","1.96313","103.15266"
"22.20000","1.97225","103.64658"
"22.30000","1.98125","104.12711"
"22.40000","1.99019","104.59901"
"22.50000","1.99875","105.07935"
"22.60000","2.00781","105.58282"
"22.70000","2.01681","106.06724"
"22.80000","2.02556","106.53388"
"22.90000","2.03425","107.02419"
"23.00000","2.04344","107.51297"
"23.10000","2.05244","107.99316"
"23.20000","2.06113","108.46095"
"23.30000","2.06975","108.95474"
"23.40000","2.07888","109.43391"
"23.50000","2.08794","109.91971"
"23.60000","2.09663","110.39131"
"23.70000","2.10531","110.88150"
"23.80000","2.11438","111.36857"
"23.90000","2.12350","111.85769"
"24.00000","2.13219","112.33059"
"24.10000","2.14088","112.82647"
"24.20000","2.14981","113.30963"
"24.30000","2.15900","113.78401"
"24.40000","2.16769","114.26232"
"24.50000","2.17656","114.75208"
"24.60000","2.18544","115.24950"
"24.70000","2.19450","115.72491"
"24.80000","2.20306","116.19859"
"24.90000","2.21200","116.68876"
"25.00000","2.22100","117.18605"
"25.10000","2.23012","117.65978"
"25.20000","2.23869","118.13509"
"25.30000","2.24756","118.62640"
"25.40000","2.25650","119.11780"
"25.50000","2.26563","119.58930"
"25.60000","2.27412","120.06265"
"25.70000","2.28313","120.55763"
"25.80000","2.29206","121.04203"
"25.90000","2.30119","121.51907"
"26.00000","2.30975","121.99015"
"26.10000","2.31869","122.48949"
"26.20000","2.32756","122.97828"
"26.30000","2.33663","123.44081"
"26.40000","2.34525","123.92067"
"26.50000","2.35431","124.40511"
"26.60000","2.36313","124.90018"
"26.70000","2.37219","125.36341"
"26.80000","2.38075","125.84750"
"26.90000","2.38981","126.33794"
"27.00000","2.39862","126.82462"
"27.10000","2.40775","127.29706"
"27.20000","2.41625","127.77213"
"27.30000","2.42531","128.27255"
"27.40000","2.43425","128.76378"
"27.50000","2.44325","129.22475"
"27.60000","2.45175","129.70569"
"27.70000","2.46081","130.18846"
"27.80000","2.46975","130.68050"
"27.90000","2.47881","131.13890"
"28.00000","2.48731","131.61650"
"28.10000","2.49644","132.10173"
"28.20000","2.50531","132.59344"
"28.30000","2.51419","133.05153"
"28.40000","2.52281","133.53307"
"28.50000","2.53200","134.01891"
"28.60000","2.54094","134.49817"
"28.70000","2.54975","134.95634"
"28.80000","2.55838","135.44722"
"28.90000","2.56750","135.93452"
"29.00000","2.57650","136.41931"
"29.10000","2.58525","136.89270"
"29.20000","2.59388","137.37138"
"29.30000","2.60300","137.86620"
"29.40000","2.61206","138.34155"
"29.50000","2.62081","138.81595"
"29.60000","2.62950","139.29414"
"29.70000","2.63850","139.79449"
"29.80000","2.64750","140.27649"
"29.90000","2.65638","140.73996"
"30.00000","2.66500","141.22588"
"30.10000","2.67406","141.70894"
"30.20000","2.68313","142.20714"
"30.30000","2.69181","142.66992"
"30.40000","2.70056","143.15601"
"30.50000","2.70963","143.63959"
"30.60000","2.71869","144.12532"
"30.70000","2.72731","144.58475"
"30.80000","2.73613","145.07260"
"30.90000","2.74513","145.57176"
"31.00000","2.75425","146.04626"
"31.10000","2.76288","146.50899"
"31.20000","2.77163","146.99669"
"31.30000","2.78063","147.48936"
"31.40000","2.78975","147.94994"
"31.50000","2.79838","148.42087"
"31.60000","2.80725","148.90717"
"31.70000","2.81613","149.39835"
"31.80000","2.82525","149.87514"
"31.90000","2.83381","150.33713"
"32.00000","2.84281","150.83377"
"32.10000","2.85175","151.32190"
"32.20000","2.86088","151.78369"
"32.30000","2.86937","152.25388"
"32.40000","2.87831","152.74359"
"32.50000","2.88719","153.23508"
"32.60000","2.89631","153.71077"
"32.70000","2.90494","154.18044"
"32.80000","2.91388","154.65897"
"32.90000","2.92275","155.15625"
"33.00000","2.93194","155.61780"
"33.10000","2.94038","156.08832"
"33.20000","2.94944","156.58919"
"33.30000","2.95831","157.07539"
"33.40000","2.96744","157.53143"
"33.50000","2.97594","158.00952"
"33.60000","2.98500","158.50790"
"33.70000","2.99388","158.99977"
"33.80000","3.00288","159.46001"
"33.90000","3.01144","159.92596"
"34.00000","3.02056","160.41371"
"34.10000","3.02944","160.90887"
"34.20000","3.03844","161.36772"
"34.30000","3.04700","161.84877"
"34.40000","3.05612","162.33630"
"34.50000","3.06500","162.81915"
"34.60000","3.07394","163.29530"
"34.70000","3.08244","163.76758"
"34.80000","3.09156","164.25613"
"34.90000","3.10056","164.74466"
"35.00000","3.10950","165.20100"
"35.10000","3.11812","165.68303"
"35.20000","3.12706","166.16872"
"35.30000","3.13606","166.66656"
"35.40000","3.14494","167.12590"
"35.50000","3.15356","167.60213"
"35.60000","3.16269","168.08530"
"35.70000","3.17163","168.57631"
"35.80000","3.18050","169.03560"
"35.90000","3.18906","169.52687"
"36.00000","3.19819","170.01576"
"36.10000","3.20719","170.49649"
"36.20000","3.21600","170.96106"
"36.30000","3.22463","171.44901"
"36.40000","3.23375","171.94191"
"36.50000","3.24281","172.42036"
"36.60000","3.25150","172.86771"
"36.70000","3.26019","173.36049"
"36.80000","3.26919","173.86244"
"36.90000","3.27838","174.33611"
"37.00000","3.28700","174.78596"
"37.10000","3.29581","175.27710"
"37.20000","3.30481","175.76112"
"37.30000","3.31387","176.23346"
"37.40000","3.32250","176.69087"
"37.50000","3.33125","177.17894"
"37.60000","3.34025","177.67400"
"37.70000","3.34938","178.14590"
"37.80000","3.35794","178.60645"
"37.90000","3.36687","179.08566"
"38.00000","3.37581","179.58342"
"38.10000","3.38494","180.06761"
"38.20000","3.39356","180.53769"
"38.30000","3.40238","181.01891"
"38.40000","3.41131","181.50853"
"38.50000","3.42050","181.97647"
"38.60000","3.42913","182.44530"
"38.70000","3.43794","182.93488"
"38.80000","3.44688","183.42606"
"38.90000","3.45600","183.88698"
"39.00000","3.46450","184.34520"
"39.10000","3.47350","184.83545"
"39.20000","3.48244","185.33994"
"39.30000","3.49156","185.79326"
"39.40000","3.50006","186.25955"
"39.50000","3.50906","186.74989"
"39.60000","3.51794","187.24008"
"39.70000","3.52706","187.69640"
"39.80000","3.53556","188.16882"
"39.90000","3.54463","188.66711"
"40.00000","3.55356","189.14784"
"40.10000","3.56256","189.59579"
"40.20000","3.57106","190.06555"
"40.30000","3.58013","190.55391"
"40.40000","3.58906","191.06442"
"40.50000","3.59806","191.51201"
"40.60000","3.60662","191.98996"
"40.70000","3.61575","192.47993"
"40.80000","3.62456","192.96767"
"40.90000","3.63356","193.43187"
"41.00000","3.64219","193.90593"
"41.10000","3.65119","194.39758"
"41.20000","3.66013","194.89078"
"41.30000","3.66906","195.34093"
"41.40000","3.67769","195.82295"
"41.50000","3.68681","196.30415"
"41.60000","3.69575","196.79498"
"41.70000","3.70463","197.24492"
"41.80000","3.71313","197.72681"
"41.90000","3.72225","198.20865"
"42.00000","3.73125","198.69591"
"42.10000","3.74019","199.13882"
"42.20000","3.74869","199.62836"
"42.30000","3.75781","200.10829"
"42.40000","3.76681","200.59019"
"42.50000","3.77562","201.03383"
"42.60000","3.78425","201.52362"
"42.70000","3.79337","202.01199"
"42.80000","3.80244","202.49223"
"42.90000","3.81106","202.92923"
"43.00000","3.81988","203.42116"
"43.10000","3.82894","203.90581"
"43.20000","3.83794","204.39464"
"43.30000","3.84663","204.84970"
"43.40000","3.85538","205.33496"
"43.50000","3.86444","205.82498"
"43.60000","3.87356","206.29762"
"43.70000","3.88212","206.74365"
"43.80000","3.89088","207.22855"
"43.90000","3.89981","207.73004"
"44.00000","3.90906","208.21094"
"44.10000","3.91769","208.65639"
"44.20000","3.92656","209.14554"
"44.30000","3.93544","209.64081"
"44.40000","3.94456","210.11436"
"44.50000","3.95319","210.56470"
"44.60000","3.96200","211.04073"
"44.70000","3.97094","211.54021"
"44.80000","3.98013","212.01233"
"44.90000","3.98869","212.46808"
"45.00000","3.99763","212.95384"
"45.10000","4.00650","213.43756"
"45.20000","4.01563","213.89543"
"45.30000","4.02412","214.34752"
"45.40000","4.03312","214.85304"
"45.50000","4.04206","215.34311"
"45.60000","4.05125","215.79645"
"45.70000","4.05969","216.24799"
"45.80000","4.06869","216.73813"
"45.90000","4.07756","217.22180"
"46.00000","4.08669","217.67249"
"46.10000","4.09525","218.13821"
"46.20000","4.10425","218.63228"
"46.30000","4.11319","219.13486"
"46.40000","4.12219","219.57237"
"46.50000","4.13081","220.03560"
"46.60000","4.13981","220.51923"
"46.70000","4.14863","221.01822"
"46.80000","4.15769","221.47842"
"46.90000","4.16619","221.93396"
"47.00000","4.17544","222.43057"
"47.10000","4.18425","222.91864"
"47.20000","4.19331","223.37410"
"47.30000","4.20169","223.83942"
"47.40000","4.21088","224.31894"
"47.50000","4.21981","224.82678"
"47.60000","4.22881","225.26009"
"47.70000","4.23731","225.73419"
"47.80000","4.24644","226.22520"
"47.90000","4.25531","226.71648"
"48.00000","4.26425","227.15660"
"48.10000","4.27281","227.61797"
"48.20000","4.28200","228.10748"
"48.30000","4.29094","228.60040"
"48.40000","4.29975","229.04262"
"48.50000","4.30844","229.52431"
"48.60000","4.31750","230.00662"
"48.70000","4.32650","230.48750"
"48.80000","4.33525","230.91231"
"48.90000","4.34394","231.41016"
"49.00000","4.35306","231.90532"
"49.10000","4.36206","232.38773"
"49.20000","4.37087","232.82037"
"49.30000","4.37944","233.29582"
"49.40000","4.38850","233.78267"
"49.50000","4.39756","234.25981"
"49.60000","4.40631","234.70355"
"49.70000","4.41500","235.18822"
"49.80000","4.42400","235.66495"
"49.90000","4.43306","236.15404"
"50.00000","4.44181","236.58261"
"50.10000","4.45056","237.06456"
"50.20000","4.45969","237.55122"
"50.30000","4.46875","238.03236"
"50.40000","4.47731","238.46114"
"50.50000","4.48613","238.95029"
"50.60000","4.49519","239.43475"
"50.70000","4.50425","239.91243"
"50.80000","4.51288","240.35358"
"50.90000","4.52163","240.82024"
"51.00000","4.53069","241.31586"
"51.10000","4.53981","241.77115"
"51.20000","4.54838","242.20720"
"51.30000","4.55725","242.70276"
"51.40000","4.56619","243.18881"
"51.50000","4.57531","243.64020"
"51.60000","4.58388","244.08176"
"51.70000","4.59281","244.56618"
"51.80000","4.60169","245.06697"
"51.90000","4.61081","245.52275"
"52.00000","4.61944","245.98111"
"52.10000","4.62838","246.44998"
"52.20000","4.63725","246.96480"
"52.30000","4.64631","247.40300"
"52.40000","4.65494","247.85739"
"52.50000","4.66394","248.34650"
"52.60000","4.67281","248.84694"
"52.70000","4.68194","249.31558"
"52.80000","4.69038","249.74664"
"52.90000","4.69944","250.22028"
"53.00000","4.70838","250.73248"
"53.10000","4.71744","251.16539"
"53.20000","4.72600","251.62521"
"53.30000","4.73500","252.09889"
"53.40000","4.74388","252.59956"
"53.50000","4.75300","253.03384"
"53.60000","4.76144","253.49521"
"53.70000","4.77056","253.96448"
"53.80000","4.77944","254.46964"
"53.90000","4.78837","254.88963"
"54.00000","4.79700","255.36162"
"54.10000","4.80619","255.84656"
"54.20000","4.81500","256.34198"
"54.30000","4.82394","256.76785"
"54.40000","4.83244","257.23172"
"54.50000","4.84163","257.72440"
"54.60000","4.85056","258.19974"
"54.70000","4.85950","258.63165"
"54.80000","4.86806","259.11279"
"54.90000","4.87706","259.58820"
"55.00000","4.88613","260.09702"
"55.10000","4.89500","260.52081"
"55.20000","4.90363","260.97556"
"55.30000","4.91269","261.46216"
"55.40000","4.92163","261.97745"
"55.50000","4.93056","262.39795"
"55.60000","4.93906","262.84659"
"55.70000","4.94831","263.34293"
"55.80000","4.95719","263.82202"
"55.90000","4.96594","264.24503"
"56.00000","4.97463","264.71533"
"56.10000","4.98381","265.19977"
"56.20000","4.99288","265.70074"
"56.30000","5.00150","266.11441"
"56.40000","5.01019","266.59286"
"56.50000","5.01931","267.07904"
"56.60000","5.02838","267.56229"
"56.70000","5.03700","267.96426"
"56.80000","5.04581","268.46069"
"56.90000","5.05475","268.92993"
"57.00000","5.06388","269.40668"
"57.10000","5.07256","269.83929"
"57.20000","5.08131","270.32135"
"57.30000","5.09025","270.80783"
"57.40000","5.09938","271.25735"
"57.50000","5.10800","271.67828"
"57.60000","5.11694","272.16168"
"57.70000","5.12581","272.66891"
"57.80000","5.13494","273.13663"
"57.90000","5.14350","273.56158"
"58.00000","5.15238","274.03452"
"58.10000","5.16138","274.52545"
"58.20000","5.17050","274.99500"
"58.30000","5.17906","275.42999"
"58.40000","5.18794","275.89746"
"58.50000","5.19688","276.40796"
"58.60000","5.20600","276.85599"
"58.70000","5.21456","277.28610"
"58.80000","5.22350","277.76370"
"58.90000","5.23244","278.27087"
"59.00000","5.24156","278.71991"
"59.10000","5.25013","279.14624"
"59.20000","5.25913","279.62308"
"59.30000","5.26800","280.13040"
"59.40000","5.27706","280.56400"
"59.50000","5.28556","281.02255"
"59.60000","5.29469","281.48462"
"59.70000","5.30356","281.98590"
"59.80000","5.31256","282.39539"
"59.90000","5.32106","282.85330"
"60.00000","5.33019","283.34464"
"60.10000","5.33906","283.84320"
"60.20000","5.34806","284.25818"
"60.30000","5.35663","284.71622"
"60.40000","5.36569","285.17270"
"60.50000","5.37463","285.68048"
"60.60000","5.38363","286.09857"
"60.70000","5.39213","286.53983"
"60.80000","5.40125","287.02414"
"60.90000","5.41012","287.53339"
"61.00000","5.41919","287.95013"
"61.10000","5.42775","288.39371"
"61.20000","5.43681","288.85779"
"61.30000","5.44575","289.37836"
"61.40000","5.45463","289.79517"
"61.50000","5.46313","290.24829"
"61.60000","5.47237","290.73154"
"61.70000","5.48131","291.23047"
"61.80000","5.49019","291.64255"
"61.90000","5.49869","292.10373"
"62.00000","5.50781","292.56979"
"62.10000","5.51688","293.05780"
"62.20000","5.52569","293.47174"
"62.30000","5.53431","293.94437"
"62.40000","5.54344","294.42511"
"62.50000","5.55244","294.91571"
"62.60000","5.56119","295.30667"
"62.70000","5.56988","295.77875"
"62.80000","5.57887","296.26505"
"62.90000","5.58794","296.73965"
"63.00000","5.59663","297.15213"
"63.10000","5.60544","297.63757"
"63.20000","5.61444","298.11893"
"63.30000","5.62350","298.59451"
"63.40000","5.63213","298.98560"
"63.50000","5.64094","299.46243"
"63.60000","5.64994","299.95215"
"63.70000","5.65906","300.44159"
"63.80000","5.66769","300.84958"
"63.90000","5.67650","301.30762"
"64.00000","5.68550","301.78574"
"64.10000","5.69463","302.26022"
"64.20000","5.70319","302.65631"
"64.30000","5.71200","303.13318"
"64.40000","5.72100","303.62833"
"64.50000","5.73012","304.08746"
"64.60000","5.73869","304.47711"
"64.70000","5.74763","304.96283"
"64.80000","5.75650","305.44272"
"64.90000","5.76563","305.88412"
"65.00000","5.77419","306.29181"
"65.10000","5.78319","306.76767"
"65.20000","5.79213","307.27673"
"65.30000","5.80125","307.70526"
"65.40000","5.80975","308.11176"
"65.50000","5.81869","308.59781"
"65.60000","5.82763","309.09863"
"65.70000","5.83669","309.50659"
"65.80000","5.84525","309.93484"
"65.90000","5.85431","310.41330"
"66.00000","5.86313","310.92374"
"66.10000","5.87231","311.35800"
"66.20000","5.88081","311.77808"
"66.30000","5.88981","312.23578"
"66.40000","5.89862","312.73184"
"66.50000","5.90775","313.17227"
"66.60000","5.91631","313.58658"
"66.70000","5.92544","314.05356"
"66.80000","5.93425","314.55908"
"66.90000","5.94331","314.96783"
"67.00000","5.95175","315.40872"
"67.10000","5.96087","315.87170"
"67.20000","5.96981","316.38989"
"67.30000","5.97881","316.77563"
"67.40000","5.98731","317.21341"
"67.50000","5.99644","317.67746"
"67.60000","6.00538","318.17648"
"67.70000","6.01431","318.57816"
"67.80000","6.02281","319.01086"
"67.90000","6.03194","319.48618"
"68.00000","6.04094","319.99298"
"68.10000","6.04981","320.36227"
"68.20000","6.05844","320.81320"
"68.30000","6.06756","321.28442"
"68.40000","6.07650","321.78696"
"68.50000","6.08525","322.15854"
"68.60000","6.09394","322.61523"
"68.70000","6.10306","323.07486"
"68.80000","6.11213","323.57736"
"68.90000","6.12081","323.96655"
"69.00000","6.12944","324.43588"
"69.10000","6.13856","324.89990"
"69.20000","6.14756","325.38788"
"69.30000","6.15637","325.79330"
"69.40000","6.16500","326.23163"
"69.50000","6.17406","326.70425"
"69.60000","6.18319","327.18372"
"69.70000","6.19188","327.55521"
"69.80000","6.20056","328.03375"
"69.90000","6.20956","328.51395"
"70.00000","6.21869","328.98181"
"70.10000","6.22738","329.35242"
"70.20000","6.23612","329.80536"
"70.30000","6.24519","330.29926"
"70.40000","6.25425","330.75293"
"70.50000","6.26281","331.12628"
"70.60000","6.27163","331.58255"
"70.70000","6.28075","332.08472"
"70.80000","6.28981","332.54129"
"70.90000","6.29838","332.92410"
"71.00000","6.30719","333.37369"
"71.10000","6.31625","333.87439"
"71.20000","6.32538","334.30261"
"71.30000","6.33387","334.69440"
"71.40000","6.34281","335.17535"
"71.50000","6.35169","335.66785"
"71.60000","6.36088","336.10236"
"71.70000","6.36944","336.49066"
"71.80000","6.37838","336.94785"
"71.90000","6.38725","337.44302"
"72.00000","6.39638","337.87408"
"72.10000","6.40494","338.28537"
"72.20000","6.41394","338.74017"
"72.30000","6.42281","339.24655"
"72.40000","6.43194","339.64865"
"72.50000","6.44037","340.03214"
"72.60000","6.44950","340.49557"
"72.70000","6.45837","341.01492"
"72.80000","6.46750","341.43311"
"72.90000","6.47594","341.82312"
"73.00000","6.48500","342.27078"
"73.10000","6.49394","342.77921"
"73.20000","6.50300","343.17563"
"73.30000","6.51150","343.59561"
"73.40000","6.52056","344.04480"
"73.50000","6.52944","344.55276"
"73.60000","6.53844","344.91492"
"73.70000","6.54706","345.34909"
"73.80000","6.55619","345.81461"
"73.90000","6.56500","346.32135"
"74.00000","6.57394","346.68124"
"74.10000","6.58250","347.11099"
"74.20000","6.59169","347.57434"
"74.30000","6.60056","348.07608"
"74.40000","6.60950","348.44699"
"74.50000","6.61806","348.88132"
"74.60000","6.62712","349.32773"
"74.70000","6.63613","349.84698"
"74.80000","6.64500","350.20477"
"74.90000","6.65363","350.63959"
"75.00000","6.66269","351.08908"
"75.10000","6.67169","351.60046"
"75.20000","6.68056","351.98087"
"75.30000","6.68919","352.42072"
"75.40000","6.69825","352.85657"
"75.50000","6.70719","353.35318"
"75.60000","6.71600","353.70541"
"75.70000","6.72463","354.14236"
"75.80000","6.73381","354.62244"
"75.90000","6.74281","355.10568"
"76.00000","6.75150","355.45917"
"76.10000","6.76019","355.90302"
"76.20000","6.76925","356.36340"
"76.30000","6.77838","356.84058"
"76.40000","6.78700","357.18301"
"76.50000","6.79581","357.65048"
"76.60000","6.80481","358.11060"
"76.70000","6.81394","358.58731"
"76.80000","6.82256","358.93558"
"76.90000","6.83125","359.37012"
"77.00000","6.84025","359.87332"
"77.10000","6.84944","360.33105"
"77.20000","6.85812","360.68515"
"77.30000","6.86694","361.12488"
"77.40000","6.87575","361.60086"
"77.50000","6.88494","362.05054"
"77.60000","6.89356","362.44333"
"77.70000","6.90244","362.88321"
"77.80000","6.91138","363.35013"
"77.90000","6.92050","363.79492"
"78.00000","6.92906","364.14014"
"78.10000","6.93800","364.60925"
"78.20000","6.94694","365.09857"
"78.30000","6.95606","365.53323"
"78.40000","6.96456","365.88940"
"78.50000","6.97350","366.34198"
"78.60000","6.98250","366.85046"
"78.70000","6.99163","367.24127"
"78.80000","7.00012","367.60849"
"78.90000","7.00906","368.05319"
"79.00000","7.01794","368.55124"
"79.10000","7.02706","368.95767"
"79.20000","7.03562","369.32889"
"79.30000","7.04469","369.78995"
"79.40000","7.05356","370.28680"
"79.50000","7.06256","370.65421"
"79.60000","7.07106","371.05264"
"79.70000","7.08019","371.49176"
"79.80000","7.08913","371.99915"
"79.90000","7.09806","372.34930"
"80.00000","7.10663","372.75174"
"80.10000","7.11575","373.20999"
"80.20000","7.12469","373.71924"
"80.30000","7.13369","374.07355"
"80.40000","7.14212","374.46252"
"80.50000","7.15119","374.90262"
"80.60000","7.16019","375.42819"
"80.70000","7.16919","375.78232"
"80.80000","7.17775","376.19467"
"80.90000","7.18681","376.62744"
"81.00000","7.19569","377.14041"
"81.10000","7.20463","377.47018"
"81.20000","7.21319","377.89838"
"81.30000","7.22237","378.33551"
"81.40000","7.23131","378.84970"
"81.50000","7.24019","379.19089"
"81.60000","7.24875","379.61713"
"81.70000","7.25794","380.06494"
"81.80000","7.26688","380.54227"
"81.90000","7.27563","380.87527"
"82.00000","7.28425","381.29556"
"82.10000","7.29338","381.77097"
"82.20000","7.30250","382.24933"
"82.30000","7.31125","382.57053"
"82.40000","7.31981","382.99796"
"82.50000","7.32888","383.45361"
"82.60000","7.33794","383.92960"
"82.70000","7.34663","384.25775"
"82.80000","7.35544","384.70081"
"82.90000","7.36450","385.15329"
"83.00000","7.37350","385.58856"
"83.10000","7.38219","385.96274"
"83.20000","7.39094","386.38635"
"83.30000","7.39994","386.84274"
"83.40000","7.40906","387.31650"
"83.50000","7.41769","387.62231"
"83.60000","7.42656","388.07501"
"83.70000","7.43550","388.51944"
"83.80000","7.44463","388.97089"
"83.90000","7.45319","389.28989"
"84.00000","7.46200","389.73904"
"84.10000","7.47100","390.24164"
"84.20000","7.48019","390.66443"
"84.30000","7.48875","390.97925"
"84.40000","7.49763","391.40335"
"84.50000","7.50650","391.88071"
"84.60000","7.51562","392.29422"
"84.70000","7.52425","392.65457"
"84.80000","7.53319","393.09006"
"84.90000","7.54213","393.57391"
"85.00000","7.55125","393.95187"
"85.10000","7.55975","394.27945"
"85.20000","7.56875","394.73596"
"85.30000","7.57763","395.21777"
"85.40000","7.58675","395.58203"
"85.50000","7.59525","395.93692"
"85.60000","7.60425","396.36514"
"85.70000","7.61319","396.88016"
"85.80000","7.62231","397.23508"
"85.90000","7.63081","397.61469"
"86.00000","7.63981","398.01587"
"86.10000","7.64863","398.54086"
"86.20000","7.65781","398.91287"
"86.30000","7.66631","399.27145"
"86.40000","7.67544","399.71567"
"86.50000","7.68425","400.19727"
"86.60000","7.69325","400.55402"
"86.70000","7.70181","400.93167"
"86.80000","7.71094","401.38400"
"86.90000","7.71988","401.88742"
"87.00000","7.72881","402.19916"
"87.10000","7.73731","402.56366"
"87.20000","7.74650","403.02148"
"87.30000","7.75537","403.53635"
"87.40000","7.76431","403.86221"
"87.50000","7.77281","404.24307"
"87.60000","7.78200","404.66400"
"87.70000","7.79100","405.17838"
"87.80000","7.79987","405.47165"
"87.90000","7.80844","405.87592"
"88.00000","7.81756","406.33752"
"88.10000","7.82650","406.81323"
"88.20000","7.83531","407.12631"
"88.30000","7.84394","407.51758"
"88.40000","7.85313","407.96606"
"88.50000","7.86206","408.44418"
"88.60000","7.87088","408.74643"
"88.70000","7.87950","409.15732"
"88.80000","7.88856","409.60306"
"88.90000","7.89756","410.08698"
"89.00000","7.90638","410.41391"
"89.10000","7.91500","410.80499"
"89.20000","7.92413","411.23795"
"89.30000","7.93319","411.72879"
"89.40000","7.94188","412.03473"
"89.50000","7.95056","412.46375"
"89.60000","7.95956","412.88837"
"89.70000","7.96875","413.36340"
"89.80000","7.97744","413.64966"
"89.90000","7.98619","414.10001"
"90.00000","7.99513","414.53397"
"90.10000","8.00425","414.97546"
"90.20000","8.01294","415.26288"
"90.30000","8.02169","415.68402"
"90.40000","8.03069","416.16986"
"90.50000","8.03981","416.58676"
"90.60000","8.04844","416.88052"
"90.70000","8.05725","417.30185"
"90.80000","8.06625","417.78366"
"90.90000","8.07531","418.17715"
"91.00000","8.08388","418.48315"
"91.10000","8.09281","418.90842"
"91.20000","8.10175","419.39581"
"91.30000","8.11094","419.77707"
"91.40000","8.11944","420.10477"
"91.50000","8.12838","420.53799"
"91.60000","8.13725","421.02408"
"91.70000","8.14638","421.39590"
"91.80000","8.15500","421.71539"
"91.90000","8.16394","422.13748"
"92.00000","8.17275","422.63263"
"92.10000","8.18194","423.02197"
"92.20000","8.19044","423.32690"
"92.30000","8.19950","423.74634"
"92.40000","8.20837","424.26178"
"92.50000","8.21750","424.62158"
"92.60000","8.22594","424.93808"
"92.70000","8.23500","425.37436"
"92.80000","8.24400","425.87549"
"92.90000","8.25300","426.20294"
"93.00000","8.26144","426.53705"
"93.10000","8.27056","426.97641"
"93.20000","8.27944","427.49088"
"93.30000","8.28856","427.81073"
"93.40000","8.29706","428.15607"
"93.50000","8.30613","428.56909"
"93.60000","8.31500","429.09027"
"93.70000","8.32394","429.37231"
"93.80000","8.33256","429.76157"
"93.90000","8.34163","430.17059"
"94.00000","8.35056","430.69763"
"94.10000","8.35950","430.98712"
"94.20000","8.36812","431.38055"
"94.30000","8.37719","431.77118"
"94.40000","8.38613","432.28143"
"94.50000","8.39500","432.57193"
"94.60000","8.40363","432.96066"
"94.70000","8.41275","433.38876"
"94.80000","8.42169","433.89081"
"94.90000","8.43056","434.17776"
"95.00000","8.43913","434.54932"
"95.10000","8.44825","434.96826"
"95.20000","8.45725","435.48230"
"95.30000","8.46606","435.73047"
"95.40000","8.47469","436.14493"
"95.50000","8.48381","436.57385"
"95.60000","8.49281","437.04700"
"95.70000","8.50156","437.32660"
"95.80000","8.51025","437.73077"
"95.90000","8.51925","438.16913"
"96.00000","8.52837","438.64960"
"96.10000","8.53700","438.87076"
"96.20000","8.54581","439.28729"
"96.30000","8.55488","439.72653"
"96.40000","8.56394","440.17575"
"96.50000","8.57250","440.45111"
"96.60000","8.58131","440.86127"
"96.70000","8.59031","441.33469"
"96.80000","8.59950","441.75693"
"96.90000","8.60806","442.04282"
"97.00000","8.61688","442.45270"
"97.10000","8.62581","442.89932"
"97.20000","8.63500","443.32339"
"97.30000","8.64363","443.61331"
"97.40000","8.65244","444.01337"
"97.50000","8.66138","444.49466"
"97.60000","8.67050","444.89774"
"97.70000","8.67913","445.18369"
"97.80000","8.68800","445.57703"
"97.90000","8.69694","446.07874"
"98.00000","8.70606","446.47647"
"98.10000","8.71450","446.73053"
"98.20000","8.72356","447.16675"
"98.30000","8.73250","447.64224"
"98.40000","8.74169","448.03174"
"98.50000","8.75019","448.31491"
"98.60000","8.75906","448.71118"
"98.70000","8.76800","449.21759"
"98.80000","8.77713","449.54575"
"98.90000","8.78562","449.85135"
"99.00000","8.79469","450.28180"
"99.10000","8.80356","450.78430"
"99.20000","8.81263","451.08676"
"99.30000","8.82113","451.40274"
"99.40000","8.83019","451.80530"
"99.50000","8.83913","452.35440"
"99.60000","8.84813","452.63403"
"99.70000","8.85669","452.98810"
"99.80000","8.86581","453.37750"
"99.90000","8.87463","453.88821"
"100.00000","8.88363","454.18381"
"100.10000","8.89213","454.51843"
"100.20000","8.90125","454.92618"
"100.30000","8.91019","455.13861"
"100.40000","8.91925","454.75345"
"100.50000","8.92781","320.18213"
"100.60000","8.93681","285.50021"
"100.70000","8.94575","285.43317"
"100.80000","8.95469","285.01471"
"100.90000","8.96319","284.79880"
"101.00000","8.97231","284.68549"
"101.10000","8.98131","284.74289"
"101.20000","8.99019","284.62607"
"101.30000","8.99881","284.60638"
"101.40000","9.00794","284.62485"
"101.50000","9.01688","284.75439"
"101.60000","9.02563","284.72223"
"101.70000","9.03425","284.75824"
"101.80000","9.04350","284.82059"
"101.90000","9.05250","284.98596"
"102.00000","9.06119","284.94434"
"102.10000","9.06981","285.01401"
"102.20000","9.07888","285.07486"
"102.30000","9.08800","285.22095"
"102.40000","9.09669","285.20435"
"102.50000","9.10544","285.27594"
"102.60000","9.11444","285.35165"
"102.70000","9.12356","285.48276"
"102.80000","9.13219","285.46790"
"102.90000","9.14100","285.54288"
"103.00000","9.14994","285.60480"
"103.10000","9.15906","285.75168"
"103.20000","9.16775","285.73639"
"103.30000","9.17656","285.79709"
"103.40000","9.18556","285.88052"
"103.50000","9.19463","286.01184"
"103.60000","9.20319","285.96170"
"103.70000","9.21200","286.04211"
"103.80000","9.22106","286.11627"
"103.90000","9.23019","286.22900"
"104.00000","9.23881","286.18820"
"104.10000","9.24763","286.24701"
"104.20000","9.25656","286.33658"
"104.30000","9.26569","286.40906"
"104.40000","9.27425","286.36118"
"104.50000","9.28319","286.44269"
"104.60000","9.29213","286.54303"
"104.70000","9.30125","286.61487"
"104.80000","9.30981","286.56387"
"104.90000","9.31875","286.64713"
"105.00000","9.32763","286.75201"
"105.10000","9.33669","286.80444"
"105.20000","9.34525","286.78116"
"105.30000","9.35431","286.83621"
"105.40000","9.36325","286.94403"
"105.50000","9.37231","286.97650"
"105.60000","9.38081","286.95749"
"105.70000","9.38981","286.98938"
"105.80000","9.39869","287.10938"
"105.90000","9.40781","287.12234"
"106.00000","9.41631","287.09225"
"106.10000","9.42538","287.12238"
"106.20000","9.43425","287.22208"
"106.30000","9.44338","287.21652"
"106.40000","9.45181","287.16962"
"106.50000","9.46094","287.18970"
"106.60000","9.46981","287.30298"
"106.70000","9.47881","287.27527"
"106.80000","9.48738","287.23575"
"106.90000","9.49650","287.23123"
"107.00000","9.50537","287.34988"
"107.10000","9.51431","287.29156"
"107.20000","9.52281","287.26309"
"107.30000","9.53206","287.27191"
"107.40000","9.54100","287.38245"
"107.50000","9.54988","287.29919"
"107.60000","9.55844","287.29099"
"107.70000","9.56756","287.28912"
"107.80000","9.57656","287.38791"
"107.90000","9.58538","287.30539"
"108.00000","9.59400","287.31631"
"108.10000","9.60306","287.31509"
"108.20000","9.61206","287.43738"
"108.30000","9.62088","287.35330"
"108.40000","9.62956","287.35895"
"108.50000","9.63863","287.36862"
"108.60000","9.64756","287.47556"
"108.70000","9.65637","287.41779"
"108.80000","9.66506","287.40555"
"108.90000","9.67419","287.40128"
"109.00000","9.68319","287.49722"
"109.10000","9.69188","287.40842"
"109.20000","9.70056","287.39789"
"109.30000","9.70963","287.40601"
"109.40000","9.71881","287.50302"
"109.50000","9.72744","287.38330"
"109.60000","9.73612","287.37064"
"109.70000","9.74519","287.38098"
"109.80000","9.75431","287.42822"
"109.90000","9.76294","287.28720"
"110.00000","9.77169","287.28497"
"110.10000","9.78069","287.28445"
"110.20000","9.78981","287.29706"
"110.30000","9.79844","287.13248"
"110.40000","9.80731","287.10196"
"110.50000","9.81625","287.07007"
"110.60000","9.82538","287.06158"
"110.70000","9.83387","286.91153"
"110.80000","9.84281","286.87604"
"110.90000","9.85181","286.88068"
"111.00000","9.86094","286.87067"
"111.10000","9.86944","286.77167"
"111.20000","9.87838","286.74686"
"111.30000","9.88725","286.79318"
"111.40000","9.89638","286.80231"
"111.50000","9.90500","286.73279"
"111.60000","9.91387","286.70609"
"111.70000","9.92281","286.77182"
"111.80000","9.93200","286.78421"
"111.90000","9.94050","286.68091"
"112.00000","9.94950","286.70740"
"112.10000","9.95837","286.79575"
"112.20000","9.96750","286.79190"
"112.30000","9.97600","286.49905"
"112.40000","9.98506","286.49631"
"112.50000","9.99394","286.59048"
"112.60000","10.00300","286.55087"
"112.70000","10.01150","286.47885"
"112.80000","10.02056","286.45569"
"112.90000","10.02950","286.53415"
"113.00000","10.03850","286.43344"
"113.10000","10.04700","286.30539"
"113.20000","10.05606","286.23990"
"113.30000","10.06506","286.27985"
"113.40000","10.07406","286.12112"
"113.50000","10.08256","286.02142"
"113.60000","10.09169","285.95996"
"113.70000","10.10056","285.65717"
"113.80000","10.10956","285.47668"
"113.90000","10.11812","285.32416"
"114.00000","10.12719","285.22537"
"114.10000","10.13613","285.24167"
"114.20000","10.14500","284.85965"
"114.30000","10.15363","284.68112"
"114.40000","10.16275","284.54657"
"114.50000","10.17169","284.55020"
"114.60000","10.18062","284.37726"
"114.70000","10.18913","284.26471"
"114.80000","10.19831","284.19199"
"114.90000","10.20731","284.21716"
"115.00000","10.21606","283.98776"
"115.10000","10.22463","283.82034"
"115.20000","10.23381","283.73392"
"115.30000","10.24288","283.72098"
"115.40000","10.25163","283.50882"
"115.50000","10.26025","283.37527"
"115.60000","10.26931","283.16043"
"115.70000","10.27838","282.90927"
"115.80000","10.28706","282.34244"
"115.90000","10.29588","282.02661"
"116.00000","10.30488","281.73608"
"116.10000","10.31394","281.55524"
"116.20000","10.32250","281.15256"
"116.30000","10.33138","280.89801"
"116.40000","10.34038","280.56897"
"116.50000","10.34944","280.28061"
"116.60000","10.35812","279.94363"
"116.70000","10.36688","279.65726"
"116.80000","10.37588","279.49841"
"116.90000","10.38500","279.35638"
"117.00000","10.39363","278.97928"
"117.10000","10.40244","278.80081"
"117.20000","10.41138","278.67792"
"117.30000","10.42056","278.57043"
"117.40000","10.42919","278.33270"
"117.50000","10.43800","278.19281"
"117.60000","10.44694","278.10245"
"117.70000","10.45606","277.96484"
"117.80000","10.46456","277.71365"
"117.90000","10.47356","277.60471"
"118.00000","10.48250","277.53320"
"118.10000","10.49163","277.34741"
"118.20000","10.50013","277.13602"
"118.30000","10.50913","276.97705"
"118.40000","10.51806","276.95505"
"118.50000","10.52713","276.81537"
"118.60000","10.53563","276.58386"
"118.70000","10.54469","276.48428"
"118.80000","10.55356","276.46802"
"118.90000","10.56262","276.32034"
"119.00000","10.57113","276.13223"
"119.10000","10.58012","275.87479"
"119.20000","10.58900","275.86282"
"119.30000","10.59813","275.71817"
"119.40000","10.60681","275.22873"
"119.50000","10.61581","274.97171"
"119.60000","10.62463","274.87283"
"119.70000","10.63363","274.65500"
"119.80000","10.64225","274.44687"
"119.90000","10.65131","274.17288"
"120.00000","10.66019","274.14871"
"120.10000","10.66925","273.93353"
"120.20000","10.67775","273.71661"
"120.30000","10.68681","273.54736"
"120.40000","10.69581","273.50522"
"120.50000","10.70469","272.76514"
"120.60000","10.71319","272.33218"
"120.70000","10.72231","272.12607"
"120.80000","10.73138","272.06192"
"120.90000","10.74025","271.71652"
"121.00000","10.74881","271.52295"
"121.10000","10.75788","271.34167"
"121.20000","10.76688","271.13589"
"121.30000","10.77569","270.81958"
"121.40000","10.78438","270.56284"
"121.50000","10.79350","270.34628"
"121.60000","10.80244","269.96069"
"121.70000","10.81119","269.65741"
"121.80000","10.81987","269.16315"
"121.90000","10.82900","268.68201"
"122.00000","10.83800","268.48788"
"122.10000","10.84669","267.90118"
"122.20000","10.85544","267.56424"
"122.30000","10.86444","266.69080"
"122.40000","10.87356","266.40369"
"122.50000","10.88225","265.95102"
"122.60000","10.89094","265.52780"
"122.70000","10.89988","265.21240"
"122.80000","10.90913","265.03073"
"122.90000","10.91781","264.64877"
"123.00000","10.92656","264.40833"
"123.10000","10.93556","264.18100"
"123.20000","10.94462","263.97000"
"123.30000","10.95325","263.63699"
"123.40000","10.96206","263.41992"
"123.50000","10.97106","263.26715"
"123.60000","10.98019","263.12958"
"123.70000","10.98875","262.85535"
"123.80000","10.99763","262.59698"
"123.90000","11.00663","262.46484"
"124.00000","11.01575","262.34262"
"124.10000","11.02425","262.06323"
"124.20000","11.03319","261.65903"
"124.30000","11.04213","261.50171"
"124.40000","11.05131","261.19937"
"124.50000","11.05988","260.08517"
"124.60000","11.06875","259.23575"
"124.70000","11.07763","259.03964"
"124.80000","11.08675","258.77740"
"124.90000","11.09531","258.47037"
"125.00000","11.10437","257.45535"
"125.10000","11.11319","257.34229"
"125.20000","11.12225","256.83914"
"125.30000","11.13081","256.50919"
"125.40000","11.13988","256.03009"
"125.50000","11.14869","255.85455"
"125.60000","11.15781","255.67850"
"125.70000","11.16631","255.43195"
"125.80000","11.17544","255.31921"
"125.90000","11.18431","255.27850"
"126.00000","11.19337","255.13098"
"126.10000","11.20181","254.95764"
"126.20000","11.21094","254.88657"
"126.30000","11.21988","254.96649"
"126.40000","11.22887","254.70277"
"126.50000","11.23744","254.60791"
"126.60000","11.24650","254.50462"
"126.70000","11.25538","254.58199"
"126.80000","11.26431","254.44778"
"126.90000","11.27288","254.34804"
"127.00000","11.28206","253.94568"
"127.10000","11.29100","254.00140"
"127.20000","11.29988","253.85204"
"127.30000","11.30844","251.99005"
"127.40000","11.31763","251.99921"
"127.50000","11.32656","251.82880"
"127.60000","11.33531","251.53204"
"127.70000","11.34400","251.28102"
"127.80000","11.35306","251.14957"
"127.90000","11.36213","251.19069"
"128.00000","11.37094","250.97421"
"128.10000","11.37956","250.72182"
"128.20000","11.38856","250.59856"
"128.30000","11.39756","249.92238"
"128.40000","11.40644","249.76038"
"128.50000","11.41506","249.64473"
"128.60000","11.42419","249.29404"
"128.70000","11.43319","244.91132"
"128.80000","11.44188","244.89635"
"128.90000","11.45063","244.36708"
"129.00000","11.45969","243.94745"
"129.10000","11.46875","243.74454"
"129.20000","11.47744","243.40578"
"129.30000","11.48612","243.12057"
"129.40000","11.49519","242.75113"
"129.50000","11.50431","242.52429"
"129.60000","11.51294","242.01245"
"129.70000","11.52169","241.83569"
"129.80000","11.53069","241.62444"
"129.90000","11.53988","241.47600"
"130.00000","11.54850","241.18167"
"130.10000","11.55731","240.84621"
"130.20000","11.56625","240.40698"
"130.30000","11.57531","240.29637"
"130.40000","11.58394","240.07117"
"130.50000","11.59288","239.96451"
"130.60000","11.60181","239.90576"
"130.70000","11.61094","239.03650"
"130.80000","11.61944","239.08530"
"130.90000","11.62844","238.76630"
"131.00000","11.63731","238.62068"
"131.10000","11.64644","238.58878"
"131.20000","11.65500","238.45441"
"131.30000","11.66394","238.38840"
"131.40000","11.67288","238.40129"
"131.50000","11.68200","238.36081"
"131.60000","11.69050","238.15688"
"131.70000","11.69950","238.10054"
"131.80000","11.70837","238.09720"
"131.90000","11.71750","238.05464"
"132.00000","11.72600","237.89330"
"132.10000","11.73506","237.83200"
"132.20000","11.74394","237.82529"
"132.30000","11.75300","237.64325"
"132.40000","11.76156","237.45076"
"132.50000","11.77063","237.20265"
"132.60000","11.77950","237.14429"
"132.70000","11.78850","236.91664"
"132.80000","11.79706","236.67882"
"132.90000","11.80613","236.37015"
"133.00000","11.81513","236.38783"
"133.10000","11.82406","236.27242"
"133.20000","11.83256","235.06606"
"133.30000","11.84163","234.91187"
"133.40000","11.85062","234.53397"
"133.50000","11.85956","234.22975"
"133.60000","11.86819","234.10338"
"133.70000","11.87712","233.92122"
"133.80000","11.88613","233.96655"
"133.90000","11.89500","233.85017"
"134.00000","11.90369","233.75151"
"134.10000","11.91281","233.68166"
"134.20000","11.92169","233.74811"
"134.30000","11.93056","233.35361"
"134.40000","11.93919","233.29793"
"134.50000","11.94831","233.09737"
"134.60000","11.95731","233.11873"
"134.70000","11.96606","232.97588"
"134.80000","11.97469","232.93144"
"134.90000","11.98381","231.89227"
"135.00000","11.99287","231.42279"
"135.10000","12.00162","231.10625"
"135.20000","12.01025","230.91374"
"135.30000","12.01925","230.76639"
"135.40000","12.02844","230.81042"
"135.50000","12.03713","230.65134"
"135.60000","12.04588","230.51297"
"135.70000","12.05481","230.14665"
"135.80000","12.06394","230.15585"
"135.90000","12.07256","229.88072"
"136.00000","12.08138","229.72136"
"136.10000","12.09037","229.44060"
"136.20000","12.09944","229.41225"
"136.30000","12.10806","229.11505"
"136.40000","12.11694","228.97246"
"136.50000","12.12588","228.76309"
"136.60000","12.13500","228.76114"
"136.70000","12.14356","228.62309"
"136.80000","12.15244","228.53709"
"136.90000","12.16144","228.37619"
"137.00000","12.17056","228.08408"
"137.10000","12.17925","227.36081"
"137.20000","12.18800","224.38211"
"137.30000","12.19694","223.62566"
"137.40000","12.20606","223.06287"
"137.50000","12.21463","222.60753"
"137.60000","12.22356","222.23758"
"137.70000","12.23250","222.04579"
"137.80000","12.24162","221.94781"
"137.90000","12.25019","221.73155"
"138.00000","12.25913","221.58719"
"138.10000","12.26806","221.54657"
"138.20000","12.27712","221.46919"
"138.30000","12.28563","218.52335"
"138.40000","12.29469","217.54410"
"138.50000","12.30362","217.10645"
"138.60000","12.31269","216.75934"
"138.70000","12.32113","216.26057"
"138.80000","12.33025","215.33018"
"138.90000","12.33913","214.98875"
"139.00000","12.34819","214.32198"
"139.10000","12.35675","214.04277"
"139.20000","12.36581","211.83525"
"139.30000","12.37462","211.77661"
"139.40000","12.38369","211.37761"
"139.50000","12.39225","211.11075"
"139.60000","12.40131","210.91393"
"139.70000","12.41019","210.86087"
"139.80000","12.41919","210.67165"
"139.90000","12.42775","210.51672"
"140.00000","12.43687","210.36467"
"140.10000","12.44581","210.34305"
"140.20000","12.45469","209.78229"
"140.30000","12.46319","209.45270"
"140.40000","12.47244","208.63556"
"140.50000","12.48138","208.34763"
"140.60000","12.49031","207.98027"
"140.70000","12.49881","207.59596"
"140.80000","12.50794","207.26785"
"140.90000","12.51688","207.15488"
"141.00000","12.52575","206.90254"
"141.10000","12.53437","205.46187"
"141.20000","12.54350","205.14037"
"141.30000","12.55250","204.89594"
"141.40000","12.56119","203.84250"
"141.50000","12.56994","201.90221"
"141.60000","12.57900","200.55832"
"141.70000","12.58800","199.40057"
"141.80000","12.59669","198.36720"
"141.90000","12.60544","197.79370"
"142.00000","12.61456","197.34114"
"142.10000","12.62363","196.95866"
"142.20000","12.63225","196.37961"
"142.30000","12.64094","196.06902"
"142.40000","12.64994","195.79303"
"142.50000","12.65912","195.47884"
"142.60000","12.66775","194.97055"
"142.70000","12.67656","194.69516"
"142.80000","12.68550","194.31850"
"142.90000","12.69469","192.43208"
"143.00000","12.70331","191.30748"
"143.10000","12.71206","190.97650"
"143.20000","12.72106","190.61543"
"143.30000","12.73019","190.41014"
"143.40000","12.73881","189.99034"
"143.50000","12.74769","189.66660"
"143.60000","12.75662","188.78816"
"143.70000","12.76569","188.53148"
"143.80000","12.77425","188.18315"
"143.90000","12.78312","187.98293"
"144.00000","12.79219","187.81706"
"144.10000","12.80131","187.62224"
"144.20000","12.80981","187.30150"
"144.30000","12.81881","187.02866"
"144.40000","12.82769","186.91039"
"144.50000","12.83675","185.93042"
"144.60000","12.84531","185.11716"
"144.70000","12.85438","184.74953"
"144.80000","12.86325","184.53876"
"144.90000","12.87231","184.27682"
"145.00000","12.88088","183.18199"
"145.10000","12.88994","182.51015"
"145.20000","12.89875","182.19450"
"145.30000","12.90781","181.49074"
"145.40000","12.91631","180.46671"
"145.50000","12.92550","180.14955"
"145.60000","12.93431","179.85371"
"145.70000","12.94338","179.22812"
"145.80000","12.95181","176.34688"
"145.90000","12.96094","174.18654"
"146.00000","12.96994","173.46919"
"146.10000","12.97894","171.53804"
"146.20000","12.98744","171.00510"
"146.30000","12.99650","170.49486"
"146.40000","13.00544","170.26749"
"146.50000","13.01438","169.81900"
"146.60000","13.02294","169.11041"
"146.70000","13.03206","168.85995"
"146.80000","13.04100","168.68532"
"146.90000","13.04987","168.39281"
"147.00000","13.05850","168.17294"
"147.10000","13.06763","167.08179"
"147.20000","13.07656","166.81190"
"147.30000","13.08531","166.10033"
"147.40000","13.09400","165.81656"
"147.50000","13.10313","165.52519"
"147.60000","13.11219","165.01628"
"147.70000","13.12094","155.46291"
"147.80000","13.12950","155.10408"
"147.90000","13.13856","154.60612"
"148.00000","13.14762","154.15480"
"148.10000","13.15650","153.78291"
"148.20000","13.16513","153.37726"
"148.30000","13.17412","152.85716"
"148.40000","13.18319","152.15681"
"148.50000","13.19194","151.53882"
"148.60000","13.20063","150.94560"
"148.70000","13.20969","150.54651"
"148.80000","13.21875","150.40941"
"148.90000","13.22744","150.14679"
"149.00000","13.23619","150.03307"
"149.10000","13.24519","149.85300"
"149.20000","13.25437","149.84251"
"149.30000","13.26294","149.65178"
"149.40000","13.27169","149.57822"
"149.50000","13.28075","149.52031"
"149.60000","13.28988","149.44975"
"149.70000","13.29850","149.08382"
"149.80000","13.30725","146.09564"
"149.90000","13.31619","139.43874"
"150.00000","13.32537","137.46387"
"150.10000","13.33400","136.43372"
"150.20000","13.34287","136.03091"
"150.30000","13.35181","135.66135"
"150.40000","13.36094","135.35306"
"150.50000","13.36950","134.96785"
"150.60000","13.37844","134.72885"
"150.70000","13.38731","134.45518"
"150.80000","13.39638","134.25496"
"150.90000","13.40500","133.86163"
"151.00000","13.41400","133.71933"
"151.10000","13.42287","133.43904"
"151.20000","13.43200","132.86685"
"151.30000","13.44050","132.37823"
"151.40000","13.44950","132.05574"
"151.50000","13.45844","131.94658"
"151.60000","13.46756","131.83881"
"151.70000","13.47600","131.43880"
"151.80000","13.48506","131.12216"
"151.90000","13.49400","130.96713"
"152.00000","13.50306","130.74905"
"152.10000","13.51162","130.56413"
"152.20000","13.52063","129.47540"
"152.30000","13.52950","127.95570"
"152.40000","13.53850","126.98677"
"152.50000","13.54712","126.58028"
"152.60000","13.55619","126.00993"
"152.70000","13.56506","125.88663"
"152.80000","13.57406","125.47852"
"152.90000","13.58250","125.04298"
"153.00000","13.59169","123.56176"
"153.10000","13.60069","122.76653"
"153.20000","13.60956","119.83891"
"153.30000","13.61819","118.15523"
"153.40000","13.62719","116.34166"
"153.50000","13.63619","114.92766"
"153.60000","13.64506","114.36362"
"153.70000","13.65369","114.04556"
"153.80000","13.66275","113.73453"
"153.90000","13.67169","113.42542"
"154.00000","13.68063","112.37656"
"154.10000","13.68919","108.56288"
"154.20000","13.69831","108.14131"
"154.30000","13.70725","107.78546"
"154.40000","13.71606","107.13740"
"154.50000","13.72469","106.55606"
"154.60000","13.73394","106.19954"
"154.70000","13.74288","105.24103"
"154.80000","13.75156","105.01544"
"154.90000","13.76025","104.72060"
"155.00000","13.76937","104.08050"
"155.10000","13.77844","103.95608"
"155.20000","13.78712","103.64057"
"155.30000","13.79587","103.42033"
"155.40000","13.80487","61.43308"
"155.50000","13.81400","60.66855"
"155.60000","13.82263","60.04895"
"155.70000","13.83138","59.65294"
"155.80000","13.84038","59.49805"
"155.90000","13.84944","59.44432"
"156.00000","13.85806","59.36917"
"156.10000","13.86694","59.34113"
"156.20000","13.87588","59.30408"
"156.30000","13.88506","59.27432"
"156.40000","13.89362","59.19034"
"156.50000","13.90250","59.18131"
"156.60000","13.91144","59.19490"
"156.70000","13.92056","59.25102"
"156.80000","13.92919","59.20036"
"156.90000","13.93800","58.95117"
"157.00000","13.94700","58.40365"
"157.10000","13.95613","58.41144"
"157.20000","13.96469","58.34187"
"157.30000","13.97356","58.31723"
"157.40000","13.98250","58.22249"
"157.50000","13.99169","58.28344"
"157.60000","14.00019","58.23867"
"157.70000","14.00913","58.10653"
"157.80000","14.01800","58.15359"
"157.90000","14.02719","58.20315"
"158.00000","14.03569","58.19932"
"158.10000","14.04475","58.23090"
"158.20000","14.05363","58.25076"
"158.30000","14.06262","58.25535"
"158.40000","14.07113","58.01377"
"158.50000","14.08025","58.03185"
"158.60000","14.08912","58.09013"
"158.70000","14.09812","58.08191"
"158.80000","14.10669","58.09894"
"158.90000","14.11588","58.11901"
"159.00000","14.12469","57.84236"
"159.10000","14.13375","57.84952"
"159.20000","14.14225","57.83937"
"159.30000","14.15125","57.84570"
"159.40000","14.16019","57.88295"
"159.50000","14.16925","57.91423"
"159.60000","14.17781","57.82386"
"159.70000","14.18688","57.28945"
"159.80000","14.19581","57.34559"
"159.90000","14.20475","57.33754"
"160.00000","14.21325","57.31174"
"160.10000","14.22244","56.72377"
"160.20000","14.23137","56.80076"
"160.30000","14.24031","56.80827"
"160.40000","14.24881","56.78947"
"160.50000","14.25794","56.80077"
"160.60000","14.26688","56.87036"
"160.70000","14.27575","56.87160"
"160.80000","14.28438","56.87111"
"160.90000","14.29350","56.89075"
"161.00000","14.30250","56.96148"
"161.10000","14.31119","56.95716"
"161.20000","14.31988","56.95732"
"161.30000","14.32900","56.88324"
"161.40000","14.33806","56.66177"
"161.50000","14.34669","54.50026"
"161.60000","14.35550","46.14507"
"161.70000","14.36456","45.89220"
"161.80000","14.37356","45.73608"
"161.90000","14.38219","45.57833"
"162.00000","14.39100","45.44669"
"162.10000","14.39994","45.35111"
"162.20000","14.40913","45.26907"
"162.30000","14.41781","45.17513"
"162.40000","14.42656","45.12849"
"162.50000","14.43556","45.08094"
"162.60000","14.44475","45.08503"
"162.70000","14.45325","45.02337"
"162.80000","14.46206","45.02973"
"162.90000","14.47106","44.99694"
"163.00000","14.48025","45.02136"
"163.10000","14.48888","44.95670"
"163.20000","14.49769","44.95806"
"163.30000","14.50656","44.96158"
"163.40000","14.51569","45.00203"
"163.50000","14.52425","44.97054"
"163.60000","14.53325","44.97671"
"163.70000","14.54219","44.98999"
"163.80000","14.55131","45.00726"
"163.90000","14.55981","44.99230"
"164.00000","14.56881","45.00638"
"164.10000","14.57769","45.02810"
"164.20000","14.58681","45.06470"
"164.30000","14.59531","44.97665"
"164.40000","14.60438","45.01189"
"164.50000","14.61325","45.00513"
"164.60000","14.62238","45.02810"
"164.70000","14.63081","44.97519"
"164.80000","14.63987","44.88404"
"164.90000","14.64869","44.86401"
"165.00000","14.65788","44.89258"
"165.10000","14.66638","44.85138"
"165.20000","14.67550","44.82262"
"165.30000","14.68431","44.82126"
"165.40000","14.69337","44.80050"
"165.50000","14.70181","44.76687"
"165.60000","14.71100","44.76588"
"165.70000","14.71988","44.79171"
"165.80000","14.72894","44.80823"
"165.90000","14.73744","44.76183"
"166.00000","14.74650","44.75497"
"166.10000","14.75544","44.80188"
"166.20000","14.76437","44.81828"
"166.30000","14.77294","44.79460"
"166.40000","14.78206","44.80116"
"166.50000","14.79100","44.84124"
"166.60000","14.79994","44.83160"
"166.70000","14.80850","44.81059"
"166.80000","14.81763","44.81027"
"166.90000","14.82656","44.85595"
"167.00000","14.83537","44.83692"
"167.10000","14.84406","44.62667"
"167.20000","14.85319","41.48122"
"167.30000","14.86213","41.54186"
"167.40000","14.87094","41.36145"
"167.50000","14.87956","41.29508"
"167.60000","14.88869","41.24160"
"167.70000","14.89763","41.23507"
"167.80000","14.90644","41.18385"
"167.90000","14.91500","41.08500"
"168.00000","14.92419","41.07495"
"168.10000","14.93325","41.09029"
"168.20000","14.94194","41.02410"
"168.30000","14.95069","40.97434"
"168.40000","14.95969","32.63375"
"168.50000","14.96881","32.83326"
"168.60000","14.97750","32.58416"
"168.70000","14.98619","32.57455"
"168.80000","14.99525","32.52172"
"168.90000","15.00438","32.53166"
"169.00000","15.01294","32.46675"
"169.10000","15.02175","32.42385"
"169.20000","15.03081","32.36769"
"169.30000","15.03987","32.36412"
"169.40000","15.04850","32.32547"
"169.50000","15.05731","32.24211"
"169.60000","15.06625","32.22759"
"169.70000","15.07544","32.21284"
"169.80000","15.08394","32.20398"
"169.90000","15.09287","32.19239"
"170.00000","15.10181","32.15973"
"170.10000","15.11100","32.17582"
"170.20000","15.11956","32.13401"
"170.30000","15.12844","32.09223"
"170.40000","15.13725","32.07612"
"170.50000","15.14644","32.07286"
"170.60000","15.15506","32.03592"
"170.70000","15.16400","31.99996"
"170.80000","15.17288","31.97564"
"170.90000","15.18200","31.98785"
"171.00000","15.19050","31.94103"
"171.10000","15.19956","31.90383"
"171.20000","15.20844","31.91631"
"171.30000","15.21756","31.90523"
"171.40000","15.22600","31.83093"
"171.50000","15.23506","31.46369"
"171.60000","15.24400","31.44868"
"171.70000","15.25306","31.44547"
"171.80000","15.26156","31.39168"
"171.90000","15.27063","31.35578"
"172.00000","15.27950","31.34903"
"172.10000","15.28862","31.32706"
"172.20000","15.29712","31.30529"
"172.30000","15.30619","31.28590"
"172.40000","15.31506","31.26947"
"172.50000","15.32400","31.24839"
"172.60000","15.33256","31.14861"
"172.70000","15.34175","31.10453"
"172.80000","15.35069","31.13173"
"172.90000","15.35956","31.10074"
"173.00000","15.36812","31.03816"
"173.10000","15.37725","31.02747"
"173.20000","15.38619","31.01286"
"173.30000","15.39506","30.97783"
"173.40000","15.40362","30.94962"
"173.50000","15.41275","30.91055"
"173.60000","15.42175","30.91365"
"173.70000","15.43069","30.87051"
"173.80000","15.43925","30.81466"
"173.90000","15.44831","30.78384"
"174.00000","15.45725","30.78858"
"174.10000","15.46613","30.74960"
"174.20000","15.47475","27.71315"
"174.30000","15.48394","27.43374"
"174.40000","15.49288","27.35133"
"174.50000","15.50156","27.07944"
"174.60000","15.51031","26.91137"
"174.70000","15.51937","26.82236"
"174.80000","15.52844","26.01665"
"174.90000","15.53706","25.79537"
"175.00000","15.54581","25.49043"
"175.10000","15.55494","25.38644"
"175.20000","15.56400","25.40209"
"175.30000","15.57263","25.28875"
"175.40000","15.58138","25.30432"
"175.50000","15.59037","25.29372"
"175.60000","15.59950","25.36341"
"175.70000","15.60819","25.27460"
"175.80000","15.61700","25.27070"
"175.90000","15.62588","25.21837"
"176.00000","15.63500","25.23256"
"176.10000","15.64363","25.17015"
"176.20000","15.65250","25.10285"
"176.30000","15.66144","25.09888"
"176.40000","15.67062","25.12764"
"176.50000","15.67919","25.10671"
"176.60000","15.68806","25.06826"
"176.70000","15.69700","24.98985"
"176.80000","15.70613","25.02011"
"176.90000","15.71463","24.91369"
"177.00000","15.72356","24.80139"
"177.10000","15.73256","24.77959"
"177.20000","15.74169","24.84715"
"177.30000","15.75025","24.81513"
"177.40000","15.75913","24.80675"
"177.50000","15.76800","24.80246"
"177.60000","15.77719","24.78786"
"177.70000","15.78575","24.72854"
"177.80000","15.79481","24.72672"
"177.90000","15.80363","24.68179"
"178.00000","15.81263","24.69318"
"178.10000","15.82125","24.68763"
"178.20000","15.83025","24.67855"
"178.30000","15.83919","24.67457"
"178.40000","15.84819","24.65820"
"178.50000","15.85669","24.62606"
"178.60000","15.86588","24.60623"
"178.70000","15.87475","24.60364"
"178.80000","15.88375","24.61893"
"178.90000","15.89225","24.59991"
"179.00000","15.90125","24.37960"
"179.10000","15.91025","24.37536"
"179.20000","15.91931","24.38034"
"179.30000","15.92787","24.31038"
"179.40000","15.93688","22.42380"
"179.50000","15.94575","22.23809"
"179.60000","15.95469","22.22999"
"179.70000","15.96325","22.13546"
"179.80000","15.97244","22.08418"
"179.90000","15.98138","22.09674"
"180.00000","15.99025","22.12088"
"180.10000","15.99881","22.11458"
"180.20000","16.00794","22.10274"
"180.30000","16.01694","22.08517"
"180.40000","16.02575","21.99851"
"180.50000","16.03438","21.89906"
"180.60000","16.04356","21.87687"
"180.70000","16.05256","21.84675"
"180.80000","16.06125","21.81566"
"180.90000","16.06994","21.80502"
"181.00000","16.07894","21.81236"
"181.10000","16.08806","21.85322"
"181.20000","16.09675","21.82670"
"181.30000","16.10550","21.80006"
"181.40000","16.11456","21.62031"
"181.50000","16.12356","21.62833"
"181.60000","16.13225","21.56610"
"181.70000","16.14100","21.54008"
"181.80000","16.15006","21.53821"
"181.90000","16.15913","21.57909"
"182.00000","16.16781","21.60452"
"182.10000","16.17656","21.58829"
"182.20000","16.18563","21.52680"
"182.30000","16.19469","21.47330"
"182.40000","16.20325","21.48218"
"182.50000","16.21206","21.46807"
"182.60000","16.22106","21.47805"
"182.70000","16.23031","21.52614"
"182.80000","16.23888","21.50265"
"182.90000","16.24769","21.46800"
"183.00000","16.25663","21.46412"
"183.10000","16.26575","21.50683"
"183.20000","16.27431","21.37789"
"183.30000","16.28325","21.38338"
"183.40000","16.29219","21.36115"
"183.50000","16.30131","21.38368"
"183.60000","16.30981","21.31433"
"183.70000","16.31888","21.31890"
"183.80000","16.32769","21.24907"
"183.90000","16.33681","21.24104"
"184.00000","16.34531","21.05838"
"184.10000","16.35438","20.53706"
"184.20000","16.36331","20.50817"
"184.30000","16.37238","20.49885"
"184.40000","16.38088","20.40959"
"184.50000","16.38988","20.37573"
"184.60000","16.39875","20.28391"
"184.70000","16.40788","19.74480"
"184.80000","16.41644","19.78486"
"184.90000","16.42550","19.71859"
"185.00000","16.43438","19.69202"
"185.10000","16.44337","19.64022"
"185.20000","16.45188","19.58061"
"185.30000","16.46100","19.56672"
"185.40000","16.46988","19.54450"
"185.50000","16.47888","19.34684"
"185.60000","16.48744","19.27242"
"185.70000","16.49663","19.21447"
"185.80000","16.50550","19.21443"
"185.90000","16.51438","19.18155"
"186.00000","16.52294","19.11779"
"186.10000","16.53206","19.08180"
"186.20000","16.54106","19.06658"
"186.30000","16.54994","19.12199"
"186.40000","16.55850","19.11994"
"186.50000","16.56756","19.15192"
"186.60000","16.57656","19.14788"
"186.70000","16.58544","19.11298"
"186.80000","16.59400","19.09731"
"186.90000","16.60319","19.07358"
"187.00000","16.61213","19.13289"
"187.10000","16.62094","19.12807"
"187.20000","16.62963","19.07141"
"187.30000","16.63863","18.79689"
"187.40000","16.64769","18.33029"
"187.50000","16.65644","17.58747"
"187.60000","16.66512","17.39157"
"187.70000","16.67419","17.35931"
"187.80000","16.68325","17.33839"
"187.90000","16.69194","17.38576"
"188.00000","16.70063","17.43498"
"188.10000","16.70969","17.43476"
"188.20000","16.71881","17.45554"
"188.30000","16.72750","17.46395"
"188.40000","16.73625","17.43725"
"188.50000","16.74525","17.36352"
"188.60000","16.75431","16.08844"
"188.70000","16.76300","15.93144"
"188.80000","16.77175","14.42772"
"188.90000","16.78075","12.99296"
"189.00000","16.78994","13.07987"
"189.10000","16.79850","13.06380"
"189.20000","16.80737","12.99999"
"189.30000","16.81631","12.91007"
"189.40000","16.82544","12.86617"
"189.50000","16.83394","12.85596"
"189.60000","16.84288","12.82463"
"189.70000","16.85181","12.93247"
"189.80000","16.86100","12.94726"
"189.90000","16.86956","12.78528"
"190.00000","16.87844","12.75390"
"190.10000","16.88731","12.78598"
"190.20000","16.89644","12.81692"
"190.30000","16.90506","12.79946"
"190.40000","16.91400","12.82513"
"190.50000","16.92281","12.81435"
"190.60000","16.93206","12.80688"
"190.70000","16.94056","12.74930"
"190.80000","16.94956","12.72379"
"190.90000","16.95844","12.69652"
"191.00000","16.96756","12.73941"
"191.10000","16.97606","12.70511"
"191.20000","16.98513","12.70014"
"191.30000","16.99400","12.69131"
"191.40000","17.00313","12.68283"
"191.50000","17.01156","12.64803"
"191.60000","17.02063","12.60667"
"191.70000","17.02963","12.56691"
"191.80000","17.03856","12.60370"
"191.90000","17.04719","12.61826"
"192.00000","17.05625","12.61345"
"192.10000","17.06506","12.61069"
"192.20000","17.07406","12.59374"
"192.30000","17.08263","12.57956"
"192.40000","17.09175","12.54268"
"192.50000","17.10063","12.55825"
"192.60000","17.10956","12.55982"
"192.70000","17.11819","12.51172"
"192.80000","17.12725","12.46840"
"192.90000","17.13619","12.47440"
"193.00000","17.14512","12.49396"
"193.10000","17.15369","12.49112"
"193.20000","17.16281","12.46605"
"193.30000","17.17181","12.43491"
"193.40000","17.18075","12.45955"
"193.50000","17.18919","12.45461"
"193.60000","17.19831","12.43881"
"193.70000","17.20731","12.46661"
"193.80000","17.21619","12.44094"
"193.90000","17.22475","12.42997"
"194.00000","17.23381","12.42807"
"194.10000","17.24288","12.44574"
"194.20000","17.25163","12.44624"
"194.30000","17.26031","12.43891"
"194.40000","17.26938","12.39171"
"194.50000","17.27844","12.39063"
"194.60000","17.28706","12.38168"
"194.70000","17.29588","12.33355"
"194.80000","17.30494","12.34664"
"194.90000","17.31400","12.35282"
"195.00000","17.32263","12.17893"
"195.10000","17.33138","12.13136"
"195.20000","17.34037","12.09992"
"195.30000","17.34956","12.09951"
"195.40000","17.35819","12.09233"
"195.50000","17.36700","12.05870"
"195.60000","17.37588","11.99349"
"195.70000","17.38506","12.02095"
"195.80000","17.39369","11.98588"
"195.90000","17.40250","11.99748"
"196.00000","17.41144","11.99021"
"196.10000","17.42063","11.96289"
"196.20000","17.42925","11.89989"
"196.30000","17.43806","11.89887"
"196.40000","17.44706","11.90227"
"196.50000","17.45613","11.94880"
"196.60000","17.46463","11.87742"
"196.70000","17.47363","11.77120"
"196.80000","17.48256","11.70358"
"196.90000","17.49175","11.75176"
"197.00000","17.50019","11.74414"
"197.10000","17.50919","11.75759"
"197.20000","17.51806","11.74225"
"197.30000","17.52719","11.73063"
"197.40000","17.53569","11.69613"
"197.50000","17.54475","11.67621"
"197.60000","17.55363","11.68582"
"197.70000","17.56269","11.63471"
"197.80000","17.57125","11.62136"
"197.90000","17.58031","11.61398"
"198.00000","17.58913","11.49633"
"198.10000","17.59819","11.49207"
"198.20000","17.60675","11.40234"
"198.30000","17.61588","11.41681"
"198.40000","17.62469","11.43094"
"198.50000","17.63375","11.44303"
"198.60000","17.64225","11.40417"
"198.70000","17.65131","11.43594"
"198.80000","17.66031","11.41363"
"198.90000","17.66931","11.38733"
"199.00000","17.67788","11.37353"
"199.10000","17.68688","11.30783"
"199.20000","17.69581","11.28831"
"199.30000","17.70481","11.31043"
"199.40000","17.71331","11.27785"
"199.50000","17.72244","11.27151"
"199.60000","17.73138","11.28540"
"199.70000","17.74031","11.28387"
"199.80000","17.74887","11.27978"
"199.90000","17.75800","11.24499"
"200.00000","17.76694","11.25704"
"200.10000","17.77575","11.18618"
"200.20000","17.78438","11.19310"
"200.30000","17.79356","11.18151"
"200.40000","17.80256","11.19718"
"200.50000","17.81131","11.18049"
"200.60000","17.81994","11.15988"
"200.70000","17.82900","11.16675"
"200.80000","17.83806","11.18392"
"200.90000","17.84681","11.16277"
"201.00000","17.85550","11.14818"
"201.10000","17.86450","11.12570"
"201.20000","17.87356","11.12944"
"201.30000","17.88231","11.14004"
"201.40000","17.89106","11.12220"
"201.50000","17.90000","11.11669"
"201.60000","17.90913","11.12076"
"201.70000","17.91781","11.11557"
"201.80000","17.92663","11.09026"
"201.90000","17.93563","11.03568"
"202.00000","17.94475","11.05533"
"202.10000","17.95325","11.03430"
"202.20000","17.96206","10.99731"
"202.30000","17.97119","10.99374"
"202.40000","17.98031","10.94383"
"202.50000","17.98888","10.92722"
"202.60000","17.99769","10.92215"
"202.70000","18.00663","10.93394"
"202.80000","18.01581","10.94409"
"202.90000","18.02437","10.96304"
"203.00000","18.03325","10.96677"
"203.10000","18.04219","10.95153"
"203.20000","18.05131","10.97684"
"203.30000","18.05988","10.93924"
"203.40000","18.06888","10.92214"
"203.50000","18.07775","10.89955"
"203.60000","18.08681","10.89213"
"203.70000","18.09538","10.83767"
"203.80000","18.10444","10.84484"
"203.90000","18.11331","10.83135"
"204.00000","18.12238","10.82920"
"204.10000","18.13088","10.80484"
"204.20000","18.13988","10.81948"
"204.30000","18.14875","10.80820"
"204.40000","18.15788","10.81116"
"204.50000","18.16644","10.79645"
"204.60000","18.17550","10.71805"
"204.70000","18.18431","10.69217"
"204.80000","18.19344","10.69842"
"204.90000","18.20194","10.68766"
"205.00000","18.21100","10.68172"
"205.10000","18.21994","10.68308"
"205.20000","18.22894","10.66544"
"205.30000","18.23750","10.64522"
"205.40000","18.24662","10.63984"
"205.50000","18.25544","10.66270"
"205.60000","18.26438","10.66806"
"205.70000","18.27288","10.61997"
"205.80000","18.28219","10.60569"
"205.90000","18.29112","10.61086"
"206.00000","18.29994","10.61946"
"206.10000","18.30850","10.62171"
"206.20000","18.31763","10.61028"
"206.30000","18.32663","10.61718"
"206.40000","18.33544","10.62872"
"206.50000","18.34406","10.60957"
"206.60000","18.35312","10.59766"
"206.70000","18.36219","10.61718"
"206.80000","18.37100","10.61833"
"206.90000","18.37963","10.62211"
"207.00000","18.38863","10.61877"
"207.10000","18.39762","10.66190"
"207.20000","18.40650","10.65091"
"207.30000","18.41512","10.60901"
"207.40000","18.42425","10.60428"
"207.50000","18.43325","10.62335"
"207.60000","18.44200","10.63599"
"207.70000","18.45062","10.63651"
"207.80000","18.45975","10.63043"
"207.90000","18.46888","10.63020"
"208.00000","18.47750","10.61471"
"208.10000","18.48625","10.60317"
"208.20000","18.49525","10.59869"
"208.30000","18.50438","10.64112"
"208.40000","18.51300","10.64418"
"208.50000","18.52175","10.61843"
"208.60000","18.53081","10.61732"
"208.70000","18.53988","10.62408"
"208.80000","18.54856","10.61319"
"208.90000","18.55737","10.62899"
"209.00000","18.56631","10.61906"
"209.10000","18.57544","10.64488"
"209.20000","18.58394","10.63354"
"209.30000","18.59287","10.62820"
"209.40000","18.60188","10.60244"
"209.50000","18.61100","10.62463"
"209.60000","18.61956","10.60278"
"209.70000","18.62844","10.60295"
"209.80000","18.63738","10.60837"
"209.90000","18.64650","10.63323"
"210.00000","18.65512","10.61212"
"210.10000","18.66400","10.62546"
"210.20000","18.67288","10.61689"
"210.30000","18.68206","10.63386"
"210.40000","18.69056","10.59871"
"210.50000","18.69956","10.61443"
"210.60000","18.70844","10.59812"
"210.70000","18.71756","10.62094"
"210.80000","18.72606","10.60428"
"210.90000","18.73519","10.61246"
"211.00000","18.74406","10.60940"
"211.10000","18.75306","10.60521"
"211.20000","18.76156","10.58991"
"211.30000","18.77069","10.59161"
"211.40000","18.77956","10.59783"
"211.50000","18.78863","10.62118"
"211.60000","18.79712","10.59745"
"211.70000","18.80625","10.60295"
"211.80000","18.81513","10.54980"
"211.90000","18.82413","10.55892"
"212.00000","18.83263","10.52525"
"212.10000","18.84175","10.39280"
"212.20000","18.85062","9.98272"
"212.30000","18.85963","9.90970"
"212.40000","18.86825","9.85451"
"212.50000","18.87725","9.85557"
"212.60000","18.88625","9.87445"
"212.70000","18.89506","9.86364"
"212.80000","18.90375","9.83328"
"212.90000","18.91281","9.84288"
"213.00000","18.92175","9.86252"
"213.10000","18.93069","9.84404"
"213.20000","18.93919","9.82343"
"213.30000","18.94838","9.81010"
"213.40000","18.95738","9.83185"
"213.50000","18.96619","9.83295"
"213.60000","18.97475","9.81365"
"213.70000","18.98388","9.79519"
"213.80000","18.99294","9.80750"
"213.90000","19.00169","9.79075"
"214.00000","19.01031","9.78020"
"214.10000","19.01938","9.56180"
"214.20000","19.02844","9.52609"
"214.30000","19.03719","9.52512"
"214.40000","19.04594","9.51539"
"214.50000","19.05494","9.16962"
"214.60000","19.06400","9.44486"
"214.70000","19.07263","9.51464"
"214.80000","19.08144","9.53052"
"214.90000","19.09044","9.53724"
"215.00000","19.09956","9.55118"
"215.10000","19.10819","9.50690"
"215.20000","19.11700","9.48372"
"215.30000","19.12594","9.47806"
"215.40000","19.13512","9.48710"
"215.50000","19.14369","9.42295"
"215.60000","19.15250","5.97444"
"215.70000","19.16144","6.15937"
"215.80000","19.17063","6.14587"
"215.90000","19.17925","5.97568"
"216.00000","19.18806","6.11095"
"216.10000","19.19700","6.11113"
"216.20000","19.20613","6.13202"
"216.30000","19.21463","6.13032"
"216.40000","19.22369","6.10187"
"216.50000","19.23263","6.09597"
"216.60000","19.24169","6.09684"
"216.70000","19.25025","6.11808"
"216.80000","19.25919","6.12427"
"216.90000","19.26813","6.10621"
"217.00000","19.27719","6.10861"
"217.10000","19.28569","6.09731"
"217.20000","19.29481","6.09850"
"217.30000","19.30369","5.95545"
"217.40000","19.31275","5.95573"
"217.50000","19.32125","5.93107"
"217.60000","19.33025","5.92498"
"217.70000","19.33919","5.93119"
"217.80000","19.34825","5.92760"
"217.90000","19.35681","5.91952"
"218.00000","19.36588","5.92434"
"218.10000","19.37469","5.93089"
"218.20000","19.38375","5.93351"
"218.30000","19.39231","5.91256"
"218.40000","19.40137","5.90578"
"218.50000","19.41025","5.90430"
"218.60000","19.41931","5.92040"
"218.70000","19.42781","5.82461"
"218.80000","19.43687","5.82218"
"218.90000","19.44581","5.83831"
"219.00000","19.45475","5.85775"
"219.10000","19.46325","5.84410"
"219.20000","19.47244","5.83421"
"219.30000","19.48144","5.84030"
"219.40000","19.49038","5.84112"
"219.50000","19.49887","5.84430"
"219.60000","19.50794","5.84051"
"219.70000","19.51694","5.84453"
"219.80000","19.52575","5.84017"
"219.90000","19.53444","5.82816"
"220.00000","19.54356","5.83472"
"220.10000","19.55256","5.83935"
"220.20000","19.56125","5.83794"
"220.30000","19.56994","5.82817"
"220.40000","19.57906","5.81145"
"220.50000","19.58806","5.83934"
"220.60000","19.59675","5.83611"
"220.70000","19.60550","5.81264"
"220.80000","19.61456","5.80909"
"220.90000","19.62369","5.80823"
"221.00000","19.63238","5.81189"
"221.10000","19.64100","5.79472"
"221.20000","19.65000","5.77461"
"221.30000","19.65919","5.78409"
"221.40000","19.66788","5.77262"
"221.50000","19.67663","5.77054"
"221.60000","19.68563","5.76635"
"221.70000","19.69469","5.76018"
"221.80000","19.70331","5.74961"
"221.90000","19.71213","5.76447"
"222.00000","19.72113","5.76577"
"222.10000","19.73031","5.76169"
"222.20000","19.73881","5.76535"
"222.30000","19.74775","5.77381"
"222.40000","19.75669","5.75496"
"222.50000","19.76581","5.75515"
"222.60000","19.77438","5.38225"
"222.70000","19.78325","5.31629"
"222.80000","19.79219","5.26730"
"222.90000","19.80137","4.90898"
"223.00000","19.80988","5.06529"
"223.10000","19.81888","4.89094"
"223.20000","19.82769","4.76148"
"223.30000","19.83681","4.81645"
"223.40000","19.84538","4.79265"
"223.50000","19.85444","4.77502"
"223.60000","19.86331","4.78057"
"223.70000","19.87238","4.78018"
"223.80000","19.88094","4.77606"
"223.90000","19.88994","4.75001"
"224.00000","19.89881","4.74766"
"224.10000","19.90794","4.74872"
"224.20000","19.91637","4.74544"
"224.30000","19.92550","4.75311"
"224.40000","19.93438","4.74526"
"224.50000","19.94344","4.75269"
"224.60000","19.95188","4.75070"
"224.70000","19.96100","4.76116"
"224.80000","19.96994","4.75383"
"224.90000","19.97894","4.74601"
"225.00000","19.98750","4.74001"
"225.10000","19.99663","4.72977"
"225.20000","20.00544","4.73840"
"225.30000","20.01444","4.73834"
"225.40000","20.02300","4.74725"
"225.50000","20.03213","4.73320"
"225.60000","20.04106","4.73177"
"225.70000","20.04994","4.72139"
"225.80000","20.05850","4.71620"
"225.90000","20.06769","4.72065"
"226.00000","20.07663","4.72675"
"226.10000","20.08544","4.73571"
"226.20000","20.09406","4.73046"
"226.30000","20.10319","4.71824"
"226.40000","20.11219","4.74057"
"226.50000","20.12100","4.73685"
"226.60000","20.12963","4.72922"
"226.70000","20.13869","4.74074"
"226.80000","20.14769","4.74576"
"226.90000","20.15650","4.74126"
"227.00000","20.16519","4.72493"
"227.10000","20.17425","4.72726"
"227.20000","20.18325","4.74738"
"227.30000","20.19194","4.74604"
"227.40000","20.20062","4.74932"
"227.50000","20.20975","4.74817"
"227.60000","20.21888","4.68762"
"227.70000","20.22750","3.80151"
"227.80000","20.23619","3.81957"
"227.90000","20.24531","3.83051"
"228.00000","20.25444","3.83360"
"228.10000","20.26306","3.82659"
"228.20000","20.27175","3.83296"
"228.30000","20.28081","3.81710"
"228.40000","20.28994","3.82969"
"228.50000","20.29856","3.81952"
"228.60000","20.30737","3.81186"
"228.70000","20.31631","3.71909"
"228.80000","20.32544","3.59461"
"228.90000","20.33400","3.58023"
"229.00000","20.34294","3.58296"
"229.10000","20.35188","3.56982"
"229.20000","20.36100","3.56971"
"229.30000","20.36950","3.54370"
"229.40000","20.37850","3.53798"
"229.50000","20.38737","3.54297"
"229.60000","20.39650","3.55326"
"229.70000","20.40513","3.55241"
"229.80000","20.41400","3.55156"
"229.90000","20.42294","3.54746"
"230.00000","20.43213","3.54919"
"230.10000","20.44063","3.54009"
"230.20000","20.44956","3.53180"
"230.30000","20.45844","3.52821"
"230.40000","20.46762","3.53584"
"230.50000","20.47613","3.50699"
"230.60000","20.48512","3.50944"
"230.70000","20.49400","3.50978"
"230.80000","20.50306","3.51332"
"230.90000","20.51156","3.50559"
"231.00000","20.52063","3.48576"
"231.10000","20.52956","3.48870"
"231.20000","20.53869","3.48494"
"231.30000","20.54719","3.47603"
"231.40000","20.55632","3.47852"
"231.50000","20.56519","3.48743"
"231.60000","20.57419","3.49298"
"231.70000","20.58262","3.47396"
"231.80000","20.59175","3.48717"
"231.90000","20.60069","3.48141"
"232.00000","20.60969","3.48617"
"232.10000","20.61825","3.43586"
"232.20000","20.62725","3.40898"
"232.30000","20.63619","3.25810"
"232.40000","20.64513","2.72235"
"232.50000","20.65375","2.86176"
"232.60000","20.66281","2.87291"
"232.70000","20.67175","2.89471"
"232.80000","20.68063","2.90084"
"232.90000","20.68925","2.87912"
"233.00000","20.69844","2.86418"
"233.10000","20.70738","2.87530"
"233.20000","20.71613","2.87247"
"233.30000","20.72475","2.85569"
"233.40000","20.73394","2.85992"
"233.50000","20.74294","2.86517"
"233.60000","20.75175","2.86944"
"233.70000","20.76031","2.86377"
"233.80000","20.76938","2.85393"
"233.90000","20.77850","2.85962"
"234.00000","20.78725","2.85309"
"234.10000","20.79594","2.85655"
"234.20000","20.80494","2.85123"
"234.30000","20.81400","2.86894"
"234.40000","20.82269","2.86325"
"234.50000","20.83144","2.85734"
"234.60000","20.84044","2.85248"
"234.70000","20.84956","2.86378"
"234.80000","20.85813","2.85735"
"234.90000","20.86706","2.85191"
"235.00000","20.87594","2.85059"
"235.10000","20.88513","2.85731"
"235.20000","20.89369","2.84730"
"235.30000","20.90250","2.84330"
"235.40000","20.91150","2.83426"
"235.50000","20.92069","2.85015"
"235.60000","20.92931","2.83369"
"235.70000","20.93806","2.83361"
"235.80000","20.94700","2.82614"
"235.90000","20.95619","2.84786"
"236.00000","20.96475","2.84608"
"236.10000","20.97369","2.83566"
"236.20000","20.98256","2.83284"
"236.30000","20.99169","2.83485"
"236.40000","21.00025","2.82285"
"236.50000","21.00925","2.82020"
"236.60000","21.01813","2.82592"
"236.70000","21.02719","2.83759"
"236.80000","21.03569","2.83910"
"236.90000","21.04481","2.84216"
"237.00000","21.05375","2.83200"
"237.10000","21.06281","2.83771"
"237.11800","21.06438","2.83522"
