Time,Extension,Load
(s),(mm),(N)
"0.00000","0.00019","-0.00521"
"0.10000","0.00769","0.10416"
"0.20000","0.01825","0.47630"
"0.30000","0.02825","0.93876"
"0.40000","0.03706","1.36591"
"0.50000","0.04581","1.78633"
"0.60000","0.05488","2.20794"
"0.70000","0.06394","2.62230"
"0.80000","0.07281","3.02465"
"0.90000","0.08144","3.45120"
"1.00000","0.09056","3.87412"
"1.10000","0.09956","4.29102"
"1.20000","0.10825","4.69771"
"1.30000","0.11700","5.13724"
"1.40000","0.12600","5.55852"
"1.50000","0.13513","5.97825"
"1.60000","0.14375","6.41264"
"1.70000","0.15250","6.84642"
"1.80000","0.16150","7.27303"
"1.90000","0.17069","7.69383"
"2.00000","0.17931","8.10398"
"2.10000","0.18806","8.53866"
"2.20000","0.19706","8.97530"
"2.30000","0.20625","9.39161"
"2.40000","0.21481","9.80212"
"2.50000","0.22369","10.24616"
"2.60000","0.23256","10.68323"
"2.70000","0.24169","11.10420"
"2.80000","0.25025","11.52746"
"2.90000","0.25919","11.95906"
"3.00000","0.26812","12.40147"
"3.10000","0.27725","12.82579"
"3.20000","0.28581","13.25472"
"3.30000","0.29475","13.69102"
"3.40000","0.30363","14.13294"
"3.50000","0.31275","14.55735"
"3.60000","0.32131","15.00098"
"3.70000","0.33025","15.43706"
"3.80000","0.33919","15.88309"
"3.90000","0.34837","16.30525"
"4.00000","0.35688","16.73836"
"4.10000","0.36588","17.18085"
"4.20000","0.37469","17.62347"
"4.30000","0.38388","18.04303"
"4.40000","0.39244","18.48886"
"4.50000","0.40144","18.93069"
"4.60000","0.41025","19.37046"
"4.70000","0.41938","19.80112"
"4.80000","0.42788","20.22340"
"4.90000","0.43694","20.66925"
"5.00000","0.44594","21.10907"
"5.10000","0.45487","21.54048"
"5.20000","0.46338","21.97065"
"5.30000","0.47250","22.40994"
"5.40000","0.48144","22.85859"
"5.50000","0.49038","23.27706"
"5.60000","0.49888","23.72269"
"5.70000","0.50800","24.16381"
"5.80000","0.51700","24.60458"
"5.90000","0.52594","25.03640"
"6.00000","0.53450","25.47380"
"6.10000","0.54350","25.91792"
"6.20000","0.55250","26.36124"
"6.30000","0.56138","26.79513"
"6.40000","0.57000","27.23841"
"6.50000","0.57912","27.67618"
"6.60000","0.58806","28.13083"
"6.70000","0.59694","28.55357"
"6.80000","0.60550","29.00246"
"6.90000","0.61469","29.46080"
"7.00000","0.62362","29.87966"
"7.10000","0.63244","30.31858"
"7.20000","0.64106","30.76131"
"7.30000","0.65019","31.20423"
"7.40000","0.65925","31.65869"
"7.50000","0.66794","32.08636"
"7.60000","0.67663","32.53535"
"7.70000","0.68563","32.97792"
"7.80000","0.69475","33.41309"
"7.90000","0.70344","33.84954"
"8.00000","0.71225","34.29808"
"8.10000","0.72119","34.73651"
"8.20000","0.73025","35.17177"
"8.30000","0.73888","35.60748"
"8.40000","0.74775","36.05961"
"8.50000","0.75675","36.50742"
"8.60000","0.76581","36.94903"
"8.70000","0.77444","37.38111"
"8.80000","0.78331","37.83104"
"8.90000","0.79219","38.27903"
"9.00000","0.80138","38.71801"
"9.10000","0.80987","39.14391"
"9.20000","0.81881","39.59697"
"9.30000","0.82775","40.05737"
"9.40000","0.83694","40.49302"
"9.50000","0.84556","40.94056"
"9.60000","0.85431","41.38052"
"9.70000","0.86331","41.83058"
"9.80000","0.87244","42.26439"
"9.90000","0.88100","42.71053"
"10.00000","0.88994","43.15628"
"10.10000","0.89881","43.60727"
"10.20000","0.90800","44.03310"
"10.30000","0.91650","44.46513"
"10.40000","0.92550","44.91348"
"10.50000","0.93438","45.36150"
"10.60000","0.94344","45.78564"
"10.70000","0.95200","46.23009"
"10.80000","0.96106","46.67870"
"10.90000","0.97000","47.12196"
"11.00000","0.97906","47.54728"
"11.10000","0.98750","47.99689"
"11.20000","0.99656","48.44741"
"11.30000","1.00550","48.89978"
"11.40000","1.01450","49.33244"
"11.50000","1.02313","49.78082"
"11.60000","1.03213","50.22853"
"11.70000","1.04094","50.67606"
"11.80000","1.05006","51.11206"
"11.90000","1.05856","51.55733"
"12.00000","1.06763","52.01168"
"12.10000","1.07650","52.45523"
"12.20000","1.08550","52.90078"
"12.30000","1.09413","53.34711"
"12.40000","1.10325","53.80157"
"12.50000","1.11219","54.25415"
"12.60000","1.12106","54.68671"
"12.70000","1.12956","55.12689"
"12.80000","1.13869","55.58165"
"12.90000","1.14775","56.03695"
"13.00000","1.15669","56.47381"
"13.10000","1.16519","56.91871"
"13.20000","1.17425","57.37327"
"13.30000","1.18325","57.80910"
"13.40000","1.19206","58.24383"
"13.50000","1.20075","58.70703"
"13.60000","1.20981","59.16123"
"13.70000","1.21881","59.60568"
"13.80000","1.22750","60.03613"
"13.90000","1.23625","60.48728"
"14.00000","1.24538","60.93174"
"14.10000","1.25438","61.38170"
"14.20000","1.26300","61.82053"
"14.30000","1.27181","62.27754"
"14.40000","1.28094","62.72801"
"14.50000","1.29000","63.17137"
"14.60000","1.29862","63.61231"
"14.70000","1.30731","64.06395"
"14.80000","1.31625","64.51858"
"14.90000","1.32544","64.97059"
"15.00000","1.33413","65.39891"
"15.10000","1.34294","65.86674"
"15.20000","1.35188","66.31709"
"15.30000","1.36100","66.77344"
"15.40000","1.36956","67.20796"
"15.50000","1.37844","67.66608"
"15.60000","1.38744","68.12092"
"15.70000","1.39656","68.56480"
"15.80000","1.40519","69.01212"
"15.90000","1.41400","69.46182"
"16.00000","1.42300","69.92387"
"16.10000","1.43206","70.36734"
"16.20000","1.44063","70.81165"
"16.30000","1.44956","71.26670"
"16.40000","1.45850","71.71774"
"16.50000","1.46769","72.15948"
"16.60000","1.47613","72.60583"
"16.70000","1.48512","73.05914"
"16.80000","1.49400","73.51431"
"16.90000","1.50313","73.94664"
"17.00000","1.51169","74.39712"
"17.10000","1.52069","74.85461"
"17.20000","1.52956","75.31160"
"17.30000","1.53869","75.75448"
"17.40000","1.54719","76.19427"
"17.50000","1.55619","76.65174"
"17.60000","1.56506","77.10600"
"17.70000","1.57419","77.55451"
"17.80000","1.58269","77.99059"
"17.90000","1.59187","78.45998"
"18.00000","1.60063","78.90347"
"18.10000","1.60975","79.34888"
"18.20000","1.61812","79.79249"
"18.30000","1.62731","80.25118"
"18.40000","1.63619","80.70711"
"18.50000","1.64525","81.13928"
"18.60000","1.65381","81.59494"
"18.70000","1.66288","82.04759"
"18.80000","1.67175","82.49563"
"18.90000","1.68069","82.93956"
"19.00000","1.68931","83.39325"
"19.10000","1.69838","83.86298"
"19.20000","1.70731","84.30747"
"19.30000","1.71625","84.74194"
"19.40000","1.72481","85.19337"
"19.50000","1.73400","85.65257"
"19.60000","1.74294","86.10832"
"19.70000","1.75169","86.53664"
"19.80000","1.76031","87.00685"
"19.90000","1.76950","87.45589"
"20.00000","1.77850","87.90236"
"20.10000","1.78731","88.34875"
"20.20000","1.79588","88.78709"
"20.30000","1.80488","89.24182"
"20.40000","1.81400","89.69813"
"20.50000","1.82287","90.13522"
"20.60000","1.83144","90.58820"
"20.70000","1.84050","91.04976"
"20.80000","1.84956","91.50153"
"20.90000","1.85831","91.93954"
"21.00000","1.86700","92.39964"
"21.10000","1.87600","92.85242"
"21.20000","1.88506","93.29967"
"21.30000","1.89381","93.74534"
"21.40000","1.90256","94.20309"
"21.50000","1.91156","94.66377"
"21.60000","1.92069","95.10110"
"21.70000","1.92925","95.53690"
"21.80000","1.93806","95.99995"
"21.90000","1.94712","96.45204"
"22.00000","1.95625","96.89697"
"22.10000","1.96487","97.34463"
"22.20000","1.97369","97.81419"
"22.30000","1.98256","98.25875"
"22.40000","1.99175","98.68982"
"22.50000","2.00031","99.13394"
"22.60000","2.00925","99.59682"
"22.70000","2.01813","100.06778"
"22.80000","2.02725","100.50546"
"22.90000","2.03581","100.95026"
"23.00000","2.04481","101.40790"
"23.10000","2.05369","101.87406"
"23.20000","2.06281","102.31546"
"23.30000","2.07138","102.75398"
"23.40000","2.08037","103.22729"
"23.50000","2.08925","103.67997"
"23.60000","2.09838","104.13375"
"23.70000","2.10681","104.58300"
"23.80000","2.11588","105.04575"
"23.90000","2.12475","105.50630"
"24.00000","2.13388","105.94187"
"24.10000","2.14244","106.38744"
"24.20000","2.15138","106.84574"
"24.30000","2.16025","107.30633"
"24.40000","2.16938","107.74799"
"24.50000","2.17794","108.19772"
"24.60000","2.18694","108.66017"
"24.70000","2.19588","109.11987"
"24.80000","2.20487","109.55890"
"24.90000","2.21344","110.00635"
"25.00000","2.22256","110.46970"
"25.10000","2.23144","110.92931"
"25.20000","2.24038","111.36975"
"25.30000","2.24894","111.82273"
"25.40000","2.25806","112.27248"
"25.50000","2.26700","112.72889"
"25.60000","2.27594","113.16415"
"25.70000","2.28450","113.63354"
"25.80000","2.29350","114.09208"
"25.90000","2.30250","114.54823"
"26.00000","2.31144","114.98027"
"26.10000","2.32006","115.44044"
"26.20000","2.32913","115.91226"
"26.30000","2.33800","116.36147"
"26.40000","2.34700","116.80450"
"26.50000","2.35556","117.26748"
"26.60000","2.36475","117.72372"
"26.70000","2.37363","118.18457"
"26.80000","2.38244","118.62090"
"26.90000","2.39106","119.08826"
"27.00000","2.40025","119.54537"
"27.10000","2.40925","119.99296"
"27.20000","2.41794","120.43722"
"27.30000","2.42656","120.89540"
"27.40000","2.43569","121.36428"
"27.50000","2.44481","121.81264"
"27.60000","2.45344","122.25573"
"27.70000","2.46219","122.71781"
"27.80000","2.47125","123.18037"
"27.90000","2.48031","123.62634"
"28.00000","2.48900","124.06485"
"28.10000","2.49775","124.53112"
"28.20000","2.50669","125.00225"
"28.30000","2.51581","125.44377"
"28.40000","2.52450","125.89508"
"28.50000","2.53337","126.35633"
"28.60000","2.54219","126.82588"
"28.70000","2.55137","127.27499"
"28.80000","2.55994","127.72372"
"28.90000","2.56881","128.17398"
"29.00000","2.57781","128.64624"
"29.10000","2.58700","129.09045"
"29.20000","2.59550","129.53432"
"29.30000","2.60438","129.99438"
"29.40000","2.61338","130.45798"
"29.50000","2.62250","130.89842"
"29.60000","2.63100","131.34264"
"29.70000","2.63994","131.80981"
"29.80000","2.64881","132.26631"
"29.90000","2.65800","132.70750"
"30.00000","2.66656","133.15569"
"30.10000","2.67550","133.60692"
"30.20000","2.68437","134.08368"
"30.30000","2.69350","134.51782"
"30.40000","2.70200","134.97188"
"30.50000","2.71119","135.45241"
"30.60000","2.72000","135.90912"
"30.70000","2.72900","136.33708"
"30.80000","2.73756","136.79114"
"30.90000","2.74663","137.25121"
"31.00000","2.75550","137.71858"
"31.10000","2.76456","138.15549"
"31.20000","2.77306","138.62526"
"31.30000","2.78219","139.08775"
"31.40000","2.79100","139.54691"
"31.50000","2.80006","139.99002"
"31.60000","2.80862","140.43727"
"31.70000","2.81763","140.90283"
"31.80000","2.82656","141.38190"
"31.90000","2.83556","141.81140"
"32.00000","2.84419","142.26459"
"32.10000","2.85325","142.73004"
"32.20000","2.86213","143.19997"
"32.30000","2.87106","143.62840"
"32.40000","2.87956","144.09215"
"32.50000","2.88875","144.55423"
"32.60000","2.89775","145.00940"
"32.70000","2.90669","145.45517"
"32.80000","2.91519","145.90382"
"32.90000","2.92425","146.37027"
"33.00000","2.93325","146.81616"
"33.10000","2.94213","147.25450"
"33.20000","2.95075","147.70753"
"33.30000","2.95987","148.16698"
"33.40000","2.96887","148.62997"
"33.50000","2.97762","149.06653"
"33.60000","2.98631","149.52278"
"33.70000","2.99538","149.98349"
"33.80000","3.00437","150.42976"
"33.90000","3.01306","150.86459"
"34.00000","3.02188","151.33618"
"34.10000","3.03087","151.79607"
"34.20000","3.03994","152.25543"
"34.30000","3.04856","152.69023"
"34.40000","3.05738","153.14771"
"34.50000","3.06631","153.60658"
"34.60000","3.07550","154.05553"
"34.70000","3.08419","154.49754"
"34.80000","3.09294","154.95825"
"34.90000","3.10187","155.41325"
"35.00000","3.11100","155.87386"
"35.10000","3.11969","156.30217"
"35.20000","3.12844","156.76324"
"35.30000","3.13737","157.23083"
"35.40000","3.14656","157.68462"
"35.50000","3.15519","158.11115"
"35.60000","3.16406","158.56883"
"35.70000","3.17294","159.03914"
"35.80000","3.18206","159.48668"
"35.90000","3.19062","159.92503"
"36.00000","3.19956","160.38875"
"36.10000","3.20850","160.83858"
"36.20000","3.21769","161.29352"
"36.30000","3.22619","161.73305"
"36.40000","3.23513","162.18839"
"36.50000","3.24406","162.66164"
"36.60000","3.25319","163.09258"
"36.70000","3.26175","163.53516"
"36.80000","3.27075","163.99104"
"36.90000","3.27962","164.45729"
"37.00000","3.28875","164.89430"
"37.10000","3.29725","165.34035"
"37.20000","3.30625","165.81166"
"37.30000","3.31506","166.26974"
"37.40000","3.32419","166.71057"
"37.50000","3.33275","167.15004"
"37.60000","3.34188","167.61052"
"37.70000","3.35063","168.08217"
"37.80000","3.35975","168.52756"
"37.90000","3.36819","168.97032"
"38.00000","3.37731","169.42975"
"38.10000","3.38625","169.90340"
"38.20000","3.39531","170.32878"
"38.30000","3.40375","170.77876"
"38.40000","3.41287","171.24110"
"38.50000","3.42175","171.69611"
"38.60000","3.43075","172.12914"
"38.70000","3.43931","172.57672"
"38.80000","3.44844","173.04538"
"38.90000","3.45731","173.51166"
"39.00000","3.46625","173.92918"
"39.10000","3.47481","174.37700"
"39.20000","3.48394","174.83156"
"39.30000","3.49288","175.29692"
"39.40000","3.50169","175.71846"
"39.50000","3.51038","176.18388"
"39.60000","3.51950","176.63440"
"39.70000","3.52850","177.11139"
"39.80000","3.53731","177.53232"
"39.90000","3.54588","177.97507"
"40.00000","3.55500","178.44818"
"40.10000","3.56400","178.91164"
"40.20000","3.57288","179.35204"
"40.30000","3.58144","179.80029"
"40.40000","3.59050","180.25873"
"40.50000","3.59956","180.70929"
"40.60000","3.60831","181.13536"
"40.70000","3.61700","181.59496"
"40.80000","3.62600","182.05910"
"40.90000","3.63512","182.50609"
"41.00000","3.64381","182.92857"
"41.10000","3.65256","183.38489"
"41.20000","3.66156","183.85156"
"41.30000","3.67069","184.29138"
"41.40000","3.67925","184.72307"
"41.50000","3.68812","185.17740"
"41.60000","3.69712","185.65018"
"41.70000","3.70625","186.08296"
"41.80000","3.71481","186.51181"
"41.90000","3.72369","186.98894"
"42.00000","3.73263","187.44337"
"42.10000","3.74181","187.87743"
"42.20000","3.75025","188.29688"
"42.30000","3.75919","188.75983"
"42.40000","3.76813","189.22757"
"42.50000","3.77731","189.67429"
"42.60000","3.78600","190.12505"
"42.70000","3.79481","190.56935"
"42.80000","3.80369","191.03259"
"42.90000","3.81275","191.47348"
"43.00000","3.82144","191.91692"
"43.10000","3.83038","192.37306"
"43.20000","3.83919","192.84610"
"43.30000","3.84838","193.28767"
"43.40000","3.85687","193.71655"
"43.50000","3.86587","194.17827"
"43.60000","3.87481","194.64931"
"43.70000","3.88394","195.07524"
"43.80000","3.89244","195.50952"
"43.90000","3.90138","195.96391"
"44.00000","3.91038","196.44942"
"44.10000","3.91944","196.86223"
"44.20000","3.92794","197.28900"
"44.30000","3.93694","197.75079"
"44.40000","3.94587","198.21979"
"44.50000","3.95494","198.63637"
"44.60000","3.96350","199.08047"
"44.70000","3.97263","199.53264"
"44.80000","3.98144","199.99207"
"44.90000","3.99038","200.41180"
"45.00000","3.99894","200.87259"
"45.10000","4.00812","201.32837"
"45.20000","4.01700","201.78442"
"45.30000","4.02588","202.20224"
"45.40000","4.03450","202.64319"
"45.50000","4.04363","203.11478"
"45.60000","4.05256","203.58350"
"45.70000","4.06144","204.00359"
"45.80000","4.07006","204.45538"
"45.90000","4.07906","204.90672"
"46.00000","4.08806","205.37144"
"46.10000","4.09700","205.79739"
"46.20000","4.10556","206.24014"
"46.30000","4.11469","206.70877"
"46.40000","4.12363","207.17647"
"46.50000","4.13244","207.57770"
"46.60000","4.14113","208.02530"
"46.70000","4.15025","208.48953"
"46.80000","4.15925","208.95610"
"46.90000","4.16794","209.36273"
"47.00000","4.17669","209.81679"
"47.10000","4.18569","210.26135"
"47.20000","4.19481","210.72446"
"47.30000","4.20344","211.13127"
"47.40000","4.21219","211.60204"
"47.50000","4.22125","212.05466"
"47.60000","4.23038","212.50049"
"47.70000","4.23900","212.91534"
"47.80000","4.24775","213.37727"
"47.90000","4.25669","213.84477"
"48.00000","4.26581","214.29279"
"48.10000","4.27450","214.71492"
"48.20000","4.28338","215.16585"
"48.30000","4.29219","215.62570"
"48.40000","4.30137","216.05695"
"48.50000","4.31000","216.47676"
"48.60000","4.31888","216.93834"
"48.70000","4.32781","217.41071"
"48.80000","4.33694","217.85239"
"48.90000","4.34556","218.26913"
"49.00000","4.35438","218.71355"
"49.10000","4.36338","219.18158"
"49.20000","4.37250","219.61627"
"49.30000","4.38100","220.04308"
"49.40000","4.38987","220.49268"
"49.50000","4.39887","220.97838"
"49.60000","4.40806","221.40225"
"49.70000","4.41663","221.81487"
"49.80000","4.42550","222.27455"
"49.90000","4.43431","222.74591"
"50.00000","4.44350","223.16644"
"50.10000","4.45206","223.58363"
"50.20000","4.46112","224.04723"
"50.30000","4.47000","224.52931"
"50.40000","4.47900","224.94179"
"50.50000","4.48750","225.36403"
"50.60000","4.49662","225.83176"
"50.70000","4.50550","226.30151"
"50.80000","4.51456","226.71425"
"50.90000","4.52306","227.14735"
"51.00000","4.53219","227.60475"
"51.10000","4.54106","228.08321"
"51.20000","4.55006","228.51056"
"51.30000","4.55856","228.93604"
"51.40000","4.56769","229.38545"
"51.50000","4.57656","229.86250"
"51.60000","4.58563","230.27982"
"51.70000","4.59419","230.73190"
"51.80000","4.60325","231.18350"
"51.90000","4.61219","231.65625"
"52.00000","4.62106","232.05141"
"52.10000","4.62962","232.49747"
"52.20000","4.63875","232.95261"
"52.30000","4.64775","233.42934"
"52.40000","4.65663","233.82181"
"52.50000","4.66525","234.27243"
"52.60000","4.67431","234.71742"
"52.70000","4.68331","235.19223"
"52.80000","4.69206","235.58430"
"52.90000","4.70069","236.03079"
"53.00000","4.70988","236.49609"
"53.10000","4.71887","236.95284"
"53.20000","4.72763","237.34689"
"53.30000","4.73625","237.79732"
"53.40000","4.74531","238.24986"
"53.50000","4.75437","238.71413"
"53.60000","4.76313","239.11909"
"53.70000","4.77188","239.56982"
"53.80000","4.78088","240.02007"
"53.90000","4.78988","240.47568"
"54.00000","4.79862","240.88312"
"54.10000","4.80738","241.33601"
"54.20000","4.81631","241.79179"
"54.30000","4.82544","242.24985"
"54.40000","4.83413","242.64574"
"54.50000","4.84300","243.10980"
"54.60000","4.85200","243.56155"
"54.70000","4.86113","244.01379"
"54.80000","4.86963","244.40683"
"54.90000","4.87844","244.87950"
"55.00000","4.88737","245.33609"
"55.10000","4.89669","245.79924"
"55.20000","4.90519","246.17322"
"55.30000","4.91406","246.63101"
"55.40000","4.92294","247.10341"
"55.50000","4.93213","247.55382"
"55.60000","4.94069","247.95210"
"55.70000","4.94963","248.41420"
"55.80000","4.95856","248.87523"
"55.90000","4.96763","249.29587"
"56.00000","4.97619","249.71664"
"56.10000","4.98519","250.17261"
"56.20000","4.99406","250.63127"
"56.30000","5.00313","251.04558"
"56.40000","5.01169","251.46490"
"56.50000","5.02069","251.91667"
"56.60000","5.02963","252.40669"
"56.70000","5.03875","252.80797"
"56.80000","5.04725","253.22649"
"56.90000","5.05619","253.66292"
"57.00000","5.06506","254.14970"
"57.10000","5.07425","254.58076"
"57.20000","5.08281","254.99788"
"57.30000","5.09181","255.43951"
"57.40000","5.10069","255.93382"
"57.50000","5.10969","256.32394"
"57.60000","5.11825","256.74667"
"57.70000","5.12738","257.19257"
"57.80000","5.13625","257.67490"
"57.90000","5.14525","258.08905"
"58.00000","5.15381","258.51276"
"58.10000","5.16288","258.95349"
"58.20000","5.17181","259.42914"
"58.30000","5.18075","259.82895"
"58.40000","5.18931","260.26038"
"58.50000","5.19838","260.70114"
"58.60000","5.20737","261.18869"
"58.70000","5.21631","261.57404"
"58.80000","5.22487","262.00180"
"58.90000","5.23394","262.44528"
"59.00000","5.24294","262.92142"
"59.10000","5.25175","263.30389"
"59.20000","5.26038","263.73947"
"59.30000","5.26950","264.18393"
"59.40000","5.27850","264.65979"
"59.50000","5.28725","265.04712"
"59.60000","5.29594","265.48572"
"59.70000","5.30500","265.93881"
"59.80000","5.31400","266.41190"
"59.90000","5.32281","266.79904"
"60.00000","5.33144","267.23541"
"60.10000","5.34056","267.67426"
"60.20000","5.34956","268.13809"
"60.30000","5.35825","268.51874"
"60.40000","5.36694","268.97470"
"60.50000","5.37606","269.44009"
"60.60000","5.38525","269.89270"
"60.70000","5.39388","270.25668"
"60.80000","5.40263","270.70554"
"60.90000","5.41156","271.15167"
"61.00000","5.42069","271.62698"
"61.10000","5.42931","272.00345"
"61.20000","5.43813","272.45413"
"61.30000","5.44712","272.91248"
"61.40000","5.45625","273.35107"
"61.50000","5.46481","273.73547"
"61.60000","5.47369","274.19022"
"61.70000","5.48269","274.65765"
"61.80000","5.49181","275.09186"
"61.90000","5.50031","275.48511"
"62.00000","5.50925","275.93887"
"62.10000","5.51819","276.41046"
"62.20000","5.52731","276.81903"
"62.30000","5.53594","277.23163"
"62.40000","5.54475","277.66464"
"62.50000","5.55369","278.14871"
"62.60000","5.56281","278.57040"
"62.70000","5.57144","278.96692"
"62.80000","5.58031","279.40781"
"62.90000","5.58919","279.90295"
"63.00000","5.59838","280.31784"
"63.10000","5.60687","280.69565"
"63.20000","5.61594","281.13885"
"63.30000","5.62475","281.61490"
"63.40000","5.63388","282.03006"
"63.50000","5.64244","282.42789"
"63.60000","5.65144","282.86954"
"63.70000","5.66031","283.33710"
"63.80000","5.66944","283.74850"
"63.90000","5.67794","284.13684"
"64.00000","5.68700","284.57944"
"64.10000","5.69588","285.06097"
"64.20000","5.70494","285.44293"
"64.30000","5.71350","285.86731"
"64.40000","5.72256","286.30789"
"64.50000","5.73144","286.79514"
"64.60000","5.74044","287.15927"
"64.70000","5.74894","287.57864"
"64.80000","5.75806","288.03473"
"64.90000","5.76700","288.52234"
"65.00000","5.77594","288.89529"
"65.10000","5.78456","289.30981"
"65.20000","5.79362","289.73599"
"65.30000","5.80256","290.23810"
"65.40000","5.81144","290.61111"
"65.50000","5.82006","291.03900"
"65.60000","5.82919","291.47287"
"65.70000","5.83813","291.94760"
"65.80000","5.84706","292.32202"
"65.90000","5.85556","292.75259"
"66.00000","5.86462","293.19724"
"66.10000","5.87363","293.67871"
"66.20000","5.88250","294.02274"
"66.30000","5.89113","294.46222"
"66.40000","5.90025","294.91043"
"66.50000","5.90925","295.38687"
"66.60000","5.91800","295.75647"
"66.70000","5.92669","296.18777"
"66.80000","5.93575","296.63950"
"66.90000","5.94475","297.09811"
"67.00000","5.95344","297.44553"
"67.10000","5.96225","297.89276"
"67.20000","5.97125","298.33640"
"67.30000","5.98038","298.80188"
"67.40000","5.98894","299.16666"
"67.50000","5.99775","299.62534"
"67.60000","6.00675","300.07523"
"67.70000","6.01588","300.49854"
"67.80000","6.02450","300.87479"
"67.90000","6.03331","301.31955"
"68.00000","6.04219","301.77118"
"68.10000","6.05144","302.21133"
"68.20000","6.06000","302.56827"
"68.30000","6.06888","303.01434"
"68.40000","6.07781","303.47842"
"68.50000","6.08694","303.90836"
"68.60000","6.09556","304.28110"
"68.70000","6.10444","304.69553"
"68.80000","6.11337","305.16718"
"68.90000","6.12244","305.59418"
"69.00000","6.13100","305.96378"
"69.10000","6.13994","306.40564"
"69.20000","6.14894","306.89331"
"69.30000","6.15806","307.30426"
"69.40000","6.16663","307.68564"
"69.50000","6.17550","308.10391"
"69.60000","6.18438","308.58456"
"69.70000","6.19356","308.96692"
"69.80000","6.20206","309.36502"
"69.90000","6.21113","309.80728"
"70.00000","6.21994","310.29575"
"70.10000","6.22900","310.66483"
"70.20000","6.23763","311.05084"
"70.30000","6.24663","311.48517"
"70.40000","6.25550","311.97504"
"70.50000","6.26456","312.36487"
"70.60000","6.27313","312.76019"
"70.70000","6.28225","313.19910"
"70.80000","6.29106","313.67166"
"70.90000","6.30006","314.05576"
"71.00000","6.30856","314.44614"
"71.10000","6.31769","314.87952"
"71.20000","6.32656","315.35013"
"71.30000","6.33569","315.74139"
"71.40000","6.34419","316.14508"
"71.50000","6.35325","316.56345"
"71.60000","6.36219","317.06030"
"71.70000","6.37112","317.40906"
"71.80000","6.37963","317.82159"
"71.90000","6.38875","318.25467"
"72.00000","6.39769","318.73987"
"72.10000","6.40669","319.08701"
"72.20000","6.41525","319.48248"
"72.30000","6.42431","319.91312"
"72.40000","6.43331","320.40588"
"72.50000","6.44213","320.75528"
"72.60000","6.45075","321.17648"
"72.70000","6.45994","321.60394"
"72.80000","6.46894","322.05658"
"72.90000","6.47762","322.39920"
"73.00000","6.48625","322.83810"
"73.10000","6.49531","323.28391"
"73.20000","6.50444","323.75189"
"73.30000","6.51313","324.08755"
"73.40000","6.52187","324.53046"
"73.50000","6.53088","324.97858"
"73.60000","6.53994","325.42487"
"73.70000","6.54869","325.78516"
"73.80000","6.55737","326.19742"
"73.90000","6.56631","326.64862"
"74.00000","6.57544","327.12729"
"74.10000","6.58419","327.46951"
"74.20000","6.59300","327.87421"
"74.30000","6.60194","328.30023"
"74.40000","6.61106","328.76025"
"74.50000","6.61962","329.09537"
"74.60000","6.62844","329.53033"
"74.70000","6.63750","329.98151"
"74.80000","6.64663","330.40561"
"74.90000","6.65525","330.75104"
"75.00000","6.66400","331.17340"
"75.10000","6.67300","331.65628"
"75.20000","6.68213","332.06329"
"75.30000","6.69069","332.40524"
"75.40000","6.69963","332.84598"
"75.50000","6.70856","333.31027"
"75.60000","6.71769","333.71466"
"75.70000","6.72625","334.06982"
"75.80000","6.73519","334.49780"
"75.90000","6.74406","334.97501"
"76.00000","6.75313","335.34738"
"76.10000","6.76169","335.71759"
"76.20000","6.77081","336.15356"
"76.30000","6.77962","336.61456"
"76.40000","6.78869","337.00226"
"76.50000","6.79725","337.38263"
"76.60000","6.80625","337.80078"
"76.70000","6.81513","338.27795"
"76.80000","6.82425","338.64993"
"76.90000","6.83275","339.01688"
"77.00000","6.84188","339.44559"
"77.10000","6.85069","339.93378"
"77.20000","6.85981","340.31241"
"77.30000","6.86825","340.67682"
"77.40000","6.87738","341.09256"
"77.50000","6.88625","341.60397"
"77.60000","6.89531","341.95151"
"77.70000","6.90388","342.33688"
"77.80000","6.91294","342.73376"
"77.90000","6.92181","343.23584"
"78.00000","6.93069","343.55484"
"78.10000","6.93925","343.95425"
"78.20000","6.94850","344.37683"
"78.30000","6.95744","344.85968"
"78.40000","6.96637","345.19376"
"78.50000","6.97481","345.57434"
"78.60000","6.98394","346.01218"
"78.70000","6.99300","346.49408"
"78.80000","7.00175","346.79700"
"78.90000","7.01044","347.21484"
"79.00000","7.01950","347.63947"
"79.10000","7.02850","348.12018"
"79.20000","7.03737","348.45670"
"79.30000","7.04600","348.84451"
"79.40000","7.05500","349.25705"
"79.50000","7.06400","349.73123"
"79.60000","7.07281","350.07831"
"79.70000","7.08150","350.48248"
"79.80000","7.09056","350.89404"
"79.90000","7.09963","351.37402"
"80.00000","7.10831","351.66800"
"80.10000","7.11700","352.08066"
"80.20000","7.12612","352.51834"
"80.30000","7.13525","352.97025"
"80.40000","7.14388","353.27762"
"80.50000","7.15256","353.68173"
"80.60000","7.16156","354.11154"
"80.70000","7.17075","354.55048"
"80.80000","7.17944","354.87399"
"80.90000","7.18813","355.27896"
"81.00000","7.19706","355.70990"
"81.10000","7.20625","356.15076"
"81.20000","7.21487","356.45496"
"81.30000","7.22375","356.87723"
"81.40000","7.23269","357.33035"
"81.50000","7.24181","357.73947"
"81.60000","7.25031","358.03607"
"81.70000","7.25925","358.48013"
"81.80000","7.26819","358.92508"
"81.90000","7.27738","359.33789"
"82.00000","7.28594","359.64355"
"82.10000","7.29475","360.03879"
"82.20000","7.30375","360.51672"
"82.30000","7.31288","360.89767"
"82.40000","7.32150","361.25488"
"82.50000","7.33038","361.65485"
"82.60000","7.33919","362.10913"
"82.70000","7.34844","362.49652"
"82.80000","7.35694","362.80008"
"82.90000","7.36594","363.21841"
"83.00000","7.37475","363.69534"
"83.10000","7.38387","364.06339"
"83.20000","7.39250","364.40259"
"83.30000","7.40150","364.78561"
"83.40000","7.41038","365.26379"
"83.50000","7.41944","365.62085"
"83.60000","7.42794","365.95288"
"83.70000","7.43700","366.35580"
"83.80000","7.44594","366.84485"
"83.90000","7.45500","367.16211"
"84.00000","7.46350","367.51526"
"84.10000","7.47256","367.93051"
"84.20000","7.48150","368.40631"
"84.30000","7.49044","368.69684"
"84.40000","7.49900","369.06931"
"84.50000","7.50806","369.46249"
"84.60000","7.51700","369.94583"
"84.70000","7.52594","370.23880"
"84.80000","7.53463","370.61377"
"84.90000","7.54356","370.97327"
"85.00000","7.55256","371.46823"
"85.10000","7.56144","371.76141"
"85.20000","7.57006","372.15741"
"85.30000","7.57912","372.53476"
"85.40000","7.58813","373.04001"
"85.50000","7.59706","373.32498"
"85.60000","7.60550","373.67706"
"85.70000","7.61475","374.11542"
"85.80000","7.62369","374.57059"
"85.90000","7.63250","374.86716"
"86.00000","7.64106","375.22449"
"86.10000","7.65019","375.63864"
"86.20000","7.65931","376.11371"
"86.30000","7.66806","376.36819"
"86.40000","7.67669","376.76743"
"86.50000","7.68569","377.15384"
"86.60000","7.69475","377.60400"
"86.70000","7.70356","377.88959"
"86.80000","7.71231","378.28247"
"86.90000","7.72131","378.70480"
"87.00000","7.73037","379.12134"
"87.10000","7.73894","379.39587"
"87.20000","7.74775","379.77090"
"87.30000","7.75681","380.20987"
"87.40000","7.76594","380.61969"
"87.50000","7.77450","380.91205"
"87.60000","7.78338","381.30499"
"87.70000","7.79225","381.70773"
"87.80000","7.80150","382.13220"
"87.90000","7.81006","382.41556"
"88.00000","7.81888","382.81628"
"88.10000","7.82781","383.23969"
"88.20000","7.83700","383.64221"
"88.30000","7.84563","383.91193"
"88.40000","7.85444","384.28836"
"88.50000","7.86338","384.73962"
"88.60000","7.87250","385.11154"
"88.70000","7.88100","385.39896"
"88.80000","7.89000","385.79251"
"88.90000","7.89894","386.23706"
"89.00000","7.90806","386.60355"
"89.10000","7.91656","386.90781"
"89.20000","7.92556","387.29175"
"89.30000","7.93444","387.72943"
"89.40000","7.94356","388.07739"
"89.50000","7.95206","388.37881"
"89.60000","7.96112","388.78537"
"89.70000","7.97000","389.24850"
"89.80000","7.97913","389.55820"
"89.90000","7.98756","389.86627"
"90.00000","7.99663","390.25357"
"90.10000","8.00550","390.71512"
"90.20000","8.01456","391.00659"
"90.30000","8.02319","391.36337"
"90.40000","8.03225","391.74869"
"90.50000","8.04106","392.20950"
"90.60000","8.05013","392.52570"
"90.70000","8.05862","392.82458"
"90.80000","8.06769","393.19577"
"90.90000","8.07663","393.68665"
"91.00000","8.08563","393.96771"
"91.10000","8.09419","394.30801"
"91.20000","8.10325","394.65320"
"91.30000","8.11219","395.13486"
"91.40000","8.12113","395.40201"
"91.50000","8.12969","395.75208"
"91.60000","8.13881","396.12903"
"91.70000","8.14775","396.61356"
"91.80000","8.15675","396.87167"
"91.90000","8.16525","397.22473"
"92.00000","8.17431","397.58420"
"92.10000","8.18331","398.06491"
"92.20000","8.19206","398.29764"
"92.30000","8.20075","398.65543"
"92.40000","8.20994","399.03043"
"92.50000","8.21887","399.50256"
"92.60000","8.22763","399.73160"
"92.70000","8.23631","400.10983"
"92.80000","8.24544","400.49277"
"92.90000","8.25444","400.92462"
"93.00000","8.26312","401.16916"
"93.10000","8.27188","401.53781"
"93.20000","8.28094","401.93604"
"93.30000","8.29000","402.38303"
"93.40000","8.29869","402.66205"
"93.50000","8.30737","403.01102"
"93.60000","8.31631","403.38791"
"93.70000","8.32556","403.82953"
"93.80000","8.33425","404.06641"
"93.90000","8.34300","404.44901"
"94.00000","8.35194","404.84415"
"94.10000","8.36106","405.26627"
"94.20000","8.36963","405.49585"
"94.30000","8.37850","405.87674"
"94.40000","8.38744","406.28720"
"94.50000","8.39669","406.71439"
"94.60000","8.40525","406.93076"
"94.70000","8.41406","407.29913"
"94.80000","8.42306","407.72723"
"94.90000","8.43213","408.09305"
"95.00000","8.44069","408.36121"
"95.10000","8.44956","408.74060"
"95.20000","8.45856","409.17065"
"95.30000","8.46775","409.51395"
"95.40000","8.47625","409.78003"
"95.50000","8.48525","410.17050"
"95.60000","8.49406","410.63651"
"95.70000","8.50313","410.95749"
"95.80000","8.51175","411.25040"
"95.90000","8.52075","411.61746"
"96.00000","8.52963","412.06265"
"96.10000","8.53869","412.36786"
"96.20000","8.54725","412.68997"
"96.30000","8.55625","413.05334"
"96.40000","8.56512","413.51324"
"96.50000","8.57431","413.83868"
"96.60000","8.58275","414.10486"
"96.70000","8.59188","414.47781"
"96.80000","8.60075","414.95200"
"96.90000","8.60981","415.25848"
"97.00000","8.61825","415.55136"
"97.10000","8.62731","415.91882"
"97.20000","8.63625","416.41153"
"97.30000","8.64531","416.69290"
"97.40000","8.65381","416.99042"
"97.50000","8.66300","417.39044"
"97.60000","8.67181","417.85284"
"97.70000","8.68075","418.12241"
"97.80000","8.68931","418.46194"
"97.90000","8.69844","418.83124"
"98.00000","8.70744","419.35822"
"98.10000","8.71631","419.59232"
"98.20000","8.72481","419.92880"
"98.30000","8.73400","420.32907"
"98.40000","8.74294","420.79120"
"98.50000","8.75181","421.04886"
"98.60000","8.76044","421.40784"
"98.70000","8.76950","421.78748"
"98.80000","8.77856","422.26065"
"98.90000","8.78737","422.50101"
"99.00000","8.79594","422.85602"
"99.10000","8.80500","423.24585"
"99.20000","8.81400","423.72488"
"99.30000","8.82288","424.02078"
"99.40000","8.83150","424.35519"
"99.50000","8.84062","424.74368"
"99.60000","8.84962","425.18271"
"99.70000","8.85831","425.41531"
"99.80000","8.86706","425.81149"
"99.90000","8.87613","426.21350"
"100.00000","8.88519","426.68463"
"100.10000","8.89388","426.89722"
"100.20000","8.90256","427.27621"
"100.30000","8.91163","427.68997"
"100.40000","8.92075","428.12866"
"100.50000","8.92944","428.34805"
"100.60000","8.93813","428.63596"
"100.70000","8.94712","429.04675"
"100.80000","8.95631","429.48389"
"100.90000","8.96488","429.69611"
"101.00000","8.97375","430.12485"
"101.10000","8.98269","430.54263"
"101.20000","8.99175","430.90610"
"101.30000","9.00031","431.15274"
"101.40000","9.00931","431.55487"
"101.50000","9.01825","432.02454"
"101.60000","9.02738","432.41681"
"101.70000","9.03588","432.66684"
"101.80000","9.04481","433.05612"
"101.90000","9.05369","433.43539"
"102.00000","9.06287","433.69852"
"102.10000","9.07150","433.97800"
"102.20000","9.08038","434.32727"
"102.30000","9.08931","434.81177"
"102.40000","9.09844","435.13147"
"102.50000","9.10694","435.39545"
"102.60000","9.11588","435.77881"
"102.70000","9.12481","436.28677"
"102.80000","9.13400","436.59912"
"102.90000","9.14250","436.85721"
"103.00000","9.15150","437.23950"
"103.10000","9.16031","437.72867"
"103.20000","9.16938","437.93445"
"103.30000","9.17800","438.22543"
"103.40000","9.18706","438.58994"
"103.50000","9.19594","439.11328"
"103.60000","9.20500","439.37424"
"103.70000","9.21350","439.67123"
"103.80000","9.22263","440.07886"
"103.90000","9.23150","440.56995"
"104.00000","9.24050","440.82114"
"104.10000","9.24900","441.12372"
"104.20000","9.25806","441.48434"
"104.30000","9.26706","441.97342"
"104.40000","9.27600","442.20514"
"104.50000","9.28463","442.52942"
"104.60000","9.29356","442.76492"
"104.70000","9.30256","443.27612"
"104.80000","9.31150","443.53796"
"104.90000","9.32006","443.81430"
"105.00000","9.32925","444.19305"
"105.10000","9.33813","444.66437"
"105.20000","9.34700","444.86127"
"105.30000","9.35563","445.21829"
"105.40000","9.36475","445.59476"
"105.50000","9.37369","446.09286"
"105.60000","9.38250","446.28027"
"105.70000","9.39113","446.61792"
"105.80000","9.40025","447.01996"
"105.90000","9.40931","447.49860"
"106.00000","9.41806","447.70938"
"106.10000","9.42669","448.07538"
"106.20000","9.43569","448.42874"
"106.30000","9.44488","448.93854"
"106.40000","9.45356","449.08969"
"106.50000","9.46231","449.51694"
"106.60000","9.47131","449.88037"
"106.70000","9.48038","450.31866"
"106.80000","9.48900","450.50711"
"106.90000","9.49781","450.87305"
"107.00000","9.50681","451.30093"
"107.10000","9.51587","451.69156"
"107.20000","9.52450","451.90161"
"107.30000","9.53338","452.26340"
"107.40000","9.54231","452.66589"
"107.50000","9.55150","453.06448"
"107.60000","9.56000","453.27917"
"107.70000","9.56888","453.63400"
"107.80000","9.57788","453.98730"
"107.90000","9.58700","454.30600"
"108.00000","9.59562","454.49622"
"108.10000","9.60444","454.80246"
"108.20000","9.61337","455.24042"
"108.30000","9.62256","455.59875"
"108.40000","9.63106","455.78632"
"108.50000","9.64000","456.14093"
"108.60000","9.64888","456.61230"
"108.70000","9.65806","456.95242"
"108.80000","9.66663","457.18796"
"108.90000","9.67563","457.54257"
"109.00000","9.68444","458.00839"
"109.10000","9.69356","458.32315"
"109.20000","9.70206","458.55710"
"109.30000","9.71113","458.94614"
"109.40000","9.72006","459.39700"
"109.50000","9.72913","459.70584"
"109.60000","9.73756","459.88037"
"109.70000","9.74669","460.27780"
"109.80000","9.75556","460.73779"
"109.90000","9.76463","460.98761"
"110.00000","9.77319","461.26459"
"110.10000","9.78219","461.58621"
"110.20000","9.79106","462.11295"
"110.30000","9.80013","462.36295"
"110.40000","9.80869","462.64609"
"110.50000","9.81769","462.95731"
"110.60000","9.82656","463.44556"
"110.70000","9.83562","463.69489"
"110.80000","9.84419","463.74249"
"110.90000","9.85331","464.12042"
"111.00000","9.86225","464.60919"
"111.10000","9.87113","464.67004"
"111.20000","9.87963","465.01141"
"111.30000","9.88881","465.33212"
"111.40000","9.89775","465.79651"
"111.50000","9.90675","465.99344"
"111.60000","9.91525","466.28571"
"111.70000","9.92431","466.63406"
"111.80000","9.93331","467.10730"
"111.90000","9.94219","467.31320"
"112.00000","9.95081","467.57599"
"112.10000","9.95994","467.93042"
"112.20000","9.96887","468.37579"
"112.30000","9.97763","468.45728"
"112.40000","9.98644","368.64093"
"112.41400","9.98775","186.98186"
