﻿"File Path: C:\Users\MTS 300\Desktop\ACM5\group 1 lab 1\Test Run 14 09-10-2018 17 27 09\DAQ- Crosshead, … - (Timed).csv   
Test: Tensile test with AVX with 4 strain 2019 group 1
Test Run: Test Run 14
Date: 09/10/2018 16:49:20

"
"Crosshead ","Load ","Time ","Strain 1 ","Strain 2 ","Strain 3 ","Strain 4 ","PoissonRatio ","real stress ","real area "
"mm","kN","sec","mm/mm","mm/mm","mm/mm","mm/mm","%","kN/mm²","mm²"
"-0.000279497015753805","-0.00230201625823975","0.119999997317791","0.000267108000116423","2.64171994786011E-05","0.000147080005262978","0.000168052996741608","9.89008173346519","-3.5969953125E-05","63.998311816249"
"0.0011645707900243","0.00325573468208313","0.219999998807907","0.000283175002550706","2.13327002711594E-05","0.000117367002530955","0.000141885000630282","7.53339827060699","5.087194140625E-05","63.9986319583841"
"0.00330738112097606","0.00538979959487915","0.319999992847443","0.000287247996311635","2.63262008957099E-05","0.000140171992825344","0.000142296004923992","9.16497260332108","8.42178359375E-05","63.998311816249"
"0.00619551701674936","0.00849740028381348","0.419999986886978","0.000314153003273532","1.62581000040518E-05","0.000153186992974952","0.000166249999892898","5.17521724104881","0.00013277403125","63.9989593764767"
"0.0093165663201944","0.0170357685089111","0.519999980926514","0.000336174009134993","1.21463999676052E-05","0.000165577002917416","0.000174090993823484","3.61312888562679","0.000266187125","63.9992213109508"
"0.0123444506243686","0.0222081642150879","0.620000004768372","0.00034362799488008","2.20383008127101E-05","0.000159824994625524","0.000169824998010881","6.41341805458069","0.00034701021875","63.9985883026384"
"0.016024494470912","0.0261672077178955","0.720000028610229","0.000351433991454542","2.37695003306726E-05","0.000158387992996722","0.00016721899737604","6.76357448101044","0.00040887234375","63.9984791632742"
"0.0198908692254918","0.0339476585388184","0.819999992847443","0.000391167995985597","1.11002000267035E-05","0.000173359992913902","0.000191646002349444","2.83770654350519","0.0005304380625","63.9992867945693"
"0.0236640789808007","0.0391988716125488","0.920000016689301","0.000424597004894167","1.1631000234047E-05","0.000211532998946495","0.000204437994398177","2.73930337280035","0.0006124895","63.9992576907389"
"0.0276236205536406","0.0469053001403809","1.01999998092651","0.000460003007901832","3.59203986590728E-05","0.000214265004615299","0.000227235999773256","7.80873149633408","0.000732921625","63.9977006358095"
"0.0313036616717","0.0558283576965332","1.12000000476837","0.000490072998218238","1.09453003460658E-05","0.000212258993997239","0.000248614000156522","2.23340187221766","0.000872327625","63.9993013464846"
"0.0352166207449045","0.0622958488464355","1.22000002861023","0.000509597011841834","1.60144008987118E-05","0.000249450997216627","0.00026066298596561","3.14256176352501","0.00097338825","63.9989739283919"
"0.0388500848202966","0.0679573059082031","1.32000005245209","0.000525720999576151","1.82827006938169E-05","0.000262082001427189","0.000268870004219934","3.47764305770397","0.001061852375","63.9988284092397"
"0.0421574623032939","0.0693014144897461","1.41999995708466","0.000532465986907482","2.15361001210113E-06","0.000262946006841958","0.000275967002380639","0.404459610581398","0.001082836875","63.9998615952209"
"0.0456511734228116","0.0791931381225586","1.51999998092651","0.000557925028260797","9.73047008301364E-06","0.000282385997707024","0.000269384006969631","1.74404624849558","0.001237404875","63.9993741060607"
"0.0490517231810372","0.0843394927978516","1.62000000476837","0.000551406003069133","2.72152992693009E-05","0.000287286995444447","0.000285118003375828","4.93561923503876","0.0013178405","63.9982608845457"
"0.0528715136169922","0.0928413619995117","1.72000002861023","0.000584508990868926","9.38460016186582E-06","0.000285096990410239","0.000300810002954677","1.60555262118578","0.001450659875","63.9993959339336"
"0.0564118090551347","0.100665596008301","1.82000005245209","0.000611187017057091","-1.02782996691531E-05","0.000291181000648066","0.000284226989606395","-1.68169476091862","0.00157288375","64.0006546746008"
"0.0603247681283392","0.109114929199219","1.91999995708466","0.000610432005487382","1.44277000799775E-05","0.000297905004117638","0.000321941013680771","2.36352290958166","0.001704945375","63.9990757917985"
"0.0641911392449401","0.111431442260742","2.01999998092651","0.000631985021755099","3.40819997290964E-06","0.000298923987429589","0.000322103005601093","0.539284944534302","0.00174112225","63.9997815596871"
"0.0681506862747483","0.118349708557129","2.11999988555908","0.000682629004586488","1.44646000990178E-05","0.000332080002408475","0.000324591994285584","2.11895480751991","0.001849241","63.9990757917985"
"0.0717841467121616","0.120385223388672","2.22000002861023","0.000706208986230195","1.46653001138475E-05","0.0003503359912429","0.000368907989468426","2.0766232162714","0.00188104675","63.9990612398833"
"0.0746722798794508","0.134226181030273","2.3199999332428","0.000716287991963327","3.01527998090023E-05","0.000352113012922928","0.000360712001565844","4.20959182083607","0.00209734725","63.9980717096478"
"0.0780262416810729","0.135435943603516","2.42000007629395","0.000791651022154838","4.62731986772269E-06","0.000363058992661536","0.00038103898987174","0.584515137597919","0.0021161965","63.9997015241534"
"0.0813336228020489","0.143177551269531","2.51999998092651","0.000785994983743876","7.51000015952741E-07","0.000399571988964453","0.000393291004002094","0.0955476833041757","0.002237151","63.9999489067122"
"0.0849670832394622","0.149710876464844","2.61999988555908","0.000825232011266053","-1.40266001835698E-05","0.000404896010877565","0.000397602008888498","-1.69971603900194","0.00233919975","64.0008947812021"
"0.0881347223185003","0.152771469116211","2.72000002861023","0.000819406006485224","-3.93023992728558E-06","0.000419504998717457","0.000405492988647893","-0.479645002633333","0.00238704475","64.000254496932"
"0.0917681827559136","0.156202926635742","2.8199999332428","0.000820094021037221","-1.26464001368731E-05","0.000418364012148231","0.000416288996348158","-1.54206715524197","0.00244063975","64.0008074697107"
"0.0954016431933269","0.163515243530273","2.92000007629395","0.000858852989040315","2.13259991141967E-05","0.000406628008931875","0.000419273012084886","2.48307920992374","0.00255498025","63.9986319583841"
"0.0993611829471774","0.174346038818359","3.01999998092651","0.000845399976242334","1.29797001591214E-06","0.000415713002439588","0.000410236010793597","0.153533241245896","0.0027241605","63.9999198028818"
"0.103180973383132","0.177693176269531","3.11999988555908","0.0008428770233877","-1.68541992024984E-05","0.000412046007113531","0.00041045100078918","-1.99960377067328","0.002776409","64.0010766801424"
"0.106302024505567","0.181593490600586","3.22000002861023","0.000899499980732799","-1.23425998026505E-05","0.000401430996134877","0.000443839991930872","-1.37216234579682","0.00283736325","64.0007929177955"
"0.109516244265251","0.188804092407227","3.3199999332428","0.000916048011276871","1.7901000319398E-05","0.000460089999251068","0.000454769993666559","1.95415522903204","0.00295011675","63.9988575130701"
"0.112590707431082","0.1912373046875","3.42000007629395","0.00091563502792269","2.54903006862151E-05","0.000451002008048818","0.000456660985946655","2.78389323502779","0.002988159","63.99837002391"
"0.11599124991335","0.205971755981445","3.51999998092651","0.000932983006350696","1.13602000055835E-05","0.000461588002508506","0.000449657993158326","1.21762128546834","0.00321834525","63.9992722426541"
"0.119158888992388","0.206937377929688","3.61999988555908","0.00096343201585114","2.51217006734805E-05","0.000471133011160418","0.00046478200238198","2.6075217872858","0.00323347775","63.9983918517828"
"0.122606012155302","0.207093826293945","3.72000002861023","0.000970944005530328","7.71854956838069E-06","0.000472237996291369","0.000492790015414357","0.79495320096612","0.003235866","63.9995050732978"
"0.125773658510298","0.2208994140625","3.8199999332428","0.00101136998273432","-1.10446999315172E-05","0.000502608017995954","0.000491577025968581","-1.09205339103937","0.00345151525","64.0007056063041"
"0.129640029626898","0.225077941894531","3.92000007629395","0.00105157995130867","3.20422009281174E-06","0.000515398976858705","0.000508682976942509","0.304705300368369","0.003516854","63.9997961116023"
"0.133366644149646","0.229738616943359","4.01999998092651","0.00106391997542232","-1.20767999760574E-05","0.000552399025764316","0.000523556023836136","-1.13512296229601","0.0035896225","64.0007710899226"
"0.136906950501725","0.238200881958008","4.11999988555908","0.00110032001975924","-1.76403991645202E-05","0.000529708981048316","0.000527339987456799","-1.60320624709129","0.00372182325","64.0011276118457"
"0.140121162985452","0.240658340454102","4.21999979019165","0.00110776000656188","-5.29683984495932E-06","0.000562970002647489","0.000536283012479544","-0.478157727047801","0.00376026675","64.0003418084234"
"0.143614874104969","0.251755523681641","4.32000017166138","0.0011140099959448","-2.39926994254347E-05","0.000527711003087461","0.000547351024579257","-2.15372387319803","0.00393358575","64.0015350654721"
"0.146968843182549","0.257970367431641","4.42000007629395","0.00114613003097475","-6.68858001517947E-06","0.00056920200586319","0.000539732980541885","-0.58357953093946","0.00403076","64.0004291199148"
"0.150043313624337","0.25694287109375","4.51999998092651","0.00112675002310425","5.13218992637121E-06","0.000575657992158085","0.000552953977603465","0.455486122518778","0.004014753","63.9996724203229"
"0.153071188833565","0.262843322753906","4.61999988555908","0.0011223399778828","-5.78745016355242E-07","0.000587247021030635","0.000551210017874837","-0.0515659223310649","0.0041069245","64.0000362182036"
"0.156331981997937","0.267717468261719","4.71999979019165","0.00112479005474597","-2.42288006120361E-05","0.000560606014914811","0.000545302988030016","-2.15407311916351","0.004182984","64.0015496173874"
"0.159872273798101","0.277013916015625","4.82000017166138","0.0011398900533095","-2.31285994232167E-05","0.000550700002349913","0.000564297020900995","-2.02902033925056","0.0043282425","64.0014768578112"
"0.163319404236972","0.279616455078125","4.92000007629395","0.00117647997103632","2.82476003121701E-06","0.000577485014218837","0.000576900027226657","0.24010268971324","0.0043690195","63.9998179394752"
"0.166766534675844","0.283250854492188","5.01999998092651","0.00120028003584594","-4.27396980740014E-06","0.000569975993130356","0.000591100018937141","-0.356081081554294","0.0044257755","64.0002763248049"
"0.169841005117632","0.289685394287109","5.11999988555908","0.00122493994422257","-2.29174997912196E-06","0.000595415011048317","0.000613467011135072","-0.187090795952827","0.004526324","64.0001453575678"
"0.173194974195212","0.300917266845703","5.21999979019165","0.00125692004803568","1.80226998054422E-05","0.000621251994743943","0.000641668972093612","1.4338780194521","0.004701917","63.9988429611549"
"0.176548943272792","0.301440856933594","5.32000017166138","0.00128506997134537","2.66321990238794E-06","0.000625291024334729","0.00064168602693826","0.207243184559047","0.004710026","63.9998324913904"
"0.180228977114894","0.307791381835938","5.42000007629395","0.00133491994347423","1.51324002217734E-05","0.000652122020255774","0.000664417981170118","1.13358106464148","0.004809313","63.9990321360528"
"0.183303447556682","0.309872314453125","5.51999998092651","0.00133700994774699","-7.9759201980778E-06","0.000665887026116252","0.0006449039792642","-0.596549035981297","0.0048417165","64.0005091554485"
"0.186657416634262","0.317826416015625","5.61999988555908","0.00133849994745106","-3.5838398616761E-05","0.000670170993544161","0.000645642983727157","-2.67750471830368","0.00496586","64.002291765064"
"0.189638725714758","0.322005462646484","5.71999979019165","0.00138359004631639","-1.06717004655366E-06","0.000682808982674032","0.000657644995953888","-0.0771305058151484","0.00503133","64.0000653220341"
"0.193272178876214","0.330659637451172","5.82000017166138","0.00138248002622277","-1.21149996630265E-05","0.000678548996802419","0.000655915006063879","-0.876323692500591","0.005166494","64.0007783658803"
"0.196719309315085","0.334306579589844","5.92000007629395","0.00139657000545412","-5.42857014806941E-05","0.000685915991198272","0.000655971991363913","-3.88707332313061","0.005223257","64.0034777461551"
"0.200026683160104","0.340892639160156","6.01999998092651","0.00138869998045266","-5.99734994466417E-05","0.000670693989377469","0.000650361005682498","-4.31867949664593","0.005326128","64.0038415440358"
"0.202868235646747","0.342678863525391","6.11999988555908","0.00144357001408935","2.55287995969411E-05","0.000705880986060947","0.000718346971552819","1.76844913512468","0.005354494","63.9983627479523"
"0.206361946766265","0.3524462890625","6.21999979019165","0.00141785002779216","2.92905997412163E-06","0.000705880986060947","0.000695032998919487","0.206584623083472","0.0055069895","63.9998106635176"
"0.209855657885782","0.355514038085938","6.32000017166138","0.0014246900100261","-1.13349997263867E-05","0.000697799026966095","0.000695387017913163","-0.795611646026373","0.005554844","64.000727434177"
"0.213442530366592","0.3618984375","6.42000007629395","0.0014402000233531","1.53506005062809E-06","0.000700159987900406","0.000697924988344312","0.106586585752666","0.005654672","63.9999052509665"
"0.21693624148611","0.370451934814453","6.51999998092651","0.00142909004352987","-2.50216999120312E-06","0.000708226987626404","0.000708240026142448","-0.175088341347873","0.005788297","64.000159909483"
"0.220429952605627","0.373461608886719","6.61999988555908","0.0015063900500536","-3.64176003131433E-06","0.00072063400875777","0.000716207025106996","-0.241754134185612","0.0058353165","64.0002326690592"
"0.223970258957706","0.387390289306641","6.71999979019165","0.00151029997505248","2.59111002378631E-05","0.000734955014195293","0.000738298986107111","1.71562600880861","0.00605313","63.9983409200795"
"0.227277632802725","0.385329956054688","6.82000017166138","0.00154660001862794","1.92028001038125E-05","0.000733360007870942","0.00076954101677984","1.24161383137107","0.006020896","63.9987702015787"
"0.230631601880305","0.3920888671875","6.92000007629395","0.00157357996795326","7.39069992050645E-06","0.000784179021138698","0.000789824989624321","0.4696742631495","0.006126434","63.9995269011706"
"0.233473154366948","0.395567749023438","7.01999998092651","0.00162013003136963","2.20116999116726E-05","0.000791286991443485","0.000810343015473336","1.35863786563277","0.006180882","63.9985883026384"
"0.236687381402589","0.400861724853516","7.11999988555908","0.00162315997295082","-2.91752003249712E-05","0.000802655005827546","0.000781267997808754","-1.79743207991123","0.0062632815","64.0018697595224"
"0.239761837292463","0.409519226074219","7.21999979019165","0.00163519999478012","-9.0622297648224E-06","0.000834078004118055","0.000782468996476382","-0.554197048768401","0.00639868","64.0005819150247"
"0.243208967731334","0.409337554931641","7.32000017166138","0.00168619002215564","5.22922982781893E-06","0.000835867016576231","0.000802510010544211","0.310121034272015","0.0063959325","63.9996651443653"
"0.246469775447622","0.417781646728516","7.42000007629395","0.0016954600578174","-2.16653006646084E-05","0.000846048002131283","0.000818761007394642","-1.27784200012684","0.006527697","64.0013895463198"
"0.250010081799701","0.418377990722656","7.51999998092651","0.00169150996953249","-4.14936985180248E-05","0.000844141002744436","0.00080139801139012","-2.45305672287941","0.006536885","64.0026555629447"
"0.253317441092804","0.423420928955078","7.61999988555908","0.00171092001255602","-9.33018964133225E-06","0.000831565004773438","0.000795335974544287","-0.545331742614508","0.0066158905","64.0005964669399"
"0.25718382676132","0.434097778320312","7.71999979019165","0.00175238004885614","-2.57896999755758E-06","0.000866607995703816","0.000828803982585669","-0.147169560659677","0.0067827605","64.0001671854407"
"0.260584347415715","0.443886077880859","7.82000017166138","0.00166521000210196","-4.53792017651722E-05","0.000845310976728797","0.000816841027699411","-2.72513385862112","0.006935405","64.0029029455036"
"0.263705413090065","0.442131713867188","7.92000007629395","0.00172241998370737","-5.10739982928499E-06","0.000858378014527261","0.000817788008134812","-0.296524656005204","0.0069082725","64.0003272565082"
"0.266360642854124","0.451764587402344","8.02000045776367","0.00173837004695088","-2.69609008682892E-05","0.000849572999868542","0.000846174021717161","-1.55092990025878","0.0070586315","64.0017242403701"
"0.269574840785936","0.452774475097656","8.11999988555908","0.00175463000778109","-4.63750002381857E-05","0.000857469975017011","0.000834389007650316","-2.64300741255283","0.007074273","64.0029684291221"
"0.272789067821577","0.458642608642578","8.22000026702881","0.00171808002050966","1.3037600183452E-05","0.000840289983898401","0.00086217001080513","0.758847082033753","0.007166384","63.9991631032899"
"0.276236212812364","0.462553131103516","8.31999969482422","0.00177693995647132","-1.95723005163018E-05","0.000848200987093151","0.000849846983328462","-1.10146095976233","0.007227251","64.0012513031252"
"0.279264088021591","0.468346984863281","8.42000007629395","0.00174699001945555","-7.12850014679134E-05","0.000804272014647722","0.000827379990369082","-4.08044680953026","0.0073174","64.0045618638396"
"0.28280436526984","0.472701110839844","8.52000045776367","0.00184356002137065","2.99307994282572E-05","0.000905480002984405","0.00087787100346759","1.62353273481131","0.007386176","63.998086261563"
"0.286344671621919","0.479525421142578","8.61999988555908","0.00185502995736897","6.84289989294484E-06","0.00094029598403722","0.00091469899052754","0.36888353060931","0.007492636","63.9995632809587"
"0.290304218651727","0.487615356445313","8.72000026702881","0.00190876005217433","-1.87326004379429E-05","0.000928117020521313","0.000903156003914773","-0.981401558965445","0.007618847","64.0012003714219"
"0.294077413855121","0.493369598388672","8.81999969482422","0.0019085300154984","-3.76759016944561E-05","0.000923971005249769","0.00091499398695305","-1.97407957166433","0.0077086095","64.0024081803858"
"0.297058722935617","0.499010559082031","8.92000007629395","0.00192474003415555","-2.42759997490793E-05","0.00095197802875191","0.000937079021241516","-1.26126129180193","0.0077968505","64.001556893345"
"0.300179788609967","0.504473449707031","9.02000045776367","0.00197879993356764","-2.69476004177704E-05","0.000984415994025767","0.000925583997741342","-1.36181525886059","0.007882185","64.0017242403701"
"0.303254259051755","0.507505249023438","9.11999988555908","0.00196373998187482","-3.60053018084727E-05","0.000975827977526933","0.000933855015318841","-1.83350648730993","0.007929484","64.0023063169792"
"0.306561618344858","0.510154296875","9.22000026702881","0.00199283007532358","-3.27439011016395E-05","0.000974687980487943","0.000963778991717845","-1.64308547973633","0.0079709","64.0020953142084"
"0.309636088786647","0.516510192871094","9.31999969482422","0.00200096005573869","-3.76803000108339E-05","0.000955088005866855","0.000975824019405991","-1.88311114907265","0.0080701675","64.0024081803858"
"0.312990043312311","0.522298706054688","9.42000007629395","0.00201464002020657","-3.20453982567415E-05","0.000946927990298718","0.000987819046713412","-1.59062668681145","0.008160656","64.0020516584627"
"0.31611107988283","0.527295104980469","9.52000045776367","0.0020009099971503","-1.94279000425013E-05","0.000973612011875957","0.00100076000671834","-0.970953237265348","0.008238826","64.0012440271676"
"0.319791142828763","0.536400512695313","9.61999988555908","0.00200692005455494","-3.93588998122141E-05","0.000968063017353415","0.000976555980741978","-1.96115933358669","0.008380928","64.00251731975"
"0.323424610542133","0.540875793457031","9.72000026702881","0.00202445988543332","-2.31199992413167E-05","0.000989129999652505","0.000973598973359913","-1.14203291013837","0.008450989","64.0014768578112"
"0.326964916894212","0.5438876953125","9.81999969482422","0.0020295400172472","-7.84372969064862E-06","0.000985551974736154","0.000972278008703142","-0.386478216387331","0.008498179","64.0005018794909"
"0.32999279210344","0.550062927246094","9.92000007629395","0.00208768993616104","4.53864004157367E-07","0.00101167999673635","0.000992177054286003","0.0217400098335929","0.008594737","63.9999707345851"
"0.333486503222957","0.555091613769531","10.0200004577637","0.00209202989935875","-1.71486008184729E-05","0.00101572996936738","0.00099586695432663","-0.81971101462841","0.008673158","64.0010985080153"
"0.33674729638733","0.561535827636719","10.1199998855591","0.00211352994665504","-2.4318900614162E-05","0.00101471005473286","0.000991643988527358","-1.15062948316336","0.008773784","64.001556893345"
"0.339961494319141","0.567177917480469","10.2200002670288","0.00211745989508927","-4.30733998655342E-05","0.00105562002863735","0.00102217996027321","-2.03420128673315","0.008861773","64.0027574263513"
"0.342803046805784","0.56710888671875","10.3199996948242","0.00215096003375947","-3.38999998348299E-05","0.0010698699625209","0.00103455001953989","-1.57604049891233","0.008860776","64.0021680737846"
"0.34620362566784","0.577003967285156","10.4200000762939","0.00218216003850102","-2.45255996560445E-05","0.00107101001776755","0.00105798000004143","-1.12391393631697","0.009015466","64.0015714452602"
"0.349557580193505","0.578714599609375","10.5200004577637","0.0021927400957793","-1.55013003677595E-05","0.00108482001814991","0.00104328000452369","-0.706937443464994","0.009042275","64.0009893686511"
"0.353237643139437","0.581395751953125","10.6199998855591","0.00220004003494978","-3.16767000185791E-05","0.00109853001777083","0.00104717002250254","-1.43982386216521","0.009084021","64.0020298305899"
"0.356684729922563","0.594443176269531","10.7200002670288","0.00219910009764135","-2.85819005512167E-05","0.0010850599501282","0.00104690995067358","-1.29970898851752","0.009287909","64.0018261037767"
"0.359992118319497","0.594654663085938","10.8199996948242","0.0022322500590235","-4.12681984016672E-05","0.00109429995063692","0.00106643000617623","-1.84872653335333","0.009291096","64.0026410110295"
"0.36329950671643","0.600281372070313","10.9200000762939","0.00223136995919049","-4.82764007756487E-05","0.00109618995338678","0.00106478994712234","-2.16353181749582","0.009378944","64.0030921204016"
"0.366793217835948","0.606389953613281","11.0200004577637","0.00226013991050422","-3.85966995963827E-05","0.00110045995097607","0.00108103000093251","-1.70771274715662","0.009474477","64.0024736640044"
"0.37047325167805","0.612853820800781","11.1199998855591","0.00226503005251288","-4.68327016278636E-05","0.00110194995068014","0.00108726997859776","-2.06764154136181","0.009575393","64.0029975329526"
"0.37364088348113","0.617602722167969","11.2200002670288","0.00228204997256398","-4.09472995670512E-05","0.00108568998984993","0.00107860995922238","-1.79432090371847","0.009649647","64.0026191831566"
"0.377041462343186","0.622872619628906","11.3199996948242","0.00230702990666032","-4.73088985017966E-05","0.00110706000123173","0.00109580997377634","-2.05064080655575","0.009731924","64.003026636783"
"0.380115932784975","0.627914978027344","11.4200000762939","0.00231487001292408","-5.86917994951364E-05","0.00112429005093873","0.00109230005182326","-2.5354253128171","0.009810596","64.0037542325445"
"0.383656210033223","0.633010498046875","11.5200004577637","0.00234388001263142","-3.54125004378147E-05","0.00112787005491555","0.00110859994310886","-1.51084950193763","0.009890439","64.0022699371912"
"0.387056759791449","0.6376376953125","11.6199998855591","0.00237428001128137","-2.76343998848461E-05","0.00113532994873822","0.00112902000546455","-1.16390651091933","0.009962814","64.0017678961158"
"0.390457309549674","0.649253601074219","11.7200002670288","0.00238712993450463","-3.2912601454882E-05","0.00117486005183309","0.00114116002805531","-1.37875191867352","0.010144254","64.0021098661236"
"0.393252295907587","0.649288635253906","11.8199996948242","0.00239177001640201","-3.26219014823437E-05","0.00118948996532708","0.0011498499661684","-1.3639229349792","0.010144804","64.0020880382508"
"0.396652816561982","0.655690124511719","11.9200000762939","0.00240350002422929","-4.9351900088368E-05","0.00118888996075839","0.00115511997137219","-2.05333475023508","0.010244653","64.0031576040201"
"0.400006771087646","0.656854736328125","12.0200004577637","0.00242099002934992","-5.41697008884512E-05","0.00119718001224101","0.00115979998372495","-2.23750192672014","0.010262799","64.0034704701975"
"0.403593672672287","0.66328173828125","12.1199998855591","0.00245047989301384","-3.29171016346663E-05","0.00121780997142196","0.00117248005699366","-1.34329190477729","0.010363436","64.0021098661236"
"0.40690103196539","0.669714477539063","12.2200002670288","0.00246542994864285","-2.87962993752444E-05","0.00122040999121964","0.00118372996803373","-1.16800311952829","0.010463987","64.0018406556919"
"0.410441338317469","0.674339782714844","12.3199996948242","0.00247801002115011","-4.42831005784683E-05","0.00123337004333735","0.00119451002683491","-1.78704280406237","0.010536093","64.0028374618851"
"0.413748697610572","0.681781860351563","12.4200000762939","0.00249846000224352","-5.72794015170075E-05","0.0012315500061959","0.00119924999307841","-2.29258816689253","0.010652231","64.0036669210531"
"0.417149276472628","0.687239135742188","12.5200004577637","0.00251960009336472","-3.88822991226334E-05","0.00123496004380286","0.00121380004566163","-1.54319340363145","0.010737694","64.0024882159196"
"0.420410069637001","0.689342041015625","12.6199998855591","0.00253165001049638","-4.62532007077243E-05","0.00124150002375245","0.00120846997015178","-1.826998218894","0.010770471","64.0029611531645"
"0.423484540078789","0.6954658203125","12.7200002670288","0.00256006000563502","-6.14003001828678E-05","0.00123602000530809","0.00123092997819185","-2.39839293062687","0.010865986","64.0039288555272"
"0.426512415288016","0.696555358886719","12.8199996948242","0.00256136991083622","-4.17851988459006E-05","0.00125388999003917","0.0012188300024718","-1.63136143237352","0.010883223","64.0026773908176"
"0.429726642323658","0.702246398925781","12.9200000762939","0.00257133995182812","-4.08544983656611E-05","0.00125255004968494","0.00122114003170282","-1.58884078264236","0.010972152","64.002611907199"
"0.433080596849322","0.706636413574219","13.0200004577637","0.00259461998939514","-4.20828982896637E-05","0.00126763002481312","0.00124112004414201","-1.62192918360233","0.011040729","64.0026919427328"
"0.436527741840109","0.716372314453125","13.1199998855591","0.00262129004113376","-3.38905992975924E-05","0.00127578002866358","0.00124532997142524","-1.29289776086807","0.011192938","64.0021680737846"
"0.440068019088358","0.722149291992187","13.2200002670288","0.00262791989371181","-3.70868983736727E-05","0.0012780399993062","0.00124915002379566","-1.41126438975334","0.011283164","64.0023718005978"
"0.443515164079145","0.727899108886719","13.3199996948242","0.00263769994489849","-3.28358983097132E-05","0.00128633005078882","0.00125545996706933","-1.24486861750484","0.01137305","64.002102590166"
"0.447428115876392","0.727694702148438","13.4200000762939","0.00268615991808474","-4.21803997596726E-05","0.00131406995933503","0.00126732001081109","-1.57028622925282","0.01136975","64.0026992186904"
"0.45096842222847","0.732764953613281","13.5200004577637","0.00268063996918499","-5.60312000743579E-05","0.00132291996851563","0.00126007001381367","-2.09021717309952","0.011448811","64.0035868855193"
"0.454275781521574","0.741301025390625","13.6199998855591","0.00269518001005054","-5.1377199270064E-05","0.00132438004948199","0.00128663005307317","-1.90626233816147","0.011582233","64.0032885712571"
"0.456930982181802","0.744837951660156","13.7200002670288","0.00268340995535254","-3.97881012759171E-05","0.00133660004939884","0.00128551002126187","-1.48274395614862","0.01163763","64.0025464235805"
"0.460098613984883","0.745956665039063","13.8199996948242","0.00271983002312481","-3.20051985909231E-05","0.00132688996382058","0.00129907997325063","-1.17673529312015","0.0116552","64.0020516584627"
"0.463312870124355","0.760007568359375","13.9200000762939","0.00274236989207566","-3.5568398743635E-05","0.00135744002182037","0.00130776001606137","-1.29699492827058","0.011874696","64.0022772131488"
"0.466759986011311","0.760339233398438","14.0200004577637","0.00275332992896438","-5.50002005184069E-05","0.00134994997642934","0.00131055002566427","-1.99758838862181","0.011879647","64.0035214019008"
"0.469694699859247","0.763358520507813","14.1199998855591","0.00274910009466112","-4.9986698286375E-05","0.00135080004110932","0.0013212600024417","-1.81829333305359","0.011926881","64.0032012597658"
"0.473188410978764","0.766501403808594","14.2200002670288","0.0027764099650085","-5.59248983336147E-05","0.00136048998683691","0.00131995999254286","-2.01428830623627","0.011975915","64.0035796095617"
"0.47658896073699","0.768206726074219","14.3199996948242","0.00277973990887403","-4.36726986663416E-05","0.0013648399617523","0.00133966002613306","-1.5711072832346","0.012002706","64.0027938061394"
"0.480455346405506","0.776626037597656","14.4200000762939","0.00279958010651171","-6.48615023237653E-05","0.00137752003502101","0.0013451500562951","-2.31682974845171","0.012133995","64.0041544102132"
"0.484135380247608","0.778260620117188","14.5200004577637","0.00283852010034025","-4.42044984083623E-05","0.00137606996577233","0.00136572995688766","-1.55730806291103","0.012159785","64.0028301859275"
"0.487256445921957","0.784128356933594","14.6199998855591","0.00285232998430729","-5.58147003175691E-05","0.00139475998003036","0.00136473996099085","-1.9568108022213","0.012251322","64.0035723336041"
"0.490237725898623","0.792152282714844","14.7200002670288","0.00287010008469224","-4.87717006762978E-05","0.00139512005262077","0.00137159996666014","-1.69930309057236","0.012376776","64.003121224232"
"0.493312196340412","0.796902954101563","14.8199996948242","0.0029141700360924","-3.96657997043803E-05","0.00139641994610429","0.00137791002634913","-1.36113539338112","0.012451115","64.0025391476229"
"0.496526423376054","0.800993896484375","14.9200000762939","0.0029067499563098","-6.02649015490897E-05","0.00141129002440721","0.00139320001471788","-2.0732743665576","0.012514775","64.0038560959511"
"0.499740650411695","0.806019165039063","15.0200004577637","0.00291253998875618","-5.08400989929214E-05","0.00142466998659074","0.00140130997169763","-1.74555890262127","0.012593409","64.0032521914691"
"0.502954819239676","0.809366149902344","15.1199998855591","0.00293918000534177","-6.25222019152716E-05","0.00143188994843513","0.00139335996937007","-2.12719868868589","0.012645555","64.0040016151033"
"0.506215612404048","0.812438232421875","15.2200002670288","0.00295365997590125","-6.29462010692805E-05","0.00144516001455486","0.00140450999606401","-2.1311255171895","0.012693548","64.0040307189338"
"0.509802543092519","0.823211059570312","15.3199996948242","0.00296669011004269","-4.6840199502185E-05","0.00143923994619399","0.00141211994923651","-1.57887078821659","0.01286207","64.0029975329526"
"0.513575738295913","0.824650573730469","15.4200000762939","0.00295495009049773","-4.67224999738391E-05","0.0014621700393036","0.00140900001861155","-1.58116035163403","0.012884563","64.002990256995"
"0.517255801241845","0.828442138671875","15.5200004577637","0.00299151008948684","-5.46820010640658E-05","0.00146407005377114","0.00143634004052728","-1.82790625840425","0.012943701","64.003499574028"
"0.520330271683633","0.833143005371094","15.6199998855591","0.00298778992146254","-4.57370006188285E-05","0.00149257003795356","0.00141729996539652","-1.53079703450203","0.013017264","64.0029247733764"
"0.523870519828051","0.837293090820313","15.7200002670288","0.00300526991486549","-5.85724992561154E-05","0.00149547995533794","0.00145056005567312","-1.94899290800095","0.013081938","64.0037469565868"
"0.527177937328815","0.847462097167969","15.8199996948242","0.00301057007163763","-6.340639811242E-05","0.00149346003308892","0.00143124000169337","-2.1061260253191","0.013240756","64.0040598227642"
"0.530485296621919","0.84714892578125","15.9200000762939","0.00303342007100582","-6.01877982262522E-05","0.0014895600033924","0.00143762002699077","-1.98415648192167","0.013235905","64.0038488199934"
"0.533326878212392","0.851676452636719","16.0200004577637","0.00305924005806446","-6.76154013490304E-05","0.00151877000462264","0.00146525003947318","-2.21020262688398","0.013306545","64.004329033196"
"0.536680803634226","0.854593566894531","16.1200008392334","0.00305639998987317","-6.57947966828942E-05","0.00151785998605192","0.00145525997504592","-2.15268936008215","0.013352146","64.0042126178741"
"0.539941596798599","0.86164697265625","16.2199993133545","0.00307261990383267","-5.01979011460207E-05","0.0015086600324139","0.00146427995059639","-1.63371656090021","0.013462558","64.003215811681"
"0.543621659744531","0.868664123535156","16.3199996948242","0.00308514991775155","-6.7225999373477E-05","0.00152082997374237","0.0014733299612999","-2.1790187805891","0.013571965","64.0042999293655"
"0.547022209502757","0.866589721679688","16.4200000762939","0.00313475006259978","-7.74802974774502E-05","0.00153181003406644","0.00148324994370341","-2.4716580286622","0.013539415","64.0049620415084"
"0.55032956879586","0.869804992675781","16.5200004577637","0.00315685989335179","-6.91074965288863E-05","0.00154080998618156","0.00149715004954487","-2.1891213953495","0.013589764","64.004423620645"
"0.55349717149511","0.880562744140625","16.6200008392334","0.00318145006895065","-6.51895970804617E-05","0.00154055003076792","0.0015054700197652","-2.04905308783054","0.013757896","64.0041689621285"
"0.556944345589727","0.878791809082031","16.7199993133545","0.00317882001399994","-4.68573998659849E-05","0.0015652000438422","0.0015149200335145","-1.47405015304685","0.013730479","64.0029975329526"
"0.560484651941806","0.889620910644531","16.8199996948242","0.00321683008223772","-4.3376101530157E-05","0.00157461001072079","0.00151179998647422","-1.34841129183769","0.013899724","64.0027792542242"
"0.563745445106179","0.891156860351563","16.9200000762939","0.00320804002694786","-4.80068993056193E-05","0.00157331000082195","0.00151207996532321","-1.49645581841469","0.013923658","64.0030702925287"
"0.56695967214182","0.893800842285156","17.0200004577637","0.00322939991019666","-7.15778005542234E-05","0.00158217002172023","0.00151743995957077","-2.21644267439842","0.013964639","64.0045836917125"
"0.570034142583609","0.894958801269531","17.1200008392334","0.00321282004006207","-6.1360296967905E-05","0.00157645996659994","0.00153109000530094","-1.90985798835754","0.013982873","64.0039288555272"
"0.573388126213104","0.900907775878906","17.2199993133545","0.00323489005677402","-7.75826993049122E-05","0.00158069003373384","0.00154540000949055","-2.39831022918224","0.014075592","64.0049620415084"
"0.576881808228791","0.907751708984375","17.3199996948242","0.00323618995025754","-5.61884007765912E-05","0.00158470997121185","0.00153469003271312","-1.73625163733959","0.014182824","64.0035941614769"
"0.580375490244478","0.911188903808594","17.4200000762939","0.00322717009112239","-4.83695002913009E-05","0.00160465994849801","0.00153720995876938","-1.49882091209292","0.014236638","64.0030921204016"
"0.583217071834952","0.914386596679687","17.5200004577637","0.00324876001104712","-5.88512993999757E-05","0.00161515001673251","0.00157842005137354","-1.81150045245886","0.01428645","64.0037687844597"
"0.586524431128055","0.923331848144531","17.6200008392334","0.00325811002403498","-4.40617986896541E-05","0.00162277999334037","0.00156552996486425","-1.35237304493785","0.014426424","64.0028229099698"
"0.589971605222672","0.921490966796875","17.7199993133545","0.00326390005648136","-5.64205984119326E-05","0.00163565005641431","0.00157249998301268","-1.72862522304058","0.014397484","64.0036087133922"
"0.593651609960943","0.926100769042969","17.8199996948242","0.00331937009468675","-7.62807976570912E-05","0.00162901997100562","0.00157435005530715","-2.29805056005716","0.014469221","64.0048820059747"
"0.596958969254047","0.925574890136719","17.9200000762939","0.00331179006025195","-7.74739964981563E-05","0.00161707994993776","0.00157618999946862","-2.33933907002211","0.014460987","64.0049547655508"
"0.600639032199979","0.938908264160156","18.0200004577637","0.00333002000115812","-7.37145019229501E-05","0.00163527997210622","0.00157940003555268","-2.2136352956295","0.01466936","64.0047146589495"
"0.603899825364351","0.934839050292969","18.1200008392334","0.00335153006017208","-7.78921967139468E-05","0.00162511004600674","0.00158534001093358","-2.32407879084349","0.014605722","64.0049838693812"
"0.60744013171643","0.945983642578125","18.2199993133545","0.00334655004553497","-6.21013969066553E-05","0.00163968000560999","0.00160577998030931","-1.85568425804377","0.014780077","64.0039725112729"
"0.610654358752072","0.947469482421875","18.3199996948242","0.00339155993424356","-5.61595988983754E-05","0.00164978997781873","0.00161329004913569","-1.65586341172457","0.014803379","64.0035941614769"
"0.613821961451322","0.953631958007813","18.4200000762939","0.00340493000112474","-7.16741997166537E-05","0.00168366997968405","0.00162212003488094","-2.10501234978437","0.014899431","64.0045836917125"
"0.616803299635649","0.952947448730469","18.5200004577637","0.00340509996749461","-6.45015970803797E-05","0.00168819003738463","0.0016215699724853","-1.89426448196173","0.014888844","64.0041253063828"
"0.62001752667129","0.957717407226563","18.6200008392334","0.00343500007875264","-6.26651017228141E-05","0.00168533995747566","0.00162182003259659","-1.82431153953075","0.014963397","64.0040088910609"
"0.623231695499271","0.963726379394531","18.7199993133545","0.00345236994326115","-6.14308009971865E-05","0.00169137003831565","0.00164264999330044","-1.77938062697649","0.0150573","64.0039288555272"
"0.62677200185135","0.966548034667969","18.8199996948242","0.00346270995214581","-5.60236985620577E-05","0.00169403001200408","0.00164667994249612","-1.61791481077671","0.015101467","64.0035868855193"
"0.630172551609576","0.964866394042969","18.9200000762939","0.00347480992786586","-5.2723400585819E-05","0.0017096099909395","0.00164983002468944","-1.51730310171843","0.015075243","64.0033758827485"
"0.633619667496532","0.971171203613281","19.0200004577637","0.00347691006027162","-3.74935989384539E-05","0.00170998997054994","0.00166174001060426","-1.07835978269577","0.015173981","64.0024009044282"
"0.637346354778856","0.975742797851562","19.1200008392334","0.00349755003117025","-4.46201011072844E-05","0.0017262400360778","0.00165694998577237","-1.27575304359198","0.015245301","64.0028592897579"
"0.640933227259666","0.985776000976562","19.2199993133545","0.00349227990955114","-6.85053018969484E-05","0.00170516001526266","0.00165830994956195","-1.96162108331919","0.015401695","64.0043872408569"
"0.64433371881023","0.984855651855469","19.3199996948242","0.00349036999978125","-5.77827995584812E-05","0.00171338999643922","0.00165115995332599","-1.65549218654633","0.01538748","64.0036960248835"
"0.646942353341728","0.986192077636719","19.4200000762939","0.00349463010206819","-5.84307017561514E-05","0.00171700003556907","0.00166244001593441","-1.67201384902","0.015408351","64.0037396806292"
"0.649970315862447","0.989718933105469","19.5200004577637","0.00351644004695117","-6.09290000284091E-05","0.00171984999906272","0.00167079002130777","-1.73268988728523","0.015463416","64.0038997516967"
"0.653137918561697","0.99088232421875","19.6200008392334","0.00351680000312626","-7.01351964380592E-05","0.00173761998303235","0.0016785099869594","-1.99429020285606","0.015481451","64.0044891042635"
"0.656724732834846","0.995450256347656","19.7199993133545","0.0035237199626863","-6.30303984507918E-05","0.00172643002588302","0.00169159995857626","-1.78874600678682","0.01555293","64.0040307189338"
"0.659706071019173","1.00185302734375","19.8199996948242","0.00352982990443707","-5.86128007853404E-05","0.00174699001945555","0.00168292003218085","-1.66049916297197","0.015653036","64.0037542325445"
"0.663106620777398","1.00610754394531","19.9200000762939","0.0035471199080348","-6.13505981164053E-05","0.00175657996442169","0.00169584003742784","-1.72958914190531","0.015719466","64.0039288555272"
"0.666553736664355","1.00675250244141","20.0200004577637","0.00354851991869509","-6.34347015875392E-05","0.0017536700470373","0.0017048999434337","-1.78763829171658","0.01572951","64.0040598227642"
"0.670606445055455","1.01215686035156","20.1200008392334","0.00358187989331782","-6.82933969073929E-05","0.00176995003130287","0.00169941002968699","-1.90663561224937","0.015813871","64.0043726889417"
"0.674333074130118","1.01562731933594","20.2199993133545","0.00359511002898216","-6.53961978969164E-05","0.00178302999120206","0.00172340997960418","-1.81903187185526","0.015868139","64.0041835140437"
"0.677687057759613","1.01785638427734","20.3199996948242","0.00360251008532941","-7.23781995475292E-05","0.00178474001586437","0.00172307004686445","-2.00910475105047","0.015902855","64.0046346234158"
"0.680668337736279","1.01968737792969","20.4200000762939","0.0036318099591881","-6.92406974849291E-05","0.00179603998549283","0.0017283899942413","-1.90650671720505","0.015931512","64.0044308966026"
"0.68383599864319","1.02619409179688","20.5200004577637","0.00366133009083569","-5.10565987497102E-05","0.00181429996155202","0.00172846997156739","-1.3944823294878","0.016033464","64.0032667433843"
"0.686957035213709","1.02145458984375","20.6200008392334","0.00366817996837199","-5.91823009017389E-05","0.00181364000309259","0.0017412300221622","-1.61339677870274","0.015959283","64.0037906123325"
"0.690217828378081","1.03462451171875","20.7199993133545","0.00367824989371002","-7.85961019573733E-05","0.00179736001882702","0.00173930998425931","-2.13677976280451","0.016164738","64.0050275251269"
"0.69329229881987","1.03308959960938","20.8199996948242","0.00370707991532981","-6.72762980684638E-05","0.00184504000935704","0.00177125004120171","-1.81480571627617","0.016140939","64.0043072053231"
"0.696599658112973","1.03305200195313","20.9200000762939","0.00372134009376168","-4.25500984420069E-05","0.00183890003245324","0.0017676999559626","-1.14340800791979","0.016140751","64.0027210465632"
"0.70004683220759","1.0338271484375","21.0200004577637","0.00370866991579533","-5.92651012993883E-05","0.00183224002830684","0.00177371001336724","-1.59801486879587","0.016152592","64.0037906123325"
"0.703819969203323","1.0391728515625","21.1200008392334","0.00372259994037449","-5.89312003285158E-05","0.00184484000783414","0.00177278998307884","-1.58306565135717","0.016236119","64.0037687844597"
"0.707453466020525","1.04264990234375","21.2199993133545","0.00374759989790618","-5.83330984227359E-05","0.00183620001189411","0.00178553001023829","-1.55654549598694","0.016290454","64.0037324046716"
"0.710527936462313","1.0410224609375","21.3199996948242","0.00374599010683596","-4.60800984001253E-05","0.00184200995136052","0.00177947001066059","-1.2301180511713","0.016265226","64.0029466012493"
"0.714021676685661","1.04801220703125","21.4200000762939","0.0037219999358058","-6.10631032031961E-05","0.00185296998824924","0.00178305001463741","-1.64059922099113","0.016374191","64.0039070276544"
"0.717235845513642","1.04528894042969","21.5200004577637","0.00376161001622677","-5.65629015909508E-05","0.00183446996379644","0.00180046004243195","-1.50368856266141","0.016331716","64.0036232653074"
"0.720496638678014","1.05546960449219","21.6200008392334","0.00375773990526795","-4.57181995443534E-05","0.00185170001350343","0.00178506004158407","-1.21664088219404","0.016490959","64.0029247733764"
"0.723291654139757","1.05479577636719","21.7199993133545","0.00376675999723375","-5.29341996298172E-05","0.00184661999810487","0.00178855995181948","-1.40529796481133","0.016480312","64.0033904346637"
"0.72655244730413","1.0617001953125","21.8199996948242","0.00374489999376237","-5.22537993674632E-05","0.00184615002945066","0.00177011999767274","-1.39533234760165","0.016588199","64.0033467789181"
"0.729813240468502","1.06156372070313","21.9200000762939","0.00376056996174157","-4.53120010206476E-05","0.00185374997090548","0.00179420004133135","-1.20492372661829","0.016586182","64.0029029455036"
"0.733539869543165","1.05751147460938","22.0200004577637","0.00377225992269814","-4.90913989779074E-05","0.00186656997539103","0.00180017994716764","-1.30137903615832","0.016522806","64.0031430521049"
"0.736847228836268","1.0671123046875","22.1200008392334","0.00376700004562736","-4.3594598537311E-05","0.0018632699502632","0.00178251997567713","-1.15727633237839","0.016672903","64.0027865301818"
"0.740340969059616","1.06787622070312","22.2199993133545","0.0038421000353992","-5.69217991142068E-05","0.00186948000919074","0.00182014994788915","-1.48152830079198","0.016684616","64.0036450931802"
"0.743462005630136","1.07265344238281","22.3199996948242","0.00384372007101774","-5.49399010196794E-05","0.00190642999950796","0.0018155500292778","-1.42934191972017","0.016759289","64.0035141259432"
"0.747048936318606","1.07582165527344","22.4200000762939","0.00385350990109146","-5.71884011151269E-05","0.00191441003698856","0.00182918994687498","-1.48406000807881","0.016808752","64.0036596450955"
"0.750496052205563","1.080267578125","22.5200004577637","0.003819519886747","-6.34007010376081E-05","0.0018885099561885","0.0018156300066039","-1.659912802279","0.01687811","64.0040598227642"
"0.753943168092519","1.08440148925781","22.6200008392334","0.00380606995895505","-5.78299986955244E-05","0.00187336001545191","0.00181763002183288","-1.51941506192088","0.016942794","64.0037033008412"
"0.757157395128161","1.08191882324219","22.7199993133545","0.00382159999571741","-7.09918967913836E-05","0.00190676003694534","0.0018250800203532","-1.85764860361815","0.016903782","64.0045400359668"
"0.760418188292533","1.08824426269531","22.8199996948242","0.00382705009542406","-5.07512013427913E-05","0.00188320002052933","0.00184096000157297","-1.32611803710461","0.017002954","64.0032449155115"
"0.763678981456906","1.09000158691406","22.9200000762939","0.00381935993209481","-5.67569986742456E-05","0.0019095599418506","0.00184408994391561","-1.48603431880474","0.017030308","64.003630541265"
"0.767172721680254","1.09487121582031","23.0200004577637","0.00386061007156968","-5.91522984905168E-05","0.00190507003571838","0.00184270995669067","-1.532200910151","0.01710635","64.0037833363749"
"0.77061983756721","1.09956982421875","23.1200008392334","0.00385813997127116","-5.54436992388219E-05","0.00189863995183259","0.00185723998583853","-1.43705774098635","0.017179826","64.0035505057313"
"0.773647683672607","1.09766101074219","23.2199993133545","0.00388152990490198","-6.28331981715746E-05","0.00191454996820539","0.00183027004823089","-1.61877404898405","0.017149876","64.0040234429762"
"0.776768720243126","1.10371630859375","23.3199996948242","0.00392242008820176","-6.76493000355549E-05","0.00193904002662748","0.00186452001798898","-1.72468274831772","0.0172444","64.004329033196"
"0.780122703872621","1.10680969238281","23.4200000762939","0.00393476011231542","-5.7837398344418E-05","0.00194234994705766","0.00188171002082527","-1.46990921348333","0.017292902","64.0037033008412"
"0.783709576353431","1.10526342773437","23.5200004577637","0.00393082015216351","-5.88414986850694E-05","0.00196046009659767","0.00187677994836122","-1.49692688137293","0.017268724","64.0037687844597"
"0.787016935646534","1.11080212402344","23.6200008392334","0.00395340984687209","-6.2722698203288E-05","0.00195450009778142","0.00188243004959077","-1.58654674887657","0.017355194","64.0040161670186"
"0.790650432463735","1.11147338867188","23.7199993133545","0.00394853996112943","-5.02215007145423E-05","0.00196707993745804","0.00189569999929518","-1.27190053462982","0.0173659","64.003215811681"
"0.793818035162985","1.1169326171875","23.8199996948242","0.00396766979247332","-5.46562987437937E-05","0.00196523009799421","0.00190380995627493","-1.37754147872329","0.017451118","64.003499574028"
"0.797311775386333","1.11966577148438","23.9200000762939","0.00399600015953183","-4.43179014837369E-05","0.00197644997388124","0.00190356001257896","-1.10905654728413","0.017494002","64.0028374618851"
"0.800525944214314","1.12009814453125","24.0200004577637","0.00400146003812552","-6.22961015324108E-05","0.00196942989714444","0.00190383999142796","-1.55683429911733","0.017500444","64.0039870631881"
"0.803786737378687","1.12564172363281","24.1200008392334","0.00401854002848268","-6.61380981910042E-05","0.00197433005087078","0.00191751995589584","-1.64582412689924","0.017586988","64.004234445747"
"0.80662831896916","1.12775207519531","24.2199993133545","0.00401430996134877","-4.89671983814333E-05","0.00198087003082037","0.0019012299599126","-1.21981613337994","0.017620264","64.0031357761472"
"0.809889112133533","1.12828552246094","24.3199996948242","0.00401315977796912","-5.82633983867709E-05","0.0019890998955816","0.00192419998347759","-1.45180858671665","0.017628434","64.0037324046716"
"0.812963582575321","1.12805895996094","24.4200000762939","0.0040290099568665","-5.68731011298951E-05","0.00197756988927722","0.00191293994430453","-1.41158998012543","0.017624918","64.0036378172226"
"0.816550513263792","1.13451879882813","24.5200004577637","0.00403267005458474","-6.45320978946984E-05","0.0019846900831908","0.00189724995288998","-1.60023253411055","0.017725712","64.0041325823404"
"0.819811306428164","1.13636987304688","24.6200008392334","0.00403174990788102","-6.31773000350222E-05","0.0019846900831908","0.00191782996989787","-1.56699456274509","0.017754658","64.004045270849"
"0.823398178908974","1.1380849609375","24.7199993133545","0.00403679022565484","-7.11566026438959E-05","0.00198487006127834","0.00192008004523814","-1.76270250231028","0.017781312","64.004554587882"
"0.826891860924661","1.14129187011719","24.8199996948242","0.00404069991782308","-5.85166999371722E-05","0.00196886993944645","0.00190486002247781","-1.44818220287561","0.017831642","64.0037469565868"
"0.830711680464447","1.14189172363281","24.9200000762939","0.00402784021571279","-7.69878970459104E-05","0.00197758991271257","0.00190502998884767","-1.91139411181211","0.017840684","64.0049256617203"
"0.834205362480134","1.14758752441406","25.0200004577637","0.00403507985174656","-5.59254986001179E-05","0.00198297994211316","0.00191286997869611","-1.38598242774606","0.017930052","64.0035796095617"
"0.837046944070607","1.15241259765625","25.1200008392334","0.00404484011232853","-5.61435990675818E-05","0.00200200011022389","0.00192394002806395","-1.38803021982312","0.018005436","64.0035941614769"
"0.839935091789812","1.15210656738281","25.2199993133545","0.00405135983601213","-7.83896030043252E-05","0.00198834994807839","0.00189910002518445","-1.93489585071802","0.018000254","64.0050202491693"
"0.843195826746523","1.15440185546875","25.3199996948242","0.00406093988567591","-5.37954001629259E-05","0.00200213002972305","0.00193005998153239","-1.32470317184925","0.018036558","64.003441366367"
"0.84664294263348","1.15460046386719","25.4200000762939","0.00406904984265566","-4.11606015404686E-05","0.00201118993572891","0.00194454996380955","-1.01155303418636","0.01803989","64.0026337350719"
"0.849810603540391","1.15846594238281","25.5200004577637","0.00408165995031595","-5.53987010789569E-05","0.00201853993348777","0.00195148994680494","-1.35725904256105","0.018100028","64.0035432297736"
"0.853071396704763","1.15961145019531","25.6200008392334","0.00408827979117632","-6.87229985487647E-05","0.00202140002511442","0.00195286003872752","-1.68097577989101","0.018117684","64.0044017927721"
"0.856518570799381","1.16340832519531","25.7199993133545","0.00408940995112062","-8.10388009995222E-05","0.00202735001221299","0.00194869004189968","-1.98167469352484","0.018176782","64.0051875961944"
"0.860338332131505","1.16636071777344","25.8199996948242","0.00407733023166656","-6.54246978228912E-05","0.0020117899402976","0.00196307990700006","-1.60459671169519","0.018223194","64.0041907900013"
"0.864018395077437","1.16680065917969","25.9200000762939","0.00409888988360763","-5.01292997796554E-05","0.00202755001373589","0.00196182006038725","-1.22299697250128","0.018230346","64.0032085357234"
"0.867558643221855","1.17043542480469","26.0200004577637","0.0041404701769352","-6.88660002197139E-05","0.0020261500030756","0.00196910998784006","-1.66324116289616","0.018286794","64.0044090687297"
"0.870400224812329","1.16897277832031","26.1200008392334","0.00413792999461293","-5.22576992807444E-05","0.0020379601046443","0.00194877001922578","-1.26289473846555","0.018264246","64.0033467789181"
"0.87361445184797","1.17549304199219","26.2199993133545","0.004152060020715","-6.3473496993538E-05","0.00203820993192494","0.00198292010463774","-1.52872307226062","0.018365914","64.0040598227642"
"0.876642356161028","1.17191516113281","26.3199996948242","0.00413571996614337","-8.58818966662511E-05","0.00204956997185946","0.00197052001021802","-2.07658875733614","0.018309602","64.0054931864142"
"0.880042847711593","1.175671875","26.4200000762939","0.00417053978890181","-5.5839198466856E-05","0.00205999007448554","0.00198272010311484","-1.33889615535736","0.018368848","64.0035723336041"
"0.883070752024651","1.178939453125","26.5200004577637","0.00415877997875214","-6.92523972247727E-05","0.00206126994453371","0.00198893994092941","-1.66520942002535","0.018419654","64.0044308966026"
"0.886517867911607","1.17505029296875","26.6200008392334","0.00417021010071039","-5.59293002879713E-05","0.00207171007059515","0.0019903399515897","-1.3411627151072","0.018359134","64.0035796095617"
"0.889732094947249","1.17835083007813","26.7199993133545","0.00419053016230464","-5.98238002567086E-05","0.00205879006534815","0.00199723010882735","-1.42759503796697","0.01841063","64.0038269921206"
"0.893598480615765","1.18095776367188","26.8199996948242","0.00419679004698992","-7.84513031248935E-05","0.0020732800476253","0.00200975011102855","-1.86931677162647","0.018451018","64.0050202491693"
"0.897464866284281","0.0719472427368164","26.9200000762939","0.00420369999483228","-6.22781008132733E-05","0.0020797299221158","0.00199795002117753","-1.48150678724051","0.001124105625","64.0039870631881"
"0.898443104233593","0.0757408981323242","26.9599990844727","0.00420369999483228","-6.22781008132733E-05","0.00209465995430946","0.00199795002117753","-1.48150678724051","0.001183377875","64.0039870631881"
