﻿"File Path: C:\Users\MTS 300\Desktop\ACM5\group 1 lab 1\Test Run 12 09-10-2018 17 27 00\DAQ- Crosshead, … - (Timed).csv   
Test: Tensile test with AVX with 4 strain 2019 group 1
Test Run: Test Run 12
Date: 09/10/2018 16:45:34

"
"Crosshead ","Load ","Time ","Strain 1 ","Strain 2 ","Strain 3 ","Strain 4 ","PoissonRatio ","real stress ","real area "
"mm","kN","sec","mm/mm","mm/mm","mm/mm","mm/mm","%","kN/mm²","mm²"
"0","-0.00315533995628357","0.119999997317791","-9.77540985331871E-05","-8.54913014336489E-05","-0.000109084001451265","-3.22423984471243E-05","87.4554634094238","-4.929797265625E-05","64.0054713585414"
"0.00121115374440706","-0.00151040506362915","0.219999998807907","-0.000109735003206879","-8.65106994751841E-05","-0.000124528000014834","-3.2773499697214E-05","78.8360118865967","-2.3598037109375E-05","64.0055368421599"
"0.0030744670311833","0.00433323526382446","0.319999992847443","-9.9643599241972E-05","-0.000100502002169378","-0.000118784999358468","-2.60008000623202E-05","100.861465930939","6.77E-05","64.0064317849465"
"0.00558993997401558","0.0031803822517395","0.419999986886978","-0.00012450700160116","-8.67237977217883E-05","-0.000118930998723954","-2.72090001089964E-05","69.6537554264069","4.96891640625E-05","64.0055513940752"
"0.00894390450412175","0.00905970478057861","0.519999980926514","-0.000104707003629301","-8.96225974429399E-05","-0.000104573999124113","-2.75706006505061E-05","85.5937063694","0.000141545203125","64.0057332930155"
"0.0122512847156031","0.0124775228500366","0.620000004768372","-9.17923025554046E-05","-9.44944986258633E-05","-0.000102234000223689","-1.19194000944844E-05","102.943825721741","0.000194942875","64.0060461591929"
"0.0161642437888077","0.0234693489074707","0.720000028610229","-0.000101127996458672","-7.93953004176728E-05","-9.72428970271721E-05","-1.80088009074098E-05","78.5097122192383","0.00036667946875","64.0050784568302"
"0.0200772010430228","0.0274870471954346","0.819999992847443","-9.53366034082137E-05","-6.98076983098872E-05","-7.87887984188274E-05","-7.74557975091739E-06","73.2223510742188","0.000429455125","64.0044672763906"
"0.0234777471632697","0.0299950180053711","0.920000016689301","-7.38676972105168E-05","-6.30704016657546E-05","-6.61484009469859E-05","-9.99148960545426E-06","85.3829205036163","0.00046864259375","64.0040379948914"
"0.0271577901003184","0.0360889587402344","1.01999998092651","-5.38884014531504E-05","-6.16147008258849E-05","-6.42028026049957E-05","6.87195006321417E-06","114.337599277496","0.00056385525","64.0039434074424"
"0.0309775859932415","0.0502716674804688","1.12000000476837","-3.11190015054308E-05","-6.75228002364747E-05","-4.0876300772652E-05","1.9485500160954E-05","216.982555389404","0.00078544175","64.0043217572384"
"0.0349837064277381","0.0523765258789063","1.22000002861023","-2.08802994166035E-05","-5.63729990972206E-05","-1.76276007550769E-05","3.68561995855998E-05","269.981741905212","0.0008183370625","64.0036087133922"
"0.0387569198210258","0.0555446472167969","1.32000005245209","3.9160900087154E-06","-5.77124010305852E-05","-1.76276007550769E-05","3.35141012328677E-05","-1473.7250328064","0.000867835","64.0036960248835"
"0.0425767066190019","0.0591323547363281","1.41999995708466","2.30453006224707E-05","-6.29827991360798E-05","-8.35316041047918E-06","5.06737014802638E-05","-273.299980163574","0.000923884875","64.0040307189338"
"0.0463965006929357","0.0696522903442383","1.51999998092651","7.48039965401404E-05","-5.86315982218366E-05","-4.55015015177196E-06","4.49528997705784E-05","-78.380298614502","0.00108825325","64.0037542325445"
"0.0499367961310782","0.0734166488647461","1.62000000476837","7.82727001933381E-05","-4.78442016174085E-05","5.24654979017214E-06","5.64494002901483E-05","-61.1250162124634","0.00114708025","64.0030630165711"
"0.0535236758878455","0.0775450973510742","1.72000002861023","0.000101741999969818","-5.8265301049687E-05","4.14337009715382E-05","7.29383027646691E-05","-57.2676956653595","0.0012115715","64.0037324046716"
"0.0566913076909259","0.0814100723266602","1.82000005245209","0.000127734005218372","-6.1119302699808E-05","4.98847984999884E-05","9.86789018497802E-05","-47.8488892316818","0.001271954625","64.003914303612"
"0.0601850188104436","0.0919872589111328","1.91999995708466","0.000139479001518339","-5.88447983318474E-05","5.29140015714802E-05","7.4258103268221E-05","-42.1890020370483","0.001437216375","64.0037687844597"
"0.0636321565252729","0.0974012680053711","2.01999998092651","0.000162466007168405","-5.44791000720579E-05","4.89783997181803E-05","8.31137003842741E-05","-33.5326164960861","0.001521811875","64.0034850221127"
"0.0673121976433322","0.102521492004395","2.11999988555908","0.000170076993526891","-5.88225993851665E-05","7.41826006560586E-05","8.27686017146334E-05","-34.5858633518219","0.001601804125","64.0037615085021"
"0.0709922387613915","0.104491233825684","2.22000002861023","0.000188897000043653","-6.17542973486707E-05","8.32728983368725E-05","0.00012641100329347","-32.6920479536057","0.00163257475","64.0039506834"
"0.0746722798794508","0.113053512573242","2.3199999332428","0.000215380001463927","-5.00538990308996E-05","9.63010024861433E-05","0.000137424998683855","-23.2398092746735","0.00176637275","64.0032012597658"
"0.078818149631843","0.120076454162598","2.42000007629395","0.000209833000553772","-5.5670698202448E-05","8.55616017361172E-05","0.000106029001472052","-26.5309542417526","0.001876090125","64.0035650576465"
"0.0824981980258599","0.124128227233887","2.51999998092651","0.000233297003433108","-6.41021979390644E-05","0.000111018001916818","0.000116563998744823","-27.4766504764557","0.00193937925","64.0041034785099"
"0.085805579146836","0.12694563293457","2.61999988555908","0.000258604006376117","-6.75018018228002E-05","0.000112736997834872","0.000142807999509387","-26.1023819446564","0.001983391625","64.0043217572384"
"0.0886471243575215","0.132442810058594","2.72000002861023","0.000300524989143014","-4.68543985334691E-05","0.000121639001008589","0.000160783994942904","-15.5908495187759","0.002069322","64.0029975329526"
"0.0920010934351012","0.139711074829102","2.8199999332428","0.000310239003738388","-6.47004999336787E-05","0.000156934998813085","0.000175488996319473","-20.8550497889519","0.00218284425","64.004139858298"
"0.0954482238739729","0.144535827636719","2.92000007629395","0.00034566200338304","-5.19575987709686E-05","0.000170098996022716","0.000176663001184352","-15.0313317775726","0.002258255","64.0033249510452"
"0.098848766356241","0.151080383300781","3.01999998092651","0.000348834990290925","-4.6429799112957E-05","0.000169891005498357","0.000179626993485726","-13.3099600672722","0.0023605215","64.0029684291221"
"0.102062986115925","0.153984359741211","3.11999988555908","0.000391037989174947","-2.83430999843404E-05","0.000190980004845187","0.000200427006348036","-7.24816992878914","0.0024059375","64.0018115518615"
"0.105649865872692","0.159483581542969","3.22000002861023","0.000423463003244251","-5.68772011320107E-05","0.000197522997041233","0.000217552995309234","-13.4314447641373","0.00249178925","64.0036378172226"
"0.109469656308647","0.167728637695313","3.3199999332428","0.000420200987718999","-7.35518988221884E-05","0.00018701099907048","0.000217880005948246","-17.5039798021317","0.00262056725","64.0047073829919"
"0.113336034701206","0.175114624023438","3.42000007629395","0.000453135988209397","-7.37712034606375E-05","0.00019562199304346","0.000228621996939182","-16.2801459431648","0.00273596425","64.0047219349071"
"0.117016075819265","0.179417861938477","3.51999998092651","0.00043314098729752","-5.88303009863012E-05","0.000186246004886925","0.000223580005695112","-13.5822519659996","0.00280323925","64.0037615085021"
"0.119904216262512","0.183121978759766","3.61999988555908","0.000455255009001121","-7.50234030419961E-05","0.000188299003639258","0.000233921004110016","-16.4794236421585","0.00286106625","64.0048019704409"
"0.123258170788176","0.187187805175781","3.72000002861023","0.00046657701022923","-5.50539989490062E-05","0.000200513997697271","0.000259813008597121","-11.7995530366898","0.0029246485","64.0035214019008"
"0.126332641229965","0.19472509765625","3.8199999332428","0.000510502024553716","-6.23638989054598E-05","0.000217139997403137","0.00026291300309822","-12.2161909937859","0.00304239","64.0039943391457"
"0.12973319098819","0.201424850463867","3.92000007629395","0.000508312019519508","-6.71914967824705E-05","0.000226015996304341","0.000266716990154237","-13.218554854393","0.00314705175","64.0042999293655"
"0.132807661429979","0.209114852905273","4.01999998092651","0.000518276996444911","-7.04100020811893E-05","0.000259739987086505","0.000274413003353402","-13.5853990912437","0.0032671895","64.0045036561787"
"0.136254791868851","0.204760406494141","4.11999988555908","0.000568339019082487","-6.52500020805746E-05","0.000262891000602394","0.000286639988189563","-11.4808239042759","0.0031991725","64.0041762380861"
"0.139562165713869","0.215161727905273","4.21999979019165","0.000542086025234312","-6.95783965056762E-05","0.000245595991145819","0.000294747995212674","-12.835305929184","0.003361668","64.0044527244754"
"0.143475132063031","0.223213592529297","4.32000017166138","0.00057698501041159","-6.76066993037239E-05","0.000271110009634867","0.000302469008602202","-11.7172367870808","0.0034874765","64.004329033196"
"0.147201746585779","0.227950180053711","4.42000007629395","0.000597256002947688","-6.53664974379353E-05","0.000272531993687153","0.000313453987473622","-10.9444692730904","0.00356148875","64.0041835140437"
"0.150462554302067","0.230555191040039","4.51999998092651","0.000595414021518081","-5.22166992595885E-05","0.000289138988591731","0.00031172001035884","-8.76981392502785","0.00360223675","64.0033395029604"
"0.153909684740938","0.237395095825195","4.61999988555908","0.000638446013908833","-5.82505999773275E-05","0.000290093012154102","0.000340144004439935","-9.12380963563919","0.00370908225","64.003725128714"
"0.157263639266603","0.241911193847656","4.71999979019165","0.000634375028312206","-5.30965007783379E-05","0.00029270100640133","0.000331110990373418","-8.36989134550095","0.00377966175","64.0033977106214"
"0.160664189024828","0.252024063110352","4.82000017166138","0.000647324020974338","-5.08131997776218E-05","0.000304888992104679","0.000326492998283356","-7.84973204135895","0.003937676","64.0032521914691"
"0.163552322192118","0.251519119262695","4.92000007629395","0.000662588980048895","-6.2787403294351E-05","0.000298327009659261","0.000336538010742515","-9.47607010602951","0.0039297395","64.0040161670186"
"0.16681311535649","0.256945709228516","5.01999998092651","0.000690306012984365","-5.09384990436956E-05","0.000326559995301068","0.000342173007084057","-7.37911909818649","0.00401457225","64.0032594674267"
"0.170120503753424","0.263017822265625","5.11999988555908","0.000691092980559915","-6.21096987742931E-05","0.000322562991641462","0.00034835800761357","-8.98716971278191","0.00410939825","64.0039725112729"
"0.173800537595525","0.267380737304688","5.21999979019165","0.000703467987477779","-8.18280968815088E-05","0.000343227002304047","0.000363686005584896","-11.6320997476578","0.00417748225","64.0052385278977"
"0.177107925992459","0.274530303955078","5.32000017166138","0.0007351019885391","-6.41106016701087E-05","0.000350421003531665","0.000362716004019603","-8.72132033109665","0.004289261","64.0041034785099"
"0.180601637111977","0.278877380371094","5.42000007629395","0.0007351019885391","-6.41106016701087E-05","0.000370891997590661","0.000362716004019603","-8.72132033109665","0.0043571795","64.0041034785099"
"0.183722688234411","0.281050811767578","5.51999998092651","0.000760640017688274","-7.77630993979983E-05","0.000354081013938412","0.000375978008378297","-10.2233774960041","0.0043910775","64.0049765934236"
"0.187262980034575","0.288991729736328","5.61999988555908","0.00078713899711147","-7.88816032581963E-05","0.000374649011064321","0.00039557900163345","-10.0213050842285","0.0045151395","64.0050493529998"
"0.190616949112155","0.293531036376953","5.71999979019165","0.000817861000541598","-9.93880021269433E-05","0.000382602011086419","0.000412966997828335","-12.152187526226","0.0045859665","64.0063590253703"
"0.194064079551026","0.301814208984375","5.82000017166138","0.000847304007038474","-7.02210018062033E-05","0.000402050005504861","0.00043202200322412","-8.28758031129837","0.004715516","64.0044963802211"
"0.197185130673461","0.305273803710937","5.92000007629395","0.000849561009090394","-6.28299021627754E-05","0.000416661001509056","0.000438719987869263","-7.39557221531868","0.0047696035","64.0040234429762"
"0.200492519070394","0.310353820800781","6.01999998092651","0.000879927014466375","-4.52915992354974E-05","0.000431371008744463","0.000471248989924788","-5.14719970524311","0.004849059","64.002895669546"
"0.203566989512183","0.315679870605469","6.11999988555908","0.000914314994588494","-5.34893006260972E-05","0.000465134013211355","0.000469791993964463","-5.85020482540131","0.004932234","64.0034268144518"
"0.207107281312346","0.320386505126953","6.21999979019165","0.000947158026974648","-6.62781967548653E-05","0.000448200007667765","0.000466364988824353","-6.99758678674698","0.0050057075","64.0042417217046"
"0.210554411751218","0.327203826904297","6.32000017166138","0.000958919001277536","-7.00692035024986E-05","0.000459748989669606","0.000479912006994709","-7.30710327625275","0.0051122015","64.0044818283059"
"0.213628867641091","0.327299560546875","6.42000007629395","0.000967870990280062","-6.31247021374293E-05","0.0004732410016004","0.000516691012308002","-6.52201548218727","0.005113733","64.0040379948914"
"0.216656757402234","0.336426605224609","6.51999998092651","0.000962705991696566","-4.35075016866904E-05","0.000469266989966854","0.000513625971507281","-4.51929233968258","0.005256437","64.0027865301818"
"0.220010711927898","0.342477722167969","6.61999988555908","0.000967621977906674","-5.68477989872918E-05","0.0004989979788661","0.000488320016302168","-5.8750007301569","0.00535091","64.0036378172226"
"0.223597598960623","0.346677154541016","6.71999979019165","0.000995081034488976","-6.02848995185923E-05","0.000501186994370073","0.000489067984744906","-6.05829060077667","0.005416504","64.0038560959511"
"0.226998148718849","0.352245971679688","6.82000017166138","0.00101305998396128","-6.38803030597046E-05","0.000531484023667872","0.000515971973072737","-6.30567818880081","0.0055034915","64.0040889265947"
"0.230678182560951","0.357317230224609","6.92000007629395","0.0010299599962309","-5.85741981922183E-05","0.000519638997502625","0.000515183026436716","-5.68703636527061","0.0055827545","64.0037469565868"
"0.233892395044677","0.363624298095703","7.01999998092651","0.00104289001319557","-7.47036974644288E-05","0.000522651011124253","0.000500352995004505","-7.16314315795898","0.0056812055","64.0047801425681"
"0.237432701396756","0.363880950927734","7.11999988555908","0.00108563003595918","-7.78264002292417E-05","0.000523548980709165","0.000522894028108567","-7.16877728700638","0.0056851975","64.0049838693812"
"0.240646913880482","0.370478546142578","7.21999979019165","0.00108985998667777","-7.09802989149466E-05","0.000529391982126981","0.00052825000602752","-6.51279091835022","0.0057883165","64.0045400359668"
"0.244047463638708","0.375127502441406","7.32000017166138","0.001095229992643","-7.96742024249397E-05","0.000545733026228845","0.000542258028872311","-7.27465450763702","0.0058609005","64.0051002847031"
"0.24684242089279","0.380626861572266","7.42000007629395","0.00111179996747524","-7.1465598011855E-05","0.000540220993570983","0.000555869017262012","-6.42791837453842","0.0059468695","64.0045764157549"
"0.250056647928432","0.386938415527344","7.51999998092651","0.00113451003562659","-7.242189894896E-05","0.000543847971130162","0.000562892004381865","-6.3835397362709","0.006045475","64.0046346234158"
"0.253084552241489","0.396994415283203","7.61999988555908","0.00112894002813846","-8.53103992994875E-05","0.000546629016753286","0.000569163996260613","-7.55668133497238","0.0062025085","64.0054568066262"
"0.256671395618469","0.394739532470703","7.71999979019165","0.0011567099718377","-8.21787034510635E-05","0.000557060993742198","0.000580015999730676","-7.10452049970627","0.0061672985","64.0052603557706"
"0.259978813119233","0.401970916748047","7.82000017166138","0.00118665001355112","-6.5420099417679E-05","0.000600109982769936","0.000588378985412419","-5.51300719380379","0.0062803845","64.0041835140437"
"0.263519090367481","0.405911376953125","7.92000007629395","0.00119447999168187","-7.05717029632069E-05","0.000600019993726164","0.000588882016018033","-5.90815246105194","0.0063419175","64.0045182080939"
"0.266966235358268","0.410924163818359","8.02000045776367","0.00120565004181117","-7.4685798608698E-05","0.000596560013946146","0.000602036016061902","-6.19465000927448","0.0064202105","64.0047801425681"
"0.270786025794223","0.415397094726563","8.11999988555908","0.00122780003584921","-7.25946010788903E-05","0.000615635013673455","0.000618277001194656","-5.9125754982233","0.0064901085","64.004649175331"
"0.27427970780991","0.423414733886719","8.22000026702881","0.00125971995294094","-7.66946977819316E-05","0.000639981008134782","0.000639752019196749","-6.08823373913765","0.006615348","64.0049111098051"
"0.277121289400384","0.425731384277344","8.31999969482422","0.00130897003691643","-5.50182012375444E-05","0.000653574010357261","0.000650676025543362","-4.20316755771637","0.006651687","64.0035214019008"
"0.279916217550635","0.429122436523438","8.42000007629395","0.00131140998564661","-7.10102031007409E-05","0.000666616018861532","0.000667991989757866","-5.41479773819447","0.006704562","64.0045473119244"
"0.283177039818838","0.435999603271484","8.52000045776367","0.00136961997486651","-6.81700985296629E-05","0.000665355008095503","0.00069053698098287","-4.97730039060116","0.0068120295","64.004365412984"
"0.286577589577064","0.438929626464844","8.61999988555908","0.00136621994897723","-7.55801011109725E-05","0.000673777016345412","0.000687044986989349","-5.53205907344818","0.006857757","64.004838350229"
"0.289838382741436","0.446480133056641","8.72000026702881","0.00139099999796599","-6.93717011017725E-05","0.000696656003128737","0.000703650002833456","-4.98718172311783","0.006975768","64.0044381725602"
"0.293006014544517","0.453874786376953","8.81999969482422","0.00143687997478992","-6.50598012725823E-05","0.000708110979758203","0.000716661976184696","-4.52785193920136","0.007091332","64.0041616861708"
"0.296499725664034","0.456858093261719","8.92000007629395","0.00143774994648993","-8.07182004791684E-05","0.000714658992365003","0.000720529002137482","-5.61420284211636","0.0071378315","64.0051657683216"
"0.300272949971259","0.462477172851563","9.02000045776367","0.00145636999513954","-6.91836030455306E-05","0.000729701016098261","0.000713889021426439","-4.75041382014751","0.007225706","64.0044308966026"
"0.304092740407214","0.467682891845703","9.11999988555908","0.00146603002212942","-6.6431202867534E-05","0.000722452998161316","0.000711990986019373","-4.53136712312698","0.00730706","64.0042489976622"
"0.307726208120584","0.472663604736328","9.22000026702881","0.00146999000571668","-6.30989015917294E-05","0.000737589027266949","0.000724380020983517","-4.29247133433819","0.007384903","64.0040379948914"
"0.310614326735958","0.477935577392578","9.31999969482422","0.00148477999027818","-4.95831991429441E-05","0.000745325989555568","0.000737119989935309","-3.33943068981171","0.007467373","64.0031721559353"
"0.3138285537716","0.482731567382813","9.42000007629395","0.00150878995191306","-6.13068987149745E-05","0.000740654999390244","0.000738025002647191","-4.06331568956375","0.0075422185","64.0039215795696"
"0.316856399876997","0.486788482666016","9.52000045776367","0.00151403003837913","-6.50473011774011E-05","0.000760242983233184","0.000758106994908303","-4.2963020503521","0.0076055755","64.0041616861708"
"0.320210383506492","0.490046478271484","9.61999988555908","0.00152022996917367","-6.9195099058561E-05","0.000753647997044027","0.000761992996558547","-4.55162040889263","0.0076564465","64.0044308966026"
"0.323238287819549","0.496874542236328","9.72000026702881","0.00155089003965259","-7.4167903221678E-05","0.000754688982851803","0.000776195025537163","-4.78227995336056","0.007763089","64.00474376278"
"0.326685403706506","0.500239379882813","9.81999969482422","0.00155790999997407","-7.7205098932609E-05","0.000766629003919661","0.000784301024395972","-4.95568439364433","0.007815637","64.0049402136356"
"0.329853035509586","0.505654174804688","9.92000007629395","0.00157399999443442","-6.65370025672019E-05","0.000778686022385955","0.000774396990891546","-4.22725528478622","0.007900321","64.0042562736198"
"0.333719392074272","0.513384704589844","10.0200004577637","0.001592310029082","-7.18317023711279E-05","0.000783495022915304","0.0008022710098885","-4.51116301119328","0.00802106","64.0045982436277"
"0.337399455020204","0.518391052246094","10.1199998855591","0.00161574000958353","-7.84942021709867E-05","0.000801161979325116","0.000805754971224815","-4.85809594392776","0.0080992245","64.0050202491693"
"0.340753409545869","0.521680725097656","10.2200002670288","0.00163576996419579","-6.85815975884907E-05","0.000817173975519836","0.000814008002635092","-4.19261865317822","0.0081507025","64.0043872408569"
"0.34396763658151","0.529720520019531","10.3199996948242","0.00166767998598516","-6.00152015977073E-05","0.000841295986901969","0.000834921025671065","-3.5987239331007","0.0082763865","64.0038415440358"
"0.347414752468467","0.534927429199219","10.4200000762939","0.00170881999656558","-6.77198986522853E-05","0.000849144998937845","0.000863188994117081","-3.96296270191669","0.008357675","64.0043363091536"
"0.3507221408654","0.538493286132813","10.5200004577637","0.00172991002909839","-6.87498031766154E-05","0.000858827028423548","0.000869550975039601","-3.97418364882469","0.008413379","64.0044017927721"
"0.353656854713336","0.542917541503906","10.6199998855591","0.00174720003269613","-8.14800005173311E-05","0.000867185997776687","0.000887166999746114","-4.66346144676209","0.008482395","64.0052167000249"
"0.356684729922563","0.547280700683594","10.7200002670288","0.00175166002009064","-7.50035032979213E-05","0.000861431995872408","0.000886443012859672","-4.28185276687145","0.00855062","64.0048019704409"
"0.360038713552058","0.553503601074219","10.8199996948242","0.0017621599836275","-6.73906033625826E-05","0.000890074006747454","0.000899972976185381","-3.82431782782078","0.008647911","64.0043144812807"
"0.363578990800306","0.556026550292969","10.9200000762939","0.00178040005266666","-7.02163015375845E-05","0.000884526001755148","0.000909262977074832","-3.94384972751141","0.008687305","64.0044963802211"
"0.367026135791093","0.564852233886719","11.0200004577637","0.0018128800438717","-7.28759987396188E-05","0.000905825989320874","0.000933133997023106","-4.01990190148354","0.008825173","64.0046637272462"
"0.37047325167805","0.567107543945312","11.1199998855591","0.00184537004679441","-5.62208006158471E-05","0.000918919977266341","0.000944802013691515","-3.04658692330122","0.008860557","64.0036014374346"
"0.373594317352399","0.570590759277344","11.2200002670288","0.00185292004607618","-5.52343990420923E-05","0.000920908991247416","0.000934140000026673","-2.98093818128109","0.008914988","64.003535953816"
"0.377041462343186","0.576861938476563","11.3199996948242","0.00186638999730349","-5.99242011958268E-05","0.000928796012885869","0.000937459000851959","-3.21070104837418","0.009012928","64.0038342680782"
"0.380441982997581","0.581408508300781","11.4200000762939","0.00187666004057974","-6.62562015349977E-05","0.000929592992179096","0.000933439005166292","-3.53053845465183","0.009083906","64.0042417217046"
"0.384075450710952","0.588198913574219","11.5200004577637","0.00188816001173109","-5.68610012123827E-05","0.000935433025006205","0.000939343997742981","-3.01145035773516","0.009190085","64.0036378172226"
"0.387149921152741","0.590185729980469","11.6199998855591","0.0019168199505657","-6.18369012954645E-05","0.00095186399994418","0.000974228023551404","-3.22601497173309","0.009221082","64.0039579593576"
"0.390503875678405","0.594507385253906","11.7200002670288","0.00193936005234718","-6.68710999889299E-05","0.000967146013863385","0.000956199015490711","-3.44810150563717","0.009288557","64.0042781014927"
"0.393531779991463","0.606951416015625","11.8199996948242","0.00196578004397452","-5.64268993912265E-05","0.000972984009422362","0.000963957980275154","-2.87045855075121","0.009483081","64.0036087133922"
"0.397118652472273","0.608549560546875","11.9200000762939","0.00197201990522444","-6.57307027722709E-05","0.000983624951913953","0.000978447031229734","-3.33316586911678","0.009507962","64.0042053419165"
"0.400472606997937","0.611997802734375","12.0200004577637","0.00198494992218912","-7.08182997186668E-05","0.000977389048784971","0.000986158032901585","-3.56776230037212","0.009561789","64.0045327600092"
"0.403733400162309","0.618584777832031","12.1199998855591","0.00199782010167837","-7.16319991624914E-05","0.000986268045380712","0.000975449976976961","-3.58550809323788","0.009664695","64.0045836917125"
"0.406621547881514","0.62014990234375","12.2200002670288","0.00199645990505815","-6.9634901592508E-05","0.000994420959614217","0.000988297979347408","-3.48791852593422","0.009689168","64.004460000433"
"0.410022068535909","0.626539428710937","12.3199996948242","0.00202883989550173","-6.72910973662511E-05","0.00100190995726734","0.00102289998903871","-3.31672765314579","0.00978902","64.0043072053231"
"0.413422647397965","0.631837890625","12.4200000762939","0.00203083991073072","-6.57011987641454E-05","0.00100587995257229","0.000999049050733447","-3.23517359793186","0.009871818","64.0042053419165"
"0.416916329413652","0.637791076660156","12.5200004577637","0.0020495499484241","-7.86305972724222E-05","0.00102784996852279","0.0010132200550288","-3.83648127317429","0.009964702","64.0050348010845"
"0.420410069637001","0.644164733886719","12.6199998855591","0.0020800600759685","-7.05166021361947E-05","0.00103716994635761","0.00103520997799933","-3.39012332260609","0.010064364","64.0045109321363"
"0.423810590291396","0.651002075195313","12.7200002670288","0.00212307996116579","-7.80862974352203E-05","0.00105196004733443","0.00105139997322112","-3.67797240614891","0.010171113","64.0049984212965"
"0.427257735282183","0.648888305664063","12.8199996948242","0.00213586003519595","-7.54823995521292E-05","0.00106687005609274","0.00104621995706111","-3.53405177593231","0.010138115","64.0048310742714"
"0.430565123679116","0.656272094726563","12.9200000762939","0.00215679011307657","-8.13481019577011E-05","0.00108782004099339","0.00106793001759797","-3.77172082662582","0.010253417","64.0052094240673"
"0.433965673437342","0.66350634765625","13.0200004577637","0.00217503006570041","-7.71702980273403E-05","0.00109494000207633","0.00109680998139083","-3.54801081120968","0.010366487","64.0049402136356"
"0.436900387285277","0.664086853027344","13.1199998855591","0.00218435004353523","-7.31886975700036E-05","0.00109636003617197","0.00109340995550156","-3.35059389472008","0.010375598","64.0046855551191"
"0.440114614320919","0.674645751953125","13.2200002670288","0.00220762006938457","-6.84862025082111E-05","0.00111118995118886","0.00109184999018908","-3.10226399451494","0.010540618","64.0043799648993"
"0.443235679995269","0.679252502441406","13.3199996948242","0.00222173007205129","-8.46654002089053E-05","0.00111404003109783","0.00110724999103695","-3.81078720092773","0.010612422","64.0054204268381"
"0.446729362010956","0.684717712402344","13.4200000762939","0.00223707989789546","-6.08726004429627E-05","0.0011228600051254","0.00113478000275791","-2.72107385098934","0.010698063","64.0038924757391"
"0.45008331653662","0.685575622558594","13.5200004577637","0.00225885002873838","-7.94962979853153E-05","0.00113039999268949","0.00113028998021036","-3.51932607591152","0.010711268","64.0050857327878"
"0.453763379482552","0.691211242675781","13.6199998855591","0.00228332006372511","-8.80302977748215E-05","0.00113850005436689","0.00113210000563413","-3.85536402463913","0.010799225","64.0056314296089"
"0.457210524473339","0.699416870117188","13.7200002670288","0.00230050995014608","-6.31528018857352E-05","0.00115252996329218","0.00114094000309706","-2.74516511708498","0.010927698","64.004045270849"
"0.461123476270586","0.705783020019531","13.8199996948242","0.00231458991765976","-6.75937990308739E-05","0.00115445000119507","0.00115430995356292","-2.92033571749926","0.011027114","64.004329033196"
"0.464617158286273","0.708075317382812","13.9200000762939","0.00233250996097922","-7.68035024520941E-05","0.00117018003948033","0.00116111000534147","-3.29274050891399","0.011062827","64.0049183857627"
"0.467691628728062","0.710659545898437","14.0200004577637","0.00234315008856356","-7.79426991357468E-05","0.00118086999282241","0.00115788995753974","-3.32640670239925","0.01110319","64.0049911453389"
"0.470393453724682","0.711067443847656","14.1199998855591","0.00236412999220192","-8.00124034867622E-05","0.00119039998389781","0.00118964002467692","-3.38443331420422","0.01110954","64.0051221125759"
"0.473607651656494","0.720115173339844","14.2200002670288","0.00239507993683219","-7.11868997314014E-05","0.0011910799657926","0.00118432997260243","-2.97221392393112","0.011250999","64.004554587882"
"0.476961606182158","0.730156311035156","14.3199996948242","0.00238922005519271","-8.63551977090538E-05","0.00120425003115088","0.00117857998702675","-3.61436791718006","0.011407707","64.0055295662023"
"0.480269023682922","0.731321411132812","14.4200000762939","0.00243279989808798","-7.70850965636782E-05","0.00121271004900336","0.00117951002903283","-3.16857546567917","0.011426016","64.004932937678"
"0.483343494124711","0.735150512695313","14.5200004577637","0.0024418500252068","-8.03680013632402E-05","0.00121947994921356","0.00119779002852738","-3.29127497971058","0.011485804","64.0051439404488"
"0.486837176140398","0.740780090332031","14.6199998855591","0.00246158009395003","-7.55951987230219E-05","0.00123286002781242","0.00120148004498333","-3.0710032209754","0.011573814","64.004838350229"
"0.490424048621207","0.748376831054688","14.7200002670288","0.0024973601102829","-6.86986968503334E-05","0.00123944005463272","0.00120892003178597","-2.75085289031267","0.011692585","64.0043945168145"
"0.494243868160993","0.753331481933594","14.8199996948242","0.00250723003409803","-8.22267975308932E-05","0.00126029003877193","0.00123274000361562","-3.27958725392818","0.011769837","64.0052603557706"
"0.497923931106925","0.759769287109375","14.9200000762939","0.00252020009793341","-7.3721501394175E-05","0.00126450997777283","0.0012469399953261","-2.92522422969341","0.01187052","64.0047146589495"
"0.500812078826129","0.759575439453125","15.0200004577637","0.00252938992343843","-9.87366001936607E-05","0.00127729005180299","0.00123878999147564","-3.90357375144959","0.011867195","64.0063226455823"
"0.503979681525379","0.768158569335938","15.1199998855591","0.0025591601151973","-7.4452800618019E-05","0.00129341997671872","0.00126900000032038","-2.90926713496447","0.012001584","64.0047655906528"
"0.506960961502045","0.77027099609375","15.2200002670288","0.00258450000546873","-6.43761013634503E-05","0.00131103000603616","0.00127112003974617","-2.49085314571857","0.01203471","64.0041180304252"
"0.51031494513154","0.772888244628906","15.3199996948242","0.00258768000639975","-7.81164999352768E-05","0.00130550004541874","0.00128139997832477","-3.0187850818038","0.012075436","64.0049984212965"
"0.513389415573329","0.777017944335938","15.4200000762939","0.00259628007188439","-8.21407011244446E-05","0.00131352001335472","0.00130500004161149","-3.16378436982632","0.012139908","64.0052603557706"
"0.516789965331554","0.7803662109375","15.5200004577637","0.00261721992865205","-9.22412000363693E-05","0.00131769001018256","0.00129849999211729","-3.52439619600773","0.012192097","64.0059006400406"
"0.519957626238465","0.787041870117188","15.6199998855591","0.00262722000479698","-8.05914969532751E-05","0.00133371003903449","0.00132661999668926","-3.06755807250738","0.012296538","64.005158492364"
"0.52377738757059","0.792128967285156","15.7200002670288","0.0026496599894017","-8.95112971193157E-05","0.00133565999567509","0.00131263001821935","-3.37821841239929","0.012375907","64.0057260170579"
"0.527457392308861","0.796720886230469","15.8199996948242","0.00267350999638438","-8.59658030094579E-05","0.00134006002917886","0.00133761996403337","-3.21546569466591","0.012447694","64.0055004623719"
"0.53099769866094","0.802248779296875","15.9200000762939","0.00268913991749287","-7.81826020102017E-05","0.00135322997812182","0.00133335997816175","-2.90734581649303","0.012534157","64.0050056972541"
"0.53411879343912","0.805277221679688","16.0200004577637","0.00270956009626389","-7.72475032135844E-05","0.00136279000435025","0.00136078998912126","-2.85092405974865","0.012581485","64.0049402136356"
"0.537565909326077","0.812453247070313","16.1200008392334","0.00273255002684891","-7.91191996540874E-05","0.00135432998649776","0.0013669099425897","-2.89543475955725","0.012693578","64.005063904915"
"0.54087326861918","0.820310363769531","16.2199993133545","0.00275982008315623","-8.85097033460625E-05","0.00137390999589115","0.00138432998210192","-3.20708230137825","0.012816215","64.005667809397"
"0.543994305189699","0.818650390625","16.3199996948242","0.00277277990244329","-6.66600972181186E-05","0.0013784000184387","0.0013614499475807","-2.40408908575773","0.01279056","64.0042635495774"
"0.546929077245295","0.823001586914063","16.4200000762939","0.00276914006099105","-8.70547009981237E-05","0.00138856994453818","0.00138303998392075","-3.1437449157238","0.01285828","64.005573221948"
"0.550236378330737","0.825802490234375","16.5200004577637","0.00279851001687348","-8.72211967362091E-05","0.00138388003688306","0.00139167997986078","-3.11670135706663","0.012902039","64.0055804979056"
"0.553683494217694","0.835232788085937","16.6200008392334","0.00281557999551296","-0.000102500001958106","0.00140215002465993","0.0013830199604854","-3.64045761525631","0.013049175","64.0065627521835"
"0.557223858777434","0.838658325195312","16.7199993133545","0.00284426007419825","-9.8758697276935E-05","0.00142051000148058","0.00139834999572486","-3.47221083939075","0.013102742","64.0063226455823"
"0.560624350327998","0.842872924804688","16.8199996948242","0.00283543998375535","-8.65932015585713E-05","0.00143615994602442","0.00140851002652198","-3.05395983159542","0.013168749","64.0055441181175"
"0.56379206944257","0.84529345703125","16.9200000762939","0.00288383988663554","-0.0001179660030175","0.00145513005554676","0.00140424002893269","-4.0905874222517","0.013206152","64.0075522824191"
"0.567052862606943","0.850709777832031","17.0200004577637","0.00290899001993239","-9.04269036254846E-05","0.00145862996578217","0.00141777994576842","-3.10853254050016","0.013291138","64.0057842247188"
"0.570453354157507","0.852703918457031","17.1200008392334","0.00290916999801993","-8.85019035195E-05","0.00147100002504885","0.00141332997009158","-3.04217003285885","0.01332232","64.0056605334394"
"0.574040226638317","0.861535400390625","17.2199993133545","0.00293521001003683","-0.000103407001006417","0.00146594003308564","0.00142737000714988","-3.52298468351364","0.013460099","64.0066209598444"
"0.577161321416497","0.863016418457031","17.3199996948242","0.00294013996608555","-0.000109271000837907","0.00147484999615699","0.00144377001561224","-3.71652357280254","0.013483158","64.0069920336828"
"0.58042211458087","0.864397216796875","17.4200000762939","0.00296479999087751","-0.000108022999484092","0.00147629994899035","0.00146231998223811","-3.64351719617844","0.013504748","64.006911998149"
"0.583449960686266","0.869597412109375","17.5200004577637","0.00297137000598013","-9.87109015113674E-05","0.00149092997889966","0.00146505003795028","-3.32206673920155","0.013586118","64.0063153696246"
"0.586943700909615","0.868274841308594","17.6200008392334","0.00299051008187234","-0.000113009999040514","0.00149148004129529","0.00146286003291607","-3.77895422279835","0.013565261","64.007232140284"
"0.59034425066784","0.880177124023438","17.7199993133545","0.00298638991080225","-0.000107874002424069","0.00149348005652428","0.00147450994700193","-3.61218713223934","0.013751284","64.0069047221914"
"0.593744742218405","0.877707824707031","17.8199996948242","0.00300074997358024","-0.000109294000139926","0.0014995300443843","0.00148098997306079","-3.64222265779972","0.013712686","64.0069920336828"
"0.596586323808879","0.864474731445313","17.9200000762939","0.00300160003826022","-0.000112474997877143","0.001495820004493","0.0014740900369361","-3.74716818332672","0.013505899","64.007195760496"
"0.599986931774765","0.860976928710938","18.0200004577637","0.00299556995742023","-0.00011214899859624","0.00148331001400948","0.00148539000656456","-3.74382846057415","0.013451256","64.0071739326231"
"0.60338742332533","0.859607055664062","18.1200008392334","0.00298107997514308","-9.54610004555434E-05","0.00148571003228426","0.00144895003177226","-3.20222862064838","0.013430078","64.0061116428114"
"0.607020920142531","0.860522399902344","18.2199993133545","0.00299219996668398","-9.46552972891368E-05","0.00147779996041209","0.00145336997229606","-3.16340140998363","0.01344439","64.0060607111081"
"0.610374845564365","0.858392578125","18.3199996948242","0.00296646007336676","-0.000111740002466831","0.00149244000203907","0.00145632005296648","-3.76677922904491","0.013410886","64.0071521047503"
"0.613961776252836","0.85974267578125","18.4200000762939","0.00297652999870479","-0.000101136996818241","0.00148005003575236","0.00144849997013807","-3.39781567454338","0.013432121","64.0064754406922"
"0.617362267803401","0.8571484375","18.5200004577637","0.00298822997137904","-0.000106845996924676","0.00148612994235009","0.0014639199944213","-3.57556156814098","0.013391514","64.0068392385729"
"0.620762817561626","0.859149658203125","18.6200008392334","0.00296483002603054","-0.000116306997369975","0.00148594996426255","0.00145338999573141","-3.92288938164711","0.013422652","64.0074431430548"
"0.624070235062391","0.863357666015625","18.7199993133545","0.00297547993250191","-0.000103405000118073","0.00149101996794343","0.0014593800297007","-3.47523763775826","0.013488569","64.0066209598444"
"0.627098081167787","0.861275451660156","18.8199996948242","0.00299427006393671","-0.000118910997116473","0.00147639994975179","0.00145811005495489","-3.97128500044346","0.013455829","64.00761049008"
"0.630172551609576","0.861697937011719","18.9200000762939","0.00298141990788281","-0.000116110000817571","0.00149524002335966","0.00145304994657636","-3.89445312321186","0.013462467","64.0074285911396"
"0.633340154308826","0.863049133300781","19.0200004577637","0.0030012798961252","-0.000117736002721358","0.00149592000525445","0.00143387005664408","-3.92285957932472","0.013483555","64.0075377305038"
"0.636694137938321","0.862377685546875","19.1200008392334","0.00298220990225673","-0.000116087998321746","0.00150479003787041","0.00144403998274356","-3.89268361032009","0.013473087","64.0074285911396"
"0.640094687696546","0.863104736328125","19.2199993133545","0.00298034003935754","-0.000118454001494683","0.00149397004861385","0.0014381300425157","-3.97451296448708","0.013484414","64.0075813862495"
"0.643588427919894","0.866551513671875","19.3199996948242","0.00297431997023523","-0.000131471999338828","0.00149539997801185","0.00144486001227051","-4.42023724317551","0.013538088","64.0084108454175"
"0.647035543806851","0.864321228027344","19.4200000762939","0.00298052001744509","-0.000113581998448353","0.00150818994734436","0.00144570996053517","-3.81081141531467","0.013503485","64.0072685200721"
"0.650901929475367","0.86346630859375","19.5200004577637","0.0029837500769645","-0.000122381999972276","0.00149762001819909","0.00144580996129662","-4.10161726176739","0.01349001","64.007836044766"
"0.654395611491054","0.865074584960937","19.6200008392334","0.00297086988575757","-0.00012486899504438","0.00149897998198867","0.00143617996945977","-4.20311205089092","0.013515103","64.0079888398759"
"0.657703028991818","0.864397216796875","19.7199993133545","0.00300118001177907","-0.00011291300324956","0.00150623999070376","0.00144489004742354","-3.762286901474","0.013504682","64.0072248643264"
"0.660311663523316","0.865510131835938","19.8199996948242","0.0029882499948144","-0.000132888002553955","0.00149308005347848","0.0014407200505957","-4.44701761007309","0.013521799","64.0085054328665"
"0.663525890558958","0.864095947265625","19.9200000762939","0.00298522994853556","-9.77119998424314E-05","0.00150274997577071","0.00143517996184528","-3.27318161725998","0.01350018","64.0062571619637"
"0.666740059386939","0.865208374023438","20.0200004577637","0.00299935997463763","-0.0001140820022556","0.00151580001693219","0.00145890994463116","-3.80354486405849","0.013517339","64.0072976239026"
"0.670280423946679","0.864220397949219","20.1200008392334","0.00298492005094886","-0.000101819998235442","0.00152195000555366","0.00143900001421571","-3.41114662587643","0.013502069","64.0065190964378"
"0.673308270052075","0.861439331054688","20.2199993133545","0.00298880995251238","-0.0001155749996542","0.00151183002162725","0.00144826003815979","-3.86692360043526","0.013458434","64.0073994873092"
"0.676848518196493","0.862195373535156","20.3199996948242","0.00298472004942596","-0.000114456997835077","0.00150488002691418","0.00144426000770181","-3.83476503193378","0.013470261","64.007326727733"
"0.680388882756233","0.863713745117188","20.4200000762939","0.0029637198895216","-0.000118219999421854","0.00150275998748839","0.00143584003672004","-3.98890599608421","0.013493932","64.0075668343343"
"0.684394966810942","0.866953979492188","20.5200004577637","0.00298357009887695","-0.000109218002762645","0.00149607995990664","0.00144305999856442","-3.66064831614494","0.013544677","64.0069920336828"
"0.688168162014335","0.863811828613281","20.6200008392334","0.00298285996541381","-0.000116522998723667","0.00149146001785994","0.00144241994712502","-3.90641875565052","0.013495487","64.0074576949701"
"0.691196066327393","0.8591513671875","20.7199993133545","0.00299062998965383","-0.000104245998954866","0.00149704003706574","0.00142940005753189","-3.48575375974178","0.013422841","64.0066718915477"
"0.694317102897912","0.859383666992187","20.8199996948242","0.00298800994642079","-0.000123400997836143","0.00149289995897561","0.00145482004154474","-4.12987247109413","0.013426213","64.0078942524269"
"0.697391573339701","0.860411254882813","20.9200000762939","0.00297097000293434","-0.000130013999296352","0.001499839941971","0.00143519998528063","-4.37614656984806","0.013442178","64.0083235339262"
"0.700652366504073","0.853243225097656","21.0200004577637","0.00296993996016681","-0.000129677006043494","0.00148932996671647","0.00145491003058851","-4.36631701886654","0.013330197","64.0083017060533"
"0.703680270817131","0.85098095703125","21.1200008392334","0.00295683997683227","-0.000124758997117169","0.00148774997796863","0.00142897001933306","-4.21933569014072","0.013294919","64.0079815639183"
"0.706941063981503","0.849985107421875","21.2199993133545","0.00294845993630588","-0.000133367997477762","0.00149049004539847","0.00142851995769888","-4.5233104377985","0.013279246","64.008534536697"
"0.710108724888414","0.847864990234375","21.3199996948242","0.00295040011405945","-0.000122875004308298","0.00146939000114799","0.001426039962098","-4.16468940675259","0.013246263","64.0078651485965"
"0.713695597369224","0.844258361816406","21.4200000762939","0.00295097008347511","-0.0001271259970963","0.00148056005127728","0.00142877001781017","-4.30793948471546","0.01318986","64.0081343590282"
"0.717375660315156","0.840478637695313","21.5200004577637","0.00293311011046171","-0.000119691001600586","0.00147022004239261","0.00143195001874119","-4.08068560063839","0.013130907","64.0076614217833"
"0.720915908459574","0.845206787109375","21.6200008392334","0.00293134991079569","-0.000126754996017553","0.00147494999691844","0.00143092998769134","-4.32411693036556","0.013204682","64.0081125311553"
"0.723943812772632","0.837990844726562","21.7199993133545","0.00291356001980603","-0.000129103005747311","0.00147093995474279","0.00141316000372171","-4.43110838532448","0.013091917","64.0082653262652"
"0.727437494788319","0.834015258789062","21.8199996948242","0.00290984008461237","-0.000107241001387592","0.0014582599978894","0.00143562001176178","-3.68546023964882","0.013030091","64.0068610664457"
"0.730651721823961","0.834698059082031","21.9200000762939","0.00292461994104087","-0.000114686998131219","0.00147534999996424","0.00141102995257825","-3.92143242061138","0.013040662","64.0073412796482"
"0.733865890651941","0.831963073730469","22.0200004577637","0.0029082999099046","-0.000125634003779851","0.00145594996865839","0.00140613003168255","-4.31984327733517","0.01299779","64.0080397715792"
"0.736660906113684","0.825949645996094","22.1200008392334","0.00286712008528411","-0.000118507996376138","0.00142588000744581","0.00140965997707099","-4.13334630429745","0.012903934","64.0075813862495"
"0.740014831535518","0.824808044433594","22.2199993133545","0.0028679498936981","-0.000126972998259589","0.00142725999467075","0.00140080996789038","-4.42730858922005","0.01288599","64.0081270830706"
"0.743322249036282","0.819929321289062","22.3199996948242","0.00283796992152929","-8.62196975504048E-05","0.00142463995143771","0.00139511004090309","-3.03807649761438","0.012810291","64.0055150142871"
"0.747048936318606","0.815709777832031","22.4200000762939","0.00286008999682963","-0.000124765007058159","0.00142227998003364","0.00137705996166915","-4.36227545142174","0.012743875","64.0079815639183"
"0.750309729482979","0.810343994140625","22.5200004577637","0.0028345100581646","-0.000106273997516837","0.00141581997741014","0.00137972005177289","-3.74929010868073","0.012660279","64.0068028587848"
"0.753756845369935","0.807291381835938","22.6200008392334","0.00282066990621388","-0.000102168000012171","0.00139814999420196","0.0013813900295645","-3.62211801111698","0.012612639","64.0065409243107"
"0.756971014197916","0.8045830078125","22.7199993133545","0.00281766010448337","-0.000113704001705628","0.00139021000359207","0.00137071998324245","-4.03540544211864","0.01257018","64.0072757960297"
"0.760464754421264","0.800431884765625","22.8199996948242","0.00278232991695404","-0.000103997001133394","0.00138104998040944","0.00136610004119575","-3.73776666820049","0.012505448","64.0066573396325"
"0.763958436436951","0.792764221191406","22.9200000762939","0.00276311999186873","-0.000109715001599398","0.00137040996924043","0.0013592999894172","-3.970692679286","0.012385582","64.0070211375132"
"0.767312420066446","0.789654174804687","23.0200004577637","0.00273318006657064","-9.47989028645679E-05","0.00136203004512936","0.00133538001682609","-3.46844717860222","0.012337177","64.0060679870658"
"0.77061983756721","0.782302978515625","23.1200008392334","0.00272394996136427","-9.29918023757637E-05","0.00135359994601458","0.00132818997371942","-3.41385863721371","0.012222347","64.0059515717439"
"0.77378744026646","0.774308776855469","23.2199993133545","0.00269657000899315","-9.90768967312761E-05","0.00134973996318877","0.00132148002739996","-3.67418229579926","0.012097376","64.0063444734551"
"0.777187990024686","0.76721826171875","23.3199996948242","0.00266630994156003","-0.0001055169996107","0.00133571005426347","0.00130876002367586","-3.95741686224937","0.011986521","64.0067519270815"
"0.780635105911642","0.758732055664063","23.4200000762939","0.00265513989143074","-0.000101003002782818","0.00132734002545476","0.00129513000138104","-3.80405560135841","0.011853991","64.0064608887769"
"0.78412884613499","0.754293212890625","23.5200004577637","0.00263717002235353","-0.000104887003544718","0.00132022995967418","0.00129303999710828","-3.97725589573383","0.011784595","64.0067155472934"
"0.787016935646534","0.743024597167969","23.6200008392334","0.00258574006147683","-9.94345973595046E-05","0.00129386002663523","0.00126732001081109","-3.84549871087074","0.011608605","64.0063663013279"
"0.790277787018567","0.732079223632813","23.7199993133545","0.00256569008342922","-8.86052002897486E-05","0.00129305000882596","0.00124896003399044","-3.45346480607986","0.011437724","64.005667809397"
"0.79353858018294","0.720470031738281","23.8199996948242","0.0025462000630796","-8.67510025273077E-05","0.0012858200352639","0.00124676001723856","-3.40707711875439","0.011256368","64.0055513940752"
"0.79717201879248","0.713017700195313","23.9200000762939","0.002477060072124","-9.80409968178719E-05","0.00125062000006437","0.00124292995315045","-3.95795814692974","0.011139809","64.006271713879"
"0.800479436293244","0.700502258300781","24.0200004577637","0.00245512998662889","-9.19953017728403E-05","0.00121673999819905","0.00117452000267804","-3.74706424772739","0.010944341","64.0058860881254"
"0.804112874902785","0.691539611816406","24.1200008392334","0.002430530032143","-0.000106102001154795","0.00119635998271406","0.00117836997378618","-4.36538532376289","0.01080416","64.0067883068696"
"0.807280477602035","0.678421936035156","24.2199993133545","0.00237782998010516","-8.53023011586629E-05","0.00119541003368795","0.00115357001777738","-3.58740128576756","0.010599439","64.0054568066262"
"0.810867350082845","0.663271179199219","24.3199996948242","0.00236683990806341","-9.46611980907619E-05","0.00116278999485075","0.00117098004557192","-3.99947613477707","0.010362631","64.0060607111081"
"0.814128143247217","0.646844116210938","24.4200000762939","0.00227653002366424","-6.3596002291888E-05","0.00114126002881676","0.00112785003148019","-2.79354974627495","0.010106297","64.0040670987219"
"0.81734242849052","0.636573059082031","24.5200004577637","0.00225077010691166","-9.09096997929737E-05","0.00114762003067881","0.00110350002069026","-4.03904877603054","0.00994555","64.0058206045069"
"0.820323708467186","0.621939025878906","24.6200008392334","0.00219209003262222","-7.06647988408804E-05","0.00110134005080909","0.00110286998096853","-3.22362668812275","0.009717111","64.0045254840516"
"0.823584501631558","0.604696533203125","24.7199993133545","0.00212982995435596","-7.77004024712369E-05","0.0010669199982658","0.00105842994526029","-3.64819727838039","0.009447649","64.004969317466"
"0.826891860924661","0.592747497558594","24.8199996948242","0.00209939992055297","-7.93587969383225E-05","0.00103499996475875","0.00104828004259616","-3.78007031977177","0.009260945","64.0050784568302"
"0.830478733405471","0.576834838867188","24.9200000762939","0.00202870997600257","-8.68298011482693E-05","0.00101499003358185","0.00100054999347776","-4.280049726367","0.009012262","64.0055586700328"
"0.833972473628819","0.562329467773438","25.0200004577637","0.00198352010920644","-0.00010137099889107","0.000953654991462827","0.000972362002357841","-5.11066168546677","0.008785507","64.0064899926074"
"0.837419589515775","0.543786437988281","25.1200008392334","0.00191028998233378","-7.00957971275784E-05","0.000935796997509897","0.000922587991226465","-3.66938002407551","0.008496068","64.0044891042635"
"0.841285916976631","0.531455505371094","25.2199993133545","0.00189245003275573","-7.92533974163234E-05","0.000951441994402558","0.000958912016358227","-4.187873005867","0.008303334","64.0050711808726"
"0.844872847665101","0.511901519775391","25.3199996948242","0.00179530994500965","-6.69367000227794E-05","0.000887294008862227","0.000894394004717469","-3.72842028737068","0.007997926","64.0042853774503"
"0.848226773086935","0.498071228027344","25.4200000762939","0.00176501995883882","-7.69200996728614E-05","0.000866240006871521","0.000871316995471716","-4.35803011059761","0.0077817645","64.0049256617203"
"0.850835465826094","0.479725189208984","25.5200004577637","0.00173905002884567","-7.11991015123203E-05","0.000826089002657682","0.000859602994751185","-4.09413762390614","0.0074951725","64.004554587882"
"0.854003068525344","0.470085784912109","25.6200008392334","0.00163710000924766","-7.39442984922789E-05","0.000810407975222915","0.000824473972897977","-4.51678596436977","0.0073445475","64.0047292108648"
"0.857217295560986","0.454245239257813","25.7199993133545","0.00160674995277077","-8.14878003438935E-05","0.000768207013607025","0.000791269005276263","-5.07159158587456","0.0070970035","64.0052167000249"
"0.860710977576673","0.441108367919922","25.8199996948242","0.0014978899853304","-5.95856981817633E-05","0.000735267007257789","0.000746564008295536","-3.9779756218195","0.0068919075","64.0038124402054"
"0.863645749632269","0.427966278076172","25.9200000762939","0.00147214997559786","-7.28192026144825E-05","0.000720334996003658","0.000720897980500013","-4.94645237922668","0.006686486","64.0046637272462"
"0.867046241182834","0.418691802978516","26.0200004577637","0.00142961996607482","-6.55558033031411E-05","0.0007176129729487","0.000715764006599784","-4.58554029464722","0.0065416305","64.0041980659589"
"0.870353658683598","0.402254638671875","26.1200008392334","0.00141473999246955","-5.83791006647516E-05","0.000716153997927904","0.00072019302751869","-4.1264895349741","0.006284862","64.0037396806292"
"0.874266610480845","0.394689575195313","26.2199993133545","0.00137598998844624","-5.17668995598797E-05","0.000673072005156428","0.000671770016197115","-3.76215651631355","0.0061667055","64.00331039913"
"0.877900049090385","0.385149566650391","26.3199996948242","0.00129147002007812","-6.23379019089043E-05","0.00062777497805655","0.000648960995022208","-4.826894775033","0.006017587","64.0039870631881"
"0.881114276126027","0.372503387451172","26.4200000762939","0.00128116004634649","-7.07934013917111E-05","0.000644946005195379","0.000639844976831228","-5.52572682499886","0.0058199535","64.0045327600092"
"0.883955857716501","0.367459381103516","26.5200004577637","0.00124623998999596","-5.37941014044918E-05","0.000625632994342595","0.000632115988992155","-4.31651212275028","0.005741244","64.003441366367"
"0.887076836079359","0.361591766357422","26.6200008392334","0.00119658000767231","-5.44190988875926E-05","0.000573443016037345","0.00059980497462675","-4.54788655042648","0.005649564","64.0034850221127"
"0.890151306521147","0.345714263916016","26.7199993133545","0.00113890005741268","-4.55896006315015E-05","0.000553284015040845","0.000582951004616916","-4.00295034050941","0.005401539","64.0029174974188"
"0.893412157893181","0.343368469238281","26.8199996948242","0.00118213996756822","-8.27057010610588E-05","0.000568036979530007","0.000568896008189768","-6.99626952409744","0.0053646885","64.0052967355587"
"0.8965331944637","0.334877746582031","26.9200000762939","0.00107754999771714","-6.507670332212E-05","0.000519339984748513","0.000536445993930101","-6.03932067751884","0.0052321245","64.0041616861708"
"0.899887119885534","0.329805267333984","27.0200004577637","0.00107601995114237","-5.80025007366203E-05","0.000512228987645358","0.000523373018950224","-5.39046674966812","0.0051529085","64.0037105767988"
"0.903194537386298","0.320146240234375","27.1200008392334","0.00105508998967707","-5.42933994438499E-05","0.000496149994432926","0.000514501996804029","-5.14585487544537","0.0050020135","64.0034777461551"
"0.907060923054814","0.321897644042969","27.2199993133545","0.00103708996903151","-6.71426023473032E-05","0.000501742004416883","0.000504494004417211","-6.47413432598114","0.005029313","64.0042999293655"
"0.910787493921816","0.309506774902344","27.3199996948242","0.00101451005320996","-5.38784988748375E-05","0.000487467012135312","0.000499823014251888","-5.31079061329365","0.004835783","64.0034486423247"
"0.913955154828727","0.305159301757813","27.4200000762939","0.000973747984971851","-5.90956005908083E-05","0.000479042995721102","0.000483715004520491","-6.06888011097908","0.0047678325","64.0037833363749"
"0.917402328923345","0.300061096191406","27.5200004577637","0.000981776975095272","-5.09946003148798E-05","0.000489373982418329","0.000475383014418185","-5.19411228597164","0.0046882155","64.0032667433843"
"0.920663122087717","0.295775115966797","27.6200008392334","0.000971170025877655","-4.59309012512676E-05","0.000463581003714353","0.00045998499263078","-4.72943969070911","0.004621274","64.0029393252917"
"0.924063613638282","0.292876159667969","27.7199993133545","0.000951408001128584","-5.5243701353902E-05","0.000452973996289074","0.000460809009382501","-5.80652058124542","0.004575937","64.003535953816"
"0.926858629100025","0.285260864257813","27.8199996948242","0.000951408001128584","-5.5243701353902E-05","0.000451978005003184","0.000460809009382501","-5.80652058124542","0.004456955","64.003535953816"
"0.930119422264397","0.280277984619141","27.9200000762939","0.000934086972847581","-7.04730991856195E-05","0.000457471993286163","0.000475948996609077","-7.54459723830223","0.004379035","64.0045109321363"
"0.933333649300039","0.281786743164062","28.0200004577637","0.000916882010642439","-5.28964010300115E-05","0.000461713992990553","0.000451747007900849","-5.76916113495827","0.004402685","64.0033831587061"
"0.937013712245971","0.280757995605469","28.1200008392334","0.000904023996554315","-5.6250599300256E-05","0.000451183004770428","0.000443382014054805","-6.22224621474743","0.004386597","64.0036014374346"
"0.940367637667805","0.2783681640625","28.2199993133545","0.000889546994585544","-7.33728011255153E-05","0.000435229012509808","0.000445890007540584","-8.24833288788795","0.0043491835","64.0046928310767"
"0.943814753554761","0.272888671875","28.3199996948242","0.000887033005710691","-6.5693398937583E-05","0.000415463000535965","0.000431755994213745","-7.40597024559975","0.0042636055","64.0042053419165"
"0.94688922399655","0.267312805175781","28.4200000762939","0.000865255016833544","-6.13012016401626E-05","0.000415810005506501","0.000434688001405448","-7.08475559949875","0.0041765065","64.0039215795696"
"0.950382964219898","0.264549560546875","28.5200004577637","0.000855449005030096","-5.93527001910843E-05","0.000413319008657709","0.000431038002716377","-6.93819299340248","0.0041333415","64.0037978882901"
"0.953783513978124","0.264554351806641","28.6200008392334","0.000842723995447159","-7.05497004673816E-05","0.00040209898725152","0.000435813009971753","-8.37162584066391","0.00413337025","64.0045182080939"
"0.957277254201472","0.259282135009766","28.7199993133545","0.000839850981719792","-4.9391899665352E-05","0.000403218000428751","0.00041508799768053","-5.88103123009205","0.00405108325","64.0031576040201"
"0.96035172464326","0.258881744384766","28.8199996948242","0.000803740986157209","-5.29327990079764E-05","0.000386783998692408","0.000415526010328904","-6.58580288290977","0.00404481325","64.0033904346637"
"0.963565893471241","0.253978332519531","28.9200000762939","0.000820311019197106","-6.26481996732764E-05","0.00037930000689812","0.000397358002373949","-7.63712823390961","0.00396816275","64.0040088910609"
"0.966733496170491","0.251315216064453","29.0200004577637","0.000816788000520319","-7.45256984373555E-05","0.000374144001398236","0.000402217003284022","-9.12424027919769","0.00392650775","64.0047728666104"
"0.970320426858962","0.250968383789063","29.1200008392334","0.000797751999925822","-5.46652008779347E-05","0.000366424006642774","0.000390658009564504","-6.85240551829338","0.00392116675","64.003499574028"
"0.973767542745918","0.247995468139648","29.2199993133545","0.00077182799577713","-4.10696993640158E-05","0.000361473998054862","0.000389733002521098","-5.32109476625919","0.00387477","64.0026264591143"
"0.976795447058976","0.247049850463867","29.3199996948242","0.000773708976339549","-5.97672988078557E-05","0.000371420988813043","0.000368428009096533","-7.72477760910988","0.00385992325","64.0038269921206"
"0.979823293164372","0.247449493408203","29.4200000762939","0.0007508400012739","-6.30928989266977E-05","0.000362600985681638","0.000366187014151365","-8.40297564864159","0.0038661545","64.0040379948914"
"0.983270350843668","0.245886596679688","29.5200004577637","0.000719090981874615","-6.46342014078982E-05","0.000342540995916352","0.000359416007995605","-8.98832008242607","0.00384172975","64.004139858298"
"0.98690390586853","0.24294596862793","29.6200008392334","0.000719384988769889","-6.64565013721585E-05","0.000342096987878904","0.00034963499638252","-9.23795998096466","0.0037957785","64.0042562736198"
"0.990304397419095","0.235195434570313","29.7199993133545","0.000703326018992811","-7.20866009942256E-05","0.000326804991345853","0.000353687006281689","-10.2493867278099","0.00367466375","64.0046127955429"
"0.993984518572688","0.237468734741211","29.8199996948242","0.000726571015547961","-5.85554007557221E-05","0.000329283997416496","0.000356100994395092","-8.05914327502251","0.00371023175","64.0037469565868"
"0.997291877865791","0.238748031616211","29.9200000762939","0.000693935027811676","-5.70892989344429E-05","0.000332764000631869","0.000344511005096138","-8.22689458727837","0.003730225","64.0036523691379"
"1.00097188260406","0.234515625","30.0200004577637","0.000700131000485271","-6.12154981354252E-05","0.000330456008668989","0.00036029500188306","-8.74343514442444","0.00366408225","64.003914303612"
"1.00423279218376","0.227860931396484","30.1200008392334","0.000689585984218866","-5.1879800594179E-05","0.000327502988511696","0.000340955011779442","-7.52332583069801","0.00356014225","64.0033176750876"
"1.00754015147686","0.230068801879883","30.2199993133545","0.000687337014824152","-5.36941006430425E-05","0.000325216009514406","0.000355091004166752","-7.81190320849419","0.003594632","64.0034340904094"
"1.01042818278074","0.223478225708008","30.3199996948242","0.000688710017129779","-4.4869400880998E-05","0.000316641991958022","0.000349595997249708","-6.51499181985855","0.0034916905","64.0028738416731"
"1.01373565848917","0.230282653808594","30.4200000762939","0.000672774971462786","-6.14855016465299E-05","0.000322498992318287","0.000343130988767371","-9.13908779621124","0.00359794525","64.0039361314848"
"1.01685663685203","0.225646041870117","30.5200004577637","0.000685991020873189","-5.62905006518122E-05","0.000332931987941265","0.000354040006641299","-8.20572003722191","0.003525521","64.0036014374346"
"1.02035037707537","0.221675491333008","30.6200008392334","0.000676397001370788","-6.08877999184188E-05","0.000319354992825538","0.000336164986947551","-9.00178477168083","0.00346346875","64.0038997516967"
"1.0236578527838","0.221158676147461","30.7199993133545","0.000649920024443418","-5.04913004988339E-05","0.00032619500416331","0.000313122000079602","-7.76884853839874","0.00345542975","64.0032303635962"
"1.02719804272056","0.219460571289063","30.8199996948242","0.000660287973005325","-5.34403006895445E-05","0.000292601995170116","0.000327312009176239","-8.09348374605179","0.00342888825","64.0034195384942"
"1.03073834907264","0.222151016235352","30.9200000762939","0.000643984996713698","-5.84291992709041E-05","0.000304880988551304","0.00032481798552908","-9.0730682015419","0.00347090675","64.0037396806292"
"1.03446491993964","0.220443725585938","31.0200004577637","0.000642555009108037","-5.92672986385878E-05","0.000299726001685485","0.000315545010380447","-9.22369286417961","0.003444229","64.0037906123325"
"1.03786552790552","0.220730697631836","31.1200008392334","0.000631098984740675","-7.13625995558687E-05","0.000294372002827004","0.000327079003909603","-11.3076709210873","0.003448671","64.0045691397972"
"1.04066054336727","0.212558227539063","31.2199993133545","0.000643849023617804","-6.85548002365977E-05","0.000304715998936445","0.000304446992231533","-10.647651553154","0.00332099475","64.0043872408569"
"1.04359514079988","0.218003372192383","31.3199996948242","0.000635467993561178","-5.67368006159086E-05","0.000301037012832239","0.000310420000459999","-8.92834886908531","0.0034061095","64.003630541265"
"1.04680948425084","0.215442077636719","31.4200000762939","0.000616814009845257","-5.16252002853435E-05","0.000299851992167532","0.000303606997476891","-8.36965441703796","0.00336610875","64.0033031231724"
"1.05020997580141","0.212102386474609","31.5200004577637","0.000610812974628061","-4.86583994643297E-05","0.000286855996819213","0.000300437997793779","-7.96616971492767","0.0033139385","64.0031139482744"
"1.05333107057959","0.212187957763672","31.6200008392334","0.000608040019869804","-4.78766014566645E-05","0.000306331989122555","0.000296337995678186","-7.87392258644104","0.003315278","64.0030630165711"
"1.05663831345737","0.21445100402832","31.7199993133545","0.000612335978075862","-5.58782994630747E-05","0.000281176005955786","0.000306820991681889","-9.12543088197708","0.00335060975","64.0035796095617"
"1.06008548755199","0.210842208862305","31.8199996948242","0.000607556023169309","-4.65652010461781E-05","0.000290589989162982","0.000300887011690065","-7.66434669494629","0.003294256","64.0029829810373"
"1.0639518732205","0.20984326171875","31.9200000762939","0.000601791020017117","-4.18730014644098E-05","0.0002868729934562","0.000308593997033313","-6.95806369185448","0.00327866375","64.0026773908176"
"1.06767856050283","0.216391815185547","32.0200004577637","0.000608498987276107","-5.50602017028723E-05","0.000270966993412003","0.000316437013680115","-9.04852747917175","0.003380936","64.0035214019008"
"1.07126543298364","0.208734100341797","32.1199989318848","0.000597072998061776","-4.90060992888175E-05","0.000280142994597554","0.000305494992062449","-8.20772349834442","0.0032613105","64.0031357761472"
"1.07415358070284","0.206641036987305","32.2200012207031","0.000603582011535764","-5.06069991388358E-05","0.000280854001175612","0.000289641990093514","-8.38444456458092","0.00322860275","64.0032376395538"
"1.07732112519443","0.209297256469727","32.3199996948242","0.000596589990891516","-5.75603007746395E-05","0.000285051006358117","0.000283528992440552","-9.64821726083755","0.0032700815","64.0036814729683"
"1.08034908771515","0.208981216430664","32.4199981689453","0.000601809995714575","-5.69065996387508E-05","0.000273026002105325","0.000288807001197711","-9.45590808987617","0.00326514575","64.0036450931802"
"1.08374969568104","0.200400039672852","32.5200004577637","0.000600051018409431","-4.8818899813341E-05","0.00027062400477007","0.000304582994431257","-8.13579186797142","0.00313109775","64.003121224232"
"1.08682410791516","0.202424392700195","32.6199989318848","0.000598533020820469","-6.65957995806821E-05","0.000283200992271304","0.00030913800583221","-11.1265040934086","0.0031626705","64.0042635495774"
"1.09022459946573","0.200312759399414","32.7200012207031","0.000579182000365108","-4.96251996082719E-05","0.000261899986071512","0.000296374986646697","-8.56815278530121","0.0031297315","64.0031794318929"
"1.09343882650137","0.200680877685547","32.8199996948242","0.000581632019020617","-5.32988015038427E-05","0.000267094990704209","0.000277604995062575","-9.1636635363102","0.0031354715","64.0034122625366"
"1.09730521216989","0.201683059692383","32.9199981689453","0.000569203984923661","-5.52486017113552E-05","0.00027353799669072","0.000290711002890021","-9.70629155635834","0.00315112375","64.003535953816"
"1.10098533332348","0.198250305175781","33.0200004577637","0.000553707999642938","-4.69149999844376E-05","0.000269259995548055","0.000268058007350191","-8.47287774085999","0.00309751575","64.0030048089102"
"1.1041994439438","0.19275178527832","33.1199989318848","0.000570943986531347","-5.39713000762276E-05","0.000267275987425819","0.000292428012471646","-9.45299342274666","0.003011584","64.0034559182823"
"1.10746023710817","0.195917633056641","33.2200012207031","0.000565518974326551","-5.27545016666409E-05","0.000264389003859833","0.000276823004242033","-9.32851061224937","0.0030610515","64.0033758827485"
"1.11076759640127","0.1952802734375","33.3199996948242","0.000552135985344648","-5.36533989361487E-05","0.00025391299277544","0.00027984898770228","-9.71742495894432","0.0030510905","64.0034340904094"
"1.1140750721097","0.1959560546875","33.4199981689453","0.000559293024707586","-5.34311984665692E-05","0.000266215007286519","0.000282677006907761","-9.55334678292274","0.00306164975","64.0034195384942"
"1.11700978595763","0.188360610961914","33.5200004577637","0.000557632010895759","-4.2819301597774E-05","0.000270124000962824","0.000269753014435992","-7.67877399921417","0.0029430085","64.0027428744361"
"1.12013076432049","0.189617080688477","33.6199989318848","0.000543769972864538","-3.71339992852882E-05","0.000256183004239574","0.000274825986707583","-6.82898983359337","0.00296265675","64.0023790765554"
"1.12339167390019","0.189959060668945","33.7200012207031","0.000538719003088772","-6.03988009970635E-05","0.000249063014052808","0.000270321994321421","-11.211559176445","0.002967931","64.0038633719087"
"1.126978546381","0.187150177001953","33.8199996948242","0.000539774016942829","-5.27685006090906E-05","0.000245547998929396","0.000266679999185726","-9.77603569626808","0.00292406725","64.0033758827485"
"1.13047217018902","0.185528930664063","33.9199981689453","0.000522177026141435","-5.45391012565233E-05","0.00025108500267379","0.000256427010754123","-10.4445621371269","0.0028987315","64.0034922980703"
"1.1340124765411","0.184988632202148","34.0200004577637","0.000515721971169114","-5.38833992322907E-05","0.000258674990618601","0.00026452200836502","-10.4481481015682","0.00289029175","64.0034486423247"
"1.13713345490396","0.179143981933594","34.1199989318848","0.000527905998751521","-5.45055991096888E-05","0.000251743011176586","0.000260834989603609","-10.3248685598373","0.00279897225","64.0034850221127"
"1.14062731154263","0.181263900756836","34.2200012207031","0.000519561988767236","-6.43167004454881E-05","0.00025163299869746","0.000263922003796324","-12.3790234327316","0.00283206625","64.0041180304252"
"1.14407436922193","0.182352478027344","34.3199996948242","0.000541928980965167","-3.94995986425783E-05","0.000276608014246449","0.000268136995146051","-7.28870406746864","0.002849145","64.0025245957077"
"1.14770780783147","0.18039323425293","34.4199981689453","0.000529625976923853","-4.47343991254456E-05","0.000256717001320794","0.000286778988083825","-8.44641327857971","0.00281851825","64.0028665657155"
"1.15082878619432","0.181299713134766","34.5200004577637","0.000519010005518794","-3.94242997572292E-05","0.000256013998296112","0.000284773006569594","-7.59605765342712","0.00283269625","64.0025245957077"
"1.15418282803148","0.182543273925781","34.6199989318848","0.00052905100164935","-3.78233016817831E-05","0.000250620010774583","0.000274179998086765","-7.14927315711975","0.00285213075","64.0024227323011"
"1.15725735668093","0.179096115112305","34.7200012207031","0.000524025002960116","-5.46355004189536E-05","0.000250988989137113","0.000258637010119855","-10.4261249303818","0.002798224","64.003499574028"
"1.16089079529047","0.173147369384766","34.8199996948242","0.000511344987899065","-5.74801015318371E-05","0.000228117001825012","0.000266588001977652","-11.2409628927708","0.00270527225","64.0036814729683"
"1.16433785296977","0.173546173095703","34.9199981689453","0.000499695015605539","-4.78352994832676E-05","0.000250396988121793","0.000257950014201924","-9.57289934158325","0.00271152925","64.0030630165711"
"1.16745894774795","0.173370452880859","35.0200004577637","0.000505413976497948","-6.99274969520047E-05","0.000250556011451408","0.000244146009208635","-13.8356864452362","0.002708724","64.0044745523483"
"1.17044022772461","0.170339859008789","35.1199989318848","0.000492980994749814","-3.63045983249322E-05","0.000248650991125032","0.000251524004852399","-7.36429989337921","0.00266146375","64.0023208688945"
"1.17388740181923","0.16993293762207","35.2200012207031","0.000507085002027452","-4.76854002045002E-05","0.0002404690021649","0.000258401996688917","-9.40382778644562","0.0026550755","64.0030484646559"
"1.17742759175599","0.170200973510742","35.3199996948242","0.000515745021402836","-4.73293985123746E-05","0.000238412001635879","0.000268634001258761","-9.17689949274063","0.00265926425","64.003026636783"
"1.18078163359314","0.168846755981445","35.4199981689453","0.000488210993353277","-6.11436989856884E-05","0.000248213007580489","0.000257384002907202","-12.5240311026573","0.00263806925","64.003914303612"
"1.1843218235299","0.169651138305664","35.5200004577637","0.000476212007924914","-4.97615001222584E-05","0.000221057998714969","0.000244582013692707","-10.449443012476","0.00265066725","64.0031867078505"
"1.18762929923832","0.167667755126953","35.6199989318848","0.000491103972308338","-6.75811970722862E-05","0.000234307997743599","0.000236089006648399","-13.7610778212547","0.00261963175","64.0043217572384"
"1.1911696055904","0.163498458862305","35.7200012207031","0.000470972998300567","-7.1909700636752E-05","0.00023475599300582","0.000243350004893728","-15.2683272957802","0.00255447975","64.0046055195853"
"1.19433726649731","0.160100921630859","35.8199996948242","0.000495298008900136","-4.71622988698073E-05","0.000223308001295663","0.000255777995334938","-9.52200517058373","0.002501459","64.0030193608254"
"1.19764462579042","0.163766983032227","35.9199981689453","0.000471934006782249","-4.66735982627142E-05","0.000218479995965026","0.000234010993153788","-9.88985747098923","0.00255873975","64.002990256995"
"1.20043952483684","0.16018684387207","36.0200004577637","0.000468465004814789","-4.2076499084942E-05","0.000225437004701234","0.000241044006543234","-8.98178070783615","0.00250281425","64.0026919427328"
"1.20370043441653","0.154803970336914","36.1199989318848","0.000456440990092233","-4.95644017064478E-05","0.000210546000744216","0.000236848994973116","-10.8588844537735","0.00241869225","64.0031721559353"
"1.20677484665066","0.155095932006836","36.2200012207031","0.00046538098831661","-5.24384013260715E-05","0.000222646005568095","0.00023590300406795","-11.2678430974483","0.00242324675","64.0033540548757"
"1.21022202074528","0.151380630493164","36.3199996948242","0.000431152002420276","-5.11508987983689E-05","0.000227206997806206","0.000217323002289049","-11.863774061203","0.00236520125","64.0032740193419"
"1.21348269749433","0.149216781616211","36.4199981689453","0.000422657991293818","-4.85529017169029E-05","0.000226193005801179","0.000234983002883382","-11.4875145256519","0.002331399","64.0031066723168"
"1.21716281864792","0.149886428833008","36.5200004577637","0.000427410006523132","-2.24312007048866E-05","0.00021809600002598","0.000232428996241651","-5.24816922843456","0.002341923","64.0014332020655"
"1.22056342661381","0.152526794433594","36.6199989318848","0.000444756995420903","-4.6128701796988E-05","0.000207353004952893","0.000230421996093355","-10.3716634213924","0.00238312125","64.0029538772069"
"1.22447637841105","0.148926452636719","36.7200012207031","0.000422318000346422","-4.54559994977899E-05","0.000190794002264738","0.00023401300131809","-10.7634529471397","0.00232687","64.0029102214612"
"1.22792355250567","0.153519195556641","36.8199996948242","0.000436344998888671","-6.02084983256646E-05","0.000193439002032392","0.000223783004912548","-13.7983709573746","0.002398593","64.0038560959511"
"1.23095128219575","0.149387329101562","36.9199981689453","0.000433551002060995","-7.05498969182372E-05","0.000187552999705076","0.000213769002584741","-16.27257168293","0.00233401225","64.0045182080939"
"1.23369973152876","0.145701522827148","37.0200004577637","0.000424414989538491","-6.30996000836603E-05","0.000187551995622925","0.000210095997317694","-14.8674294352531","0.00227644275","64.0040379948914"
"1.23696052469313","0.146686187744141","37.1199989318848","0.000421141012338921","-6.45539985271171E-05","0.000195856002392247","0.000214672996662557","-15.3283581137657","0.00229182375","64.0041325823404"
"1.24022143427283","0.146096786499023","37.2200012207031","0.000412744993809611","-5.50664008187596E-05","0.000187641999218613","0.000199091999093071","-13.3415058255196","0.0022826365","64.0035214019008"
"1.24348211102188","0.139279891967773","37.3199996948242","0.00039014799403958","-7.16915019438602E-05","0.000193654006579891","0.000205168995307758","-18.3754622936249","0.00217609225","64.0045909676701"
"1.24660308938473","0.143859497070313","37.4199981689453","0.000374430004740134","-7.2488299338147E-05","0.000190759994438849","0.000194581996765919","-19.3596392869949","0.00224764175","64.0046418993734"
"1.2500969460234","0.142283462524414","37.5200004577637","0.000396465009544045","-7.55091969040222E-05","0.000189771002624184","0.000199650996364653","-19.045615196228","0.00222301125","64.0048310742714"
"1.25373038463295","0.143452346801758","37.6199989318848","0.000392256013583392","-6.05483983235899E-05","0.000202094000997022","0.000193375002709217","-15.4359400272369","0.00224130725","64.0038779238239"
"1.25750352162868","0.144657455444336","37.7200012207031","0.000383923994377255","-4.91485989186913E-05","0.000185641998541541","0.000193428000784479","-12.8016486763954","0.00226016175","64.0031430521049"
"1.26118364278227","0.145356597900391","37.8199996948242","0.000393577007343993","-5.01005997648463E-05","0.000185808006790467","0.000192462000995874","-12.7295553684235","0.002271083","64.0032085357234"
"1.26411835663021","0.143657165527344","37.9199981689453","0.00039416499203071","-6.21639992459677E-05","0.00019964600505773","0.000189797996426933","-15.771059691906","0.00224450375","64.0039797872305"
"1.2672859011218","0.138810699462891","38.0200004577637","0.000393950991565362","-6.92543035256676E-05","0.00018464399909135","0.000198002002434805","-17.5794199109077","0.002168767","64.0044308966026"
"1.27026729751378","0.136336318969727","38.1199989318848","0.000375320989405736","-7.03459008946083E-05","0.000180524002644233","0.00018568399536889","-18.7428623437881","0.00213010525","64.0045036561787"
"1.27362122293562","0.138100952148438","38.2200012207031","0.000370883994037285","-7.35393987270072E-05","0.00018178099708166","0.000179223003215157","-19.8281407356262","0.00215766875","64.0047073829919"
"1.27674220129848","0.136117614746094","38.3199996948242","0.000371656002243981","-5.7217799621867E-05","0.000176161993294954","0.000208444005693309","-15.3953656554222","0.002126716","64.0036596450955"
"1.28014280926436","0.135952133178711","38.4199981689453","0.000375848001567647","-5.37334999535233E-05","0.000181137002073228","0.000185780998435803","-14.2966032028198","0.002124138","64.003441366367"
"1.28326390404254","0.138640563964844","38.5200004577637","0.000350807007635012","-6.00833009229973E-05","0.00015904700558167","0.000180300994543359","-17.1271666884422","0.00216612875","64.0038488199934"
"1.28699047490954","0.136390594482422","38.6199989318848","0.000343074992997572","-5.66413000342436E-05","0.000175559995113872","0.000169061997439712","-16.5098890662193","0.00213098225","64.0036232653074"
"1.29062391351908","0.138523773193359","38.7200012207031","0.000315471988869831","-5.01649010402616E-05","0.000179408001713455","0.000155720001203008","-15.9015387296677","0.0021643255","64.0032085357234"
"1.29416433628649","0.131964065551758","38.8199996948242","0.000343002990121022","-7.55873988964595E-05","0.000164274999406189","0.000160951996804215","-22.0369502902031","0.002061782625","64.004838350229"
"1.29728531464934","0.134142227172852","38.9199981689453","0.000334498006850481","-7.11046013748273E-05","0.000160234994837083","0.000149461993714795","-21.2571069598198","0.00209582325","64.0045473119244"
"1.30077893845737","0.130363357543945","39.0200004577637","0.000319353013765067","-7.69285979913548E-05","0.000149073006468825","0.00013313400268089","-24.0888923406601","0.00203677075","64.0049256617203"
"1.30408641416579","0.129840835571289","39.1199989318848","0.000338609999744222","-7.03203986631706E-05","0.000172765998286195","0.000148338993312791","-20.7673728466034","0.002028620375","64.0045036561787"
"1.30725407507271","0.129372482299805","39.2200012207031","0.000339126010658219","-6.77396965329535E-05","0.000179805996594951","0.00015500899462495","-19.9747875332832","0.002021308125","64.0043363091536"
"1.31023535504937","0.128073501586914","39.3199996948242","0.000359461002517492","-6.047599890735E-05","0.000161506002768874","0.000149379004142247","-16.8240785598755","0.0020010275","64.0038706478663"
"1.31354271434247","0.130470489501953","39.4199981689453","0.00031555601162836","-6.45373002043925E-05","0.000169498001923785","0.000163769000209868","-20.4519331455231","0.002038469875","64.0041325823404"
"1.3170363381505","0.133509918212891","39.5200004577637","0.000338314013788477","-6.20408973190933E-05","0.000168507001944818","0.000160622003022581","-18.3382600545883","0.002085963","64.0039725112729"
"1.32062332704663","0.127413787841797","39.6199989318848","0.000321108003845438","-6.42767990939319E-05","0.000161977994139306","0.000155425004777499","-20.0171902775764","0.0019907125","64.0041107544675"
"1.32407050114125","0.125686836242676","39.7200012207031","0.00032131199259311","-6.05507993896026E-05","0.000166333993547596","0.000130550004541874","-18.84486079216","0.001963737875","64.0038779238239"
"1.32719147950411","0.126163055419922","39.8199996948242","0.000316138000926003","-5.73200013604946E-05","0.00014779600314796","0.000137627997901291","-18.1313216686249","0.00197118475","64.0036669210531"
"1.33049883879721","0.129370101928711","39.9199981689453","0.000310858013108373","-6.91024033585563E-05","0.000157863003551029","0.000158145994646475","-22.2295716404915","0.002021268125","64.004423620645"
"1.33389933034778","0.128391693115234","40.0200004577637","0.000316201010718942","-4.99326997669414E-05","0.00015381199773401","0.000166279001859948","-15.791442990303","0.00200602","64.0031939838082"
"1.33753288537264","0.123316596984863","40.1199989318848","0.000317514000926167","-4.52407984994352E-05","0.000148658000398427","0.000172547996044159","-14.2484426498413","0.001926734625","64.002895669546"
"1.34060729760677","0.127552375793457","40.2200012207031","0.000321733998134732","-5.19720015290659E-05","0.000152210996020585","0.000178353002411313","-16.1537170410156","0.00199290225","64.0033249510452"
"1.34391477331519","0.125591201782227","40.3199996948242","0.000339688995154575","-6.57386990496889E-05","0.000162744006956927","0.000170405997778289","-19.352613389492","0.0019622335","64.0042053419165"
"1.34689605329186","0.118883682250977","40.4199981689453","0.00033919999259524","-3.84017002943438E-05","0.000168412007042207","0.000167128993780352","-11.3212555646896","0.00185748625","64.0024591120891"
"1.35048292577267","0.123227500915527","40.5200004577637","0.000293079006951302","-7.27259975974448E-05","0.000145842001074925","0.000154731998918578","-24.8144701123238","0.001925289625","64.0046564512886"
"1.35392998345196","0.121185928344727","40.6199989318848","0.00031244198908098","-6.50814981781878E-05","0.000144086996442638","0.000162823998834938","-20.8299458026886","0.001893406875","64.0041616861708"
"1.35733059141785","0.12285090637207","40.7200012207031","0.000305005989503115","-7.1241898695007E-05","0.000151126005221158","0.000148616003571078","-23.3575403690338","0.001919408625","64.0045618638396"
"1.36007892433554","0.121801361083984","40.8199996948242","0.000308031012536958","-7.71249979152344E-05","0.000147412996739149","0.000154332999954931","-25.0380635261536","0.0019029995","64.004932937678"
"1.36347953230143","0.12223371887207","40.9199981689453","0.00030977200367488","-6.66756022837944E-05","0.000141080992761999","0.000151729997014627","-21.5240880846977","0.0019097745","64.0042708255351"
"1.36692670639604","0.122619476318359","41.0200004577637","0.000304734014207497","-4.58549984614365E-05","0.000150762003613636","0.000152616994455457","-15.047550201416","0.0019158415","64.002932049334"
"1.37051357887685","0.120767990112305","41.1199989318848","0.000294528988888487","-6.6240900196135E-05","0.00013140999362804","0.000130874002934434","-22.4904507398605","0.001886874875","64.0042417217046"
"1.37386750429869","0.11829825592041","41.2200012207031","0.000288404000457376","-7.87263998063281E-05","0.000133800000185147","0.000145682002766989","-27.2972643375397","0.00184826475","64.0050420770422"
"1.37736112810671","0.12163697052002","41.3199996948242","0.000292767013888806","-8.71411029947922E-05","0.000120185002742801","0.000145148995216005","-29.7646582126617","0.001900412","64.0055804979056"
"1.3807617360726","0.121736503601074","41.4199981689453","0.000291052012471482","-5.97621983615682E-05","0.000143743003718555","0.00015154700668063","-20.5331698060036","0.00190201925","64.0038269921206"
"1.38416234403849","0.120109924316406","41.5200004577637","0.000298503990052268","-5.04175004607532E-05","0.000156687005073763","0.000148082996020094","-16.8900579214096","0.001876623","64.0032230876386"
"1.38746970333159","0.117056930541992","41.6199989318848","0.000283506989944726","-3.38952013407834E-05","0.000157274000230245","0.000143380006193183","-11.9556836783886","0.0018289525","64.0021680737846"
"1.3904043007642","0.116400108337402","41.7200012207031","0.000289710995275527","-3.21240986522753E-05","0.000159960996825248","0.00015692699525971","-11.0883258283138","0.00181869325","64.0020589344203"
"1.39347882941365","0.118921295166016","41.8199996948242","0.000293955992674455","-5.31568002770655E-05","0.000156961003085598","0.000137548995553516","-18.0832505226135","0.0018580465","64.003404986579"
"1.39664649032056","0.116680130004883","41.9199981689453","0.000275986007181928","-4.27236009272747E-05","0.000163150005391799","0.000141362004796974","-15.480349957943","0.001823049125","64.0027355984785"
"1.4000004157424","0.11312646484375","42.0200004577637","0.000268587988102809","-4.38653005403467E-05","0.000148211998748593","0.00014019399532117","-16.3318172097206","0.0017675235","64.0028083580546"
"1.40335445757955","0.114370452880859","42.1199989318848","0.000259071006439626","-3.91067005693913E-05","0.000161610994837247","0.000138546995003708","-15.0949746370316","0.0017869685","64.0025027678348"
"1.40689464751631","0.114380905151367","42.2200012207031","0.000262106012087315","-4.92858998768497E-05","0.000135891998070292","0.000128159997984767","-18.8038051128387","0.001787113625","64.0031576040201"
"1.4102952554822","0.113313888549805","42.3199996948242","0.000271088996669278","-5.4654501582263E-05","0.000127610997878946","0.000128504994791001","-20.1610907912254","0.00177043275","64.003499574028"
"1.41416164115071","0.114109970092773","42.4199981689453","0.000239489003433846","-6.46521002636291E-05","0.00011186800111318","0.000132717002998106","-26.9958525896072","0.001782853","64.004139858298"
"1.41765538137406","0.116657913208008","42.5200004577637","0.000250192999374121","-5.43446003575809E-05","0.000143773999297991","0.000117757001135033","-21.7210710048676","0.001822680875","64.0034777461551"
"1.42091617453843","0.113561462402344","42.6199989318848","0.000250012002652511","-4.40889016317669E-05","0.000142092001624405","0.000130410000565462","-17.6347136497498","0.001774319625","64.0028229099698"
"1.42357137519866","0.111544883728027","42.7200012207031","0.000253773003350943","-4.71454004582483E-05","0.000119568998343311","0.000131812004838139","-18.5777842998505","0.001742806625","64.0030193608254"
"1.4267856022343","0.110278999328613","42.8199996948242","0.000255065999226645","-3.49135989381466E-05","0.000140114003443159","0.000129413994727656","-13.6880651116371","0.00172304925","64.0022335574031"
"1.42999982926995","0.109868278503418","42.9199981689453","0.000247660995228216","-3.76882017008029E-05","0.000140535994432867","0.000129552005091682","-15.2176558971405","0.001716627125","64.0024154563434"
"1.43349345307797","0.110673889160156","43.0200004577637","0.000254106998909265","-4.71218991151545E-05","0.000130857006297447","0.00013082500663586","-18.5441166162491","0.001729198","64.0030193608254"
"1.43652141559869","0.110501831054688","43.1199989318848","0.000259027990978211","-4.52673994004726E-05","0.000113324000267312","0.000137352006277069","-17.4758717417717","0.001726513","64.002895669546"
"1.44006172195077","0.109187072753906","43.2200012207031","0.000244908995227888","-4.24962017859798E-05","0.000141650001751259","0.000126099999761209","-17.351832985878","0.0017059755","64.0027210465632"
"1.44350889604539","0.107357864379883","43.3199996948242","0.000243684000452049","-3.71554997400381E-05","0.000151571002788842","0.000153447006596252","-15.2474105358124","0.00167740425","64.0023790765554"
"1.44746841397136","0.110874320983887","43.4199981689453","0.000251335994107649","-3.18501988658682E-05","0.000134158006403595","0.000134069006890059","-12.672358751297","0.001732356125","64.0020371065475"
"1.45119498483837","0.109218872070313","43.5200004577637","0.000236941006733105","-3.85630009986926E-05","0.000112879002699628","0.000122893005027436","-16.2753596901894","0.001706479125","64.0024663880467"
"1.45431596320122","0.110385353088379","43.6199989318848","0.00023281600442715","-3.889530125889E-05","0.000113986003270838","0.000124229001812637","-16.7064547538757","0.001724704","64.0024882159196"
"1.45739049185067","0.108690788269043","43.7200012207031","0.000211844002478756","-5.63510002393741E-05","0.000123987003462389","0.000126672006445006","-26.6002327203751","0.001698197875","64.0036087133922"
"1.4604649040848","0.105748016357422","43.8199996948242","0.000230787001783028","-5.00507012475282E-05","0.000133366003865376","0.000115114999061916","-21.6869667172432","0.00165223","64.0032012597658"
"1.46367924753577","0.103889122009277","43.9199981689453","0.000218525994569063","-4.80511989735533E-05","0.000119470998470206","0.000138678005896509","-21.9887793064117","0.0016231895","64.0030775684863"
"1.46684679202735","0.105364151000977","44.0200004577637","0.000237269006902352","-4.27334998676088E-05","0.00012412600335665","0.000109968001197558","-18.0105701088905","0.0016462445","64.0027355984785"
"1.47015415132046","0.105304962158203","44.1199989318848","0.000238869994063862","-5.45801012776792E-05","0.000126774000818841","0.000117009003588464","-22.8492900729179","0.00164530025","64.0034922980703"
"1.47332181222737","0.102222511291504","44.2200012207031","0.000212825994822197","-2.26952997763874E-05","0.000138171002618037","0.000117575997137465","-10.6637813150883","0.0015971905","64.0014550299384"
"1.47686211857945","0.10014778137207","44.3199996948242","0.000220468995394185","-4.15934991906397E-05","0.000131217995658517","0.000122883997391909","-18.8659176230431","0.001564744","64.0026628389023"
"1.48054223973304","0.100755569458008","44.4199981689453","0.000210045996936969","-5.48472016816959E-05","0.000122762998216785","0.000129963998915628","-26.1119931936264","0.001574219375","64.0035068499856"
"1.48422212805599","0.0993854141235352","44.5200004577637","0.000229106997721829","-4.89195008412935E-05","0.0001186770023196","0.000114978000055999","-21.3522508740425","0.001552821125","64.0031285001896"
"1.48725009057671","0.102044761657715","44.6199989318848","0.000216964996070601","-5.34758983121719E-05","0.000116898998385295","0.000111257002572529","-24.6472477912903","0.001594364125","64.0034195384942"
"1.49074371438473","0.099677619934082","44.7200012207031","0.000227940996410325","-5.45818002137821E-05","0.000109186999907251","0.000117648000014015","-23.9455819129944","0.00155737775","64.0034922980703"
"1.49391137529165","0.101866325378418","44.8199996948242","0.000228938006330282","-5.05522984894924E-05","0.000125723992823623","0.000119520002044737","-22.0812186598778","0.001591580875","64.0032376395538"
"1.49721885100007","0.0961760482788086","44.9199981689453","0.000217356995563023","-3.62225982826203E-05","0.000113592999696266","0.000113545997010078","-16.6650250554085","0.001502696375","64.0023208688945"
"1.50006031617522","0.0999619369506836","45.0200004577637","0.000200125999981537","-3.90216009691358E-05","0.000104222999652848","0.00011705000360962","-19.4985166192055","0.001561844375","64.0024954918772"
"1.50341435801238","0.0998414840698242","45.1199989318848","0.000205577001906931","-3.50117989000864E-05","0.000103614998806734","0.000122779005323537","-17.0309901237488","0.001559968625","64.0022408333607"
"1.50667515117675","0.0995751800537109","45.2200012207031","0.000205674004973844","-3.28636015183292E-05","0.000108685999293812","9.29724992602132E-05","-15.9784898161888","0.001555811","64.002102590166"
"1.51044828817248","0.0978266372680664","45.3199996948242","0.000195735992747359","-2.48068008659175E-05","0.000109301996417344","0.00011331400310155","-12.6736015081406","0.00152850325","64.0015859971754"
"1.51380233000964","0.098823844909668","45.4199981689453","0.000197599001694471","-3.53415998688433E-05","0.000110369997855742","0.000108031999843661","-17.8855150938034","0.001544068","64.0022626612335"
"1.51715625543147","0.0968589477539063","45.5200004577637","0.00021007499890402","-1.0411399671284E-05","9.23262996366248E-05","0.000113843998406082","-4.95603941380978","0.00151340525","64.000669226516"
"1.52032391633838","0.0939814758300781","45.6199989318848","0.000190299993846565","-3.67555003322195E-05","0.000101728997833561","0.000118878000648692","-19.3145036697388","0.001468406625","64.0023499727249"
"1.52381765656173","0.0979796905517578","45.7200012207031","0.000200000999029726","-3.03640008496586E-05","9.81332996161655E-05","0.000111620000097901","-15.1819244027138","0.001530886125","64.0019425190985"
"1.52740452904254","0.0955088577270508","45.8199996948242","0.000192937994142994","-3.94882990804035E-05","0.000108578002254944","0.000118010997539386","-20.4668343067169","0.001492267","64.0025245957077"
"1.53066532220691","0.0946305084228516","45.9199981689453","0.000184371994691901","-3.67711982107721E-05","0.000112929003080353","0.000113993002742063","-19.9440255761147","0.001478547375","64.0023499727249"
"1.53392611537129","0.0914416732788086","46.0200004577637","0.000175491004483774","-3.02406006085221E-05","0.000108448002720252","9.51081965467893E-05","-17.2319948673248","0.001428733","64.0019352431409"
"1.53700052760541","0.0900539703369141","46.1199989318848","0.000183701995410956","-3.2244101021206E-05","9.89054024103098E-05","0.000101762001577299","-17.5523951649666","0.001407047875","64.002066210378"
"1.54044770170003","0.094399772644043","46.2200012207031","0.000194915002794005","-2.37192998611135E-05","0.000115003000246361","0.00011186800111318","-12.1690481901169","0.0014749615","64.0015205135569"
"1.54389475937933","0.0968329010009766","46.3199996948242","0.000191579005331732","-2.34897997870576E-05","0.000118438998470083","0.000100381002994254","-12.2611559927464","0.0015129785","64.0015059616417"
"1.54734193347394","0.0943499526977539","46.4199981689453","0.000174029002664611","-2.72712004516507E-05","0.000100085999292787","0.000109924003481865","-15.6704917550087","0.00147417775","64.0017460682429"
"1.55013694893569","0.0948778457641602","46.5200004577637","0.000191447994438931","-2.31159992836183E-05","9.5797200629022E-05","0.000113191003038082","-12.0742969214916","0.001482432125","64.0014768578112"
"1.55339774210006","0.0881226577758789","46.6199989318848","0.000188642006833106","-2.36282994592329E-05","0.000102126003184821","0.000119383999845013","-12.5254720449448","0.001376884","64.0015132375993"
"1.55675178393722","0.0906806182861328","46.7400016784668","0.000156323003466241","-1.86059005500283E-05","9.26049979170784E-05","9.85039005172439E-05","-11.9022153317928","0.00141685825","64.0011930954643"
